liverpool 0.0
winger 0.0
harry 0.0
kewell 0.0
is 0.0074728441727
struggling 0.0
to 0.0174024464473
recover 0.0
from 0.0
his 0.0
achilles 0.0
tendinitis 0.0
problem 0.0
and 0.00764998236774
may 0.0
not 0.00161041785917
until 0.0
march 0.0
claims 0.0
agent 0.0
26 0.0
had 0.0
hoped 0.00480954226051
play 0.0
against 0.0
fulham 0.0
last 0.0
weekend 0.0
be 0.00272800595016
ready 0.0
for 0.00232237519471
the 0.0346392338802
champions 0.0
league 0.0
tie 0.0
bayer 0.0
leverkusen 0.0
on 0.00356625054357
22 0.0
february 0.0
but 0.00283370130533
bernie 0.0
mandic 0.0
said 0.00377446770516
he 0.00788235638717
scans 0.0
which 0.00326158896156
don 0.00323100221401
show 0.0
anything 0.0
substantial 0.0
despite 0.0
best 0.0
efforts 0.0
at 0.00133492372547
moment 0.0
simply 0.0
can 0.0
shake 0.0
off 0.0
discomfort 0.0
get 0.0
back 0.00253068588655
park 0.0
continued 0.0
in 0.00655399995351
sydney 0.0
morning 0.0
herald 0.0
bit 0.0
club 0.0
are 0.00310777052917
doing 0.0
everything 0.0
they 0.00361454409231
him 0.0
right 0.00323100221401
was 0.00535275646302
desperate 0.0
fit 0.0
game 0.0
as 0.0
part 0.0
of 0.00655087366881
plan 0.0
himself 0.0
match 0.0
has 0.00129460219029
played 0.0
since 0.00271707876421
december 0.0
19 0.0
misses 0.0
out 0.00385095533068
international 0.0
duty 0.0
this 0.00491043191852
week 0.0
with 0.00129397412177
australia 0.0
facing 0.0
south 0.0
africa 0.0
durban 0.0
wednesday 0.0
