liverpool 0.0
winger 0.0
harry 0.0
kewell 0.0
is 0.0074395955438
struggling 0.0
to 0.00974532286867
recover 0.0
from 0.000876867998238
his 0.00685278404423
achilles 0.0
tendinitis 0.0
problem 0.0
and 0.010444725401
may 0.00330309156628
not 0.000961951614558
until 0.0
march 0.0
claims 0.0
agent 0.0
26 0.0
had 0.0
hoped 0.0
play 0.0
against 0.0
fulham 0.0
last 0.00244523646059
weekend 0.0
be 0.00162952100495
ready 0.00283539168973
for 0.00346806351444
the 0.0226308566611
champions 0.0
league 0.00258239133826
tie 0.0
bayer 0.0
leverkusen 0.0
on 0.00142015334664
22 0.0
february 0.0
but 0.00592429620429
bernie 0.0
mandic 0.0
said 0.0
he 0.00565004572692
scans 0.0
which 0.0
don 0.0
show 0.0
anything 0.0
substantial 0.0
despite 0.0
best 0.0
efforts 0.0
at 0.00398695290701
moment 0.0
simply 0.0
can 0.00392044344971
shake 0.0
off 0.0
discomfort 0.0
get 0.0
back 0.00151165572378
park 0.0
continued 0.0
in 0.00717732345189
sydney 0.0
morning 0.0
herald 0.0
bit 0.0
club 0.0
are 0.00371273189896
doing 0.0
everything 0.00260113456089
they 0.00431815445373
him 0.00175243644722
right 0.0
was 0.00079934109843
desperate 0.0
fit 0.00290250627144
game 0.00186590421464
as 0.000844230732812
part 0.0
of 0.0104347634027
plan 0.0
himself 0.00257626242124
match 0.0
has 0.00231991590269
played 0.0
since 0.00162299386412
december 0.0
19 0.00268206453653
misses 0.0
out 0.00230029285681
international 0.0
duty 0.0
this 0.00586630095448
week 0.0016829473615
with 0.0030917205458
australia 0.0
facing 0.0
south 0.0
africa 0.0
durban 0.0
wednesday 0.0
