liverpool 0.0
winger 0.0
harry 0.0
kewell 0.0
is 0.00285836114537
struggling 0.0
to 0.008736566592
recover 0.0
from 0.0
his 0.0043881712687
achilles 0.0
tendinitis 0.0
problem 0.0
and 0.00752429947749
may 0.0
not 0.0
until 0.0
march 0.0
claims 0.0
agent 0.0
26 0.0
had 0.0
hoped 0.0
play 0.0
against 0.0
fulham 0.0
last 0.0
weekend 0.0
be 0.0031303849105
ready 0.0
for 0.0066623097593
the 0.0198742482662
champions 0.0
league 0.0
tie 0.0
bayer 0.0
leverkusen 0.0
on 0.00409226999231
22 0.0
february 0.0
but 0.00325167025628
bernie 0.0
mandic 0.0
said 0.00721866506483
he 0.00361799936575
scans 0.0
which 0.00374267104108
don 0.0
show 0.0
anything 0.0
substantial 0.0
despite 0.0
best 0.00340309623309
efforts 0.0
at 0.0
moment 0.0
simply 0.0
can 0.00251045081759
shake 0.0
off 0.0
discomfort 0.0
get 0.0
back 0.0
park 0.0
continued 0.0
in 0.00752071034036
sydney 0.0
morning 0.0
herald 0.0
bit 0.0
club 0.0
are 0.00178308224901
doing 0.0
everything 0.0
they 0.0
him 0.0
right 0.0
was 0.00460671320946
desperate 0.0
fit 0.0
game 0.0
as 0.00486541837561
part 0.0
of 0.0100228305745
plan 0.0
himself 0.0
match 0.0
has 0.00297111020696
played 0.0
since 0.0
december 0.00410583559846
19 0.0
misses 0.0
out 0.0
international 0.0
duty 0.0
this 0.0
week 0.0
with 0.0014848343953
australia 0.00522336829927
facing 0.0
south 0.0
africa 0.0
durban 0.0
wednesday 0.0
