liverpool 0.0
winger 0.0
harry 0.0
kewell 0.0
is 0.00352402656628
struggling 0.0
to 0.00659459365268
recover 0.0
from 0.00237348242366
his 0.00231861615928
achilles 0.0
tendinitis 0.0
problem 0.0
and 0.00795135890898
may 0.0
not 0.000650946109948
until 0.0
march 0.0
claims 0.0
agent 0.0
26 0.0
had 0.000698294644409
hoped 0.0
play 0.0
against 0.0
fulham 0.0
last 0.0
weekend 0.0
be 0.00110268577255
ready 0.0
for 0.00234681497449
the 0.0144390525682
champions 0.0
league 0.0
tie 0.0
bayer 0.0
leverkusen 0.0
on 0.00384403241301
22 0.0
february 0.0
but 0.00114540883346
bernie 0.0
mandic 0.0
said 0.0
he 0.00446057206675
scans 0.0
which 0.0
don 0.00261200322694
show 0.0
anything 0.0
substantial 0.0
despite 0.0
best 0.0
efforts 0.00191257061817
at 0.000539588778913
moment 0.0
simply 0.00170013810683
can 0.00353724986336
shake 0.0
off 0.0
discomfort 0.0
get 0.00103996077838
back 0.0
park 0.0
continued 0.0
in 0.00706450316611
sydney 0.0
morning 0.0
herald 0.0
bit 0.0
club 0.0
are 0.00251238040493
doing 0.00312637186654
everything 0.0
they 0.00219154929516
him 0.0
right 0.0
was 0.00649090416612
desperate 0.0
fit 0.0
game 0.0
as 0.0
part 0.0
of 0.00661981253371
plan 0.0
himself 0.00174333924486
match 0.0
has 0.0
played 0.0
since 0.0
december 0.0
19 0.0
misses 0.0
out 0.000778296259511
international 0.0
duty 0.0
this 0.00198484296316
week 0.0
with 0.00418429249845
australia 0.0
facing 0.0
south 0.00156045977462
africa 0.0
durban 0.0
wednesday 0.0
