liverpool 0.0
winger 0.0
harry 0.0
kewell 0.0
is 0.0019056431681
struggling 0.00787705584265
to 0.00832084120537
recover 0.00829813047009
from 0.00449217299605
his 0.00877666065279
achilles 0.0
tendinitis 0.0
problem 0.0
and 0.00167212715782
may 0.0
not 0.0
until 0.0
march 0.0
claims 0.0
agent 0.0
26 0.0
had 0.0
hoped 0.0
play 0.0047794904952
against 0.00381583764911
fulham 0.0
last 0.00313172142766
weekend 0.0
be 0.0104349945911
ready 0.0
for 0.0
the 0.0115937317104
champions 0.0
league 0.0
tie 0.0
bayer 0.0
leverkusen 0.0
on 0.00363770517733
22 0.0
february 0.0
but 0.00216785874621
bernie 0.0
mandic 0.0
said 0.0
he 0.00723626101418
scans 0.0
which 0.0
don 0.0
show 0.0
anything 0.0
substantial 0.0
despite 0.0
best 0.0
efforts 0.0
at 0.00204250608089
moment 0.0
simply 0.0
can 0.00334738908493
shake 0.0
off 0.0
discomfort 0.0
get 0.0
back 0.0
park 0.0
continued 0.0
in 0.00501398862864
sydney 0.0
morning 0.00746081697745
herald 0.0
bit 0.0
club 0.0
are 0.0
doing 0.0
everything 0.0
they 0.0
him 0.0
right 0.0
was 0.00204750230606
desperate 0.0
fit 0.0
game 0.0
as 0.00216248654757
part 0.0
of 0.00167053231187
plan 0.0
himself 0.0
match 0.0
has 0.00396162386741
played 0.0
since 0.0
december 0.0
19 0.0
misses 0.0
out 0.00294608580628
international 0.0
duty 0.0
this 0.0
week 0.0
with 0.00395970190926
australia 0.0
facing 0.0
south 0.00590681034003
africa 0.0067805263395
durban 0.0
wednesday 0.0
