liverpool 0.0
winger 0.0
harry 0.00351862475398
kewell 0.0
is 0.00579938351331
struggling 0.0
to 0.00434100901193
recover 0.0
from 0.0
his 0.0
achilles 0.0
tendinitis 0.0
problem 0.0
and 0.00581569329513
may 0.00183918358192
not 0.0
until 0.00233991692839
march 0.0
claims 0.0
agent 0.0
26 0.0
had 0.00229832458527
hoped 0.0
play 0.0
against 0.0
fulham 0.0
last 0.00408457228205
weekend 0.00868997522369
be 0.0018146564929
ready 0.0
for 0.0054069149997
the 0.0252020261507
champions 0.0
league 0.0
tie 0.0
bayer 0.0
leverkusen 0.0
on 0.00158150185458
22 0.0
february 0.0
but 0.000942482268482
bernie 0.0
mandic 0.0
said 0.00167383856037
he 0.0
scans 0.0
which 0.00216959335662
don 0.0
show 0.0
anything 0.0
substantial 0.0
despite 0.0
best 0.00197274483871
efforts 0.0
at 0.00177596973776
moment 0.0
simply 0.0
can 0.0
shake 0.0
off 0.0
discomfort 0.0
get 0.0
back 0.0
park 0.0
continued 0.0
in 0.00799276386378
sydney 0.0
morning 0.0
herald 0.0
bit 0.0
club 0.0
are 0.00310091110811
doing 0.0
everything 0.0
they 0.0
him 0.0
right 0.0
was 0.0
desperate 0.0
fit 0.0
game 0.00623368803707
as 0.0
part 0.0
of 0.0094414878797
plan 0.0
himself 0.0
match 0.0
has 0.00344465270715
played 0.0
since 0.00361477556229
december 0.0
19 0.0
misses 0.0
out 0.00128081852136
international 0.0
duty 0.0
this 0.0
week 0.00937076400822
with 0.00430372694309
australia 0.0
facing 0.0
south 0.0
africa 0.0
durban 0.0
wednesday 0.0
