liverpool 0.0
winger 0.0
harry 0.0
kewell 0.0
is 0.00735964356638
struggling 0.0
to 0.0102832977706
recover 0.0
from 0.00693955566138
his 0.00225971280768
achilles 0.0
tendinitis 0.0
problem 0.0
and 0.00516623892035
may 0.0
not 0.0
until 0.0
march 0.0
claims 0.0
agent 0.0
26 0.0
had 0.00408332878695
hoped 0.0
play 0.00369170336423
against 0.0
fulham 0.0
last 0.0
weekend 0.0
be 0.00483602651909
ready 0.0
for 0.00274463429433
the 0.0140722352377
champions 0.0
league 0.0102185553968
tie 0.0
bayer 0.0
leverkusen 0.0
on 0.00140489121745
22 0.0
february 0.00447790239584
but 0.0033489307844
bernie 0.0
mandic 0.0
said 0.0
he 0.0
scans 0.0
which 0.0
don 0.0
show 0.0
anything 0.0
substantial 0.0
despite 0.00385908569542
best 0.0
efforts 0.0
at 0.0015776423403
moment 0.0
simply 0.0
can 0.0
shake 0.0
off 0.00332972206586
discomfort 0.0
get 0.0
back 0.0
park 0.0
continued 0.0
in 0.0116184928334
sydney 0.0
morning 0.0
herald 0.0
bit 0.0
club 0.00461931796495
are 0.0073456636918
doing 0.0
everything 0.0
they 0.0
him 0.0
right 0.0
was 0.00158150145065
desperate 0.0
fit 0.0
game 0.0
as 0.0
part 0.0
of 0.00258065572554
plan 0.0
himself 0.0
match 0.00447048617732
has 0.00152998945953
played 0.00422864501861
since 0.0
december 0.0
19 0.0
misses 0.0
out 0.0
international 0.0
duty 0.0
this 0.00193441896243
week 0.00665944413172
with 0.00611698877713
australia 0.0
facing 0.0
south 0.0
africa 0.0
durban 0.0
wednesday 0.0
