liverpool 0.0
winger 0.0
harry 0.0
kewell 0.0
is 0.00476420273248
struggling 0.0
to 0.0124815102021
recover 0.0
from 0.0033691967973
his 0.0
achilles 0.0
tendinitis 0.0
problem 0.0
and 0.0083608021771
may 0.0
not 0.00123203808153
until 0.0
march 0.0
claims 0.0
agent 0.0
26 0.0
had 0.00264330819678
hoped 0.0
play 0.0
against 0.0
fulham 0.0
last 0.0
weekend 0.0
be 0.00313056067849
ready 0.0
for 0.00710686276409
the 0.019047224011
champions 0.0
league 0.0
tie 0.0
bayer 0.0
leverkusen 0.0
on 0.000909444393151
22 0.0
february 0.0
but 0.00216790188954
bernie 0.0
mandic 0.0
said 0.00577525630853
he 0.0036182025128
scans 0.0
which 0.00374288118832
don 0.0
show 0.0
anything 0.0
substantial 0.0
despite 0.0
best 0.0
efforts 0.0
at 0.00510636682384
moment 0.0
simply 0.0
can 0.0
shake 0.0
off 0.0
discomfort 0.0
get 0.0019683215902
back 0.00387216444088
park 0.0
continued 0.0
in 0.00334272560922
sydney 0.0
morning 0.0
herald 0.0
bit 0.0
club 0.0
are 0.00118878824486
doing 0.0
everything 0.0
they 0.0
him 0.0
right 0.0
was 0.00307131458121
desperate 0.0
fit 0.0
game 0.0
as 0.00324379437599
part 0.00438313256027
of 0.0100233933464
plan 0.0
himself 0.0
match 0.0
has 0.000990425677276
played 0.0
since 0.00207868069083
december 0.0
19 0.0
misses 0.0
out 0.0
international 0.0
duty 0.0
this 0.0012522296798
week 0.00646640186641
with 0.00197989035635
australia 0.0
facing 0.0
south 0.00295346394679
africa 0.0
durban 0.0
wednesday 0.0
