liverpool 0.0
winger 0.0
harry 0.0
kewell 0.0
is 0.00114477645395
struggling 0.0
to 0.0139960140993
recover 0.0
from 0.0
his 0.0
achilles 0.0
tendinitis 0.0
problem 0.0
and 0.00401798580198
may 0.0
not 0.00148021428275
until 0.0032332354954
march 0.00350014662688
claims 0.0
agent 0.00518750565661
26 0.0
had 0.0
hoped 0.0
play 0.00287118190453
against 0.0
fulham 0.0
last 0.00188131808237
weekend 0.0
be 0.0012537222398
ready 0.0
for 0.00320191394444
the 0.0228840110142
champions 0.0
league 0.0
tie 0.0
bayer 0.0
leverkusen 0.0
on 0.00874111019964
22 0.0
february 0.0
but 0.0
bernie 0.0
mandic 0.0
said 0.00231286597456
he 0.0
scans 0.0
which 0.0
don 0.0
show 0.0
anything 0.0
substantial 0.0
despite 0.0
best 0.00272588678619
efforts 0.0
at 0.00122699407086
moment 0.0
simply 0.0
can 0.00402175210004
shake 0.0
off 0.0
discomfort 0.0
get 0.00236481142468
back 0.0
park 0.0
continued 0.0
in 0.00602410379707
sydney 0.0
morning 0.0
herald 0.0
bit 0.0
club 0.0
are 0.0014282523938
doing 0.0
everything 0.0
they 0.00166115265072
him 0.0
right 0.0
was 0.00122999545172
desperate 0.0
fit 0.0
game 0.0172270914272
as 0.0
part 0.0
of 0.0100353837916
plan 0.0
himself 0.0
match 0.0
has 0.00475973025664
played 0.00328878240212
since 0.00249740076541
december 0.00328878240212
19 0.0
misses 0.0
out 0.00353960250144
international 0.0
duty 0.0
this 0.0
week 0.00258965490978
with 0.00237871055098
australia 0.0
facing 0.0
south 0.0
africa 0.0
durban 0.0
wednesday 0.0
