liverpool 0.0
winger 0.0
harry 0.0
kewell 0.0
is 0.00270274437035
struggling 0.0
to 0.0118013209927
recover 0.0
from 0.0
his 0.00276617837738
achilles 0.0
tendinitis 0.0
problem 0.0
and 0.00632413922038
may 0.00599993110038
not 0.00116489724721
until 0.0
march 0.00550908232408
claims 0.0
agent 0.0
26 0.0
had 0.00249925914474
hoped 0.0
play 0.0
against 0.0
fulham 0.0
last 0.0
weekend 0.0
be 0.00493326406497
ready 0.0
for 0.000839946122024
the 0.0203582615031
champions 0.0
league 0.0
tie 0.0
bayer 0.0
leverkusen 0.0
on 0.00343953417008
22 0.0
february 0.0
but 0.00614928137659
bernie 0.0
mandic 0.0
said 0.00182017646926
he 0.00228068391184
scans 0.0
which 0.00235927339057
don 0.0
show 0.00237616768829
anything 0.0
substantial 0.0
despite 0.0
best 0.0
efforts 0.0
at 0.00579370986544
moment 0.0
simply 0.0
can 0.0
shake 0.0
off 0.00203800349097
discomfort 0.0
get 0.00372211287363
back 0.0
park 0.0
continued 0.0
in 0.00948168385062
sydney 0.0
morning 0.0
herald 0.0
bit 0.0
club 0.0
are 0.00562002171324
doing 0.0
everything 0.0
they 0.00261458381069
him 0.0
right 0.0
was 0.00580788200393
desperate 0.0
fit 0.0
game 0.00451911853007
as 0.00204468092111
part 0.00207213524084
of 0.00868739762802
plan 0.0
himself 0.0
match 0.0
has 0.00187290338231
played 0.0
since 0.00393080287186
december 0.0
19 0.00324790722127
misses 0.0
out 0.0
international 0.0
duty 0.0
this 0.00236797697852
week 0.0
with 0.000935997377214
australia 0.0
facing 0.0
south 0.0
africa 0.0
durban 0.0
wednesday 0.0
