liverpool 0.0
winger 0.0
harry 0.0
kewell 0.0
is 0.0100738839191
struggling 0.0
to 0.0113108972991
recover 0.0
from 0.00084811315871
his 0.0
achilles 0.0
tendinitis 0.0
problem 0.0
and 0.00757666125589
may 0.00319477438726
not 0.00465203328202
until 0.0
march 0.0
claims 0.0
agent 0.0
26 0.0
had 0.0
hoped 0.0
play 0.0
against 0.0
fulham 0.0
last 0.0
weekend 0.0
be 0.00236412699997
ready 0.0
for 0.00335433646541
the 0.0212633382328
champions 0.0
league 0.0
tie 0.0
bayer 0.0
leverkusen 0.0
on 0.00274716546412
22 0.0
february 0.0
but 0.00327429870666
bernie 0.0
mandic 0.0
said 0.00363444996305
he 0.00182158855455
scans 0.0
which 0.00188435818878
don 0.0
show 0.0
anything 0.00241943177526
substantial 0.0
despite 0.0
best 0.0
efforts 0.0
at 0.00154248403654
moment 0.0
simply 0.00243003189853
can 0.00252792110433
shake 0.0
off 0.00162775903052
discomfort 0.0
get 0.0
back 0.0
park 0.0
continued 0.0
in 0.00378652357093
sydney 0.0
morning 0.0
herald 0.0
bit 0.00245734594699
club 0.0
are 0.00448872690159
doing 0.0022342841831
everything 0.0
they 0.00208827532816
him 0.0
right 0.0
was 0.0
desperate 0.0
fit 0.0
game 0.0
as 0.0024496384687
part 0.0
of 0.00946179345937
plan 0.0
himself 0.0
match 0.0
has 0.00373973279163
played 0.0
since 0.0
december 0.0
19 0.0
misses 0.0
out 0.0022248601211
international 0.0
duty 0.0
this 0.000945654884286
week 0.0
with 0.00672825326871
australia 0.0
facing 0.0
south 0.0
africa 0.0
durban 0.0
wednesday 0.0
