liverpool 0.0
winger 0.0
harry 0.0
kewell 0.0
is 0.00342304117044
struggling 0.0
to 0.0113592946972
recover 0.0
from 0.00161382711807
his 0.00315304263215
achilles 0.0
tendinitis 0.0
problem 0.0
and 0.00600716881231
may 0.00151978939642
not 0.00177041881442
until 0.0
march 0.0
claims 0.0
agent 0.0
26 0.0
had 0.000949597791257
hoped 0.0
play 0.0034340936462
against 0.00274170308297
fulham 0.0
last 0.00225016132309
weekend 0.0
be 0.00149952170254
ready 0.0
for 0.00638277934424
the 0.0214204328733
champions 0.0
league 0.0
tie 0.0
bayer 0.0
leverkusen 0.0
on 0.00784114138239
22 0.0
february 0.00208271557174
but 0.00623047996743
bernie 0.0
mandic 0.0
said 0.00207473749796
he 0.00173309951455
scans 0.0
which 0.000896409964275
don 0.00177600710167
show 0.0
anything 0.0
substantial 0.0
despite 0.0
best 0.00163015629172
efforts 0.0
at 0.00293510664443
moment 0.0
simply 0.0
can 0.00240511987616
shake 0.0
off 0.0
discomfort 0.0
get 0.00282844631862
back 0.00139105943262
park 0.0
continued 0.0
in 0.0108077460405
sydney 0.0
morning 0.0
herald 0.0
bit 0.00233797311538
club 0.00214848931619
are 0.002562404247
doing 0.00212574723498
everything 0.00239362224448
they 0.0
him 0.00161263124376
right 0.0
was 0.0022067147116
desperate 0.0
fit 0.0
game 0.0
as 0.00233064005059
part 0.0031492453306
of 0.00780187106225
plan 0.0
himself 0.0
match 0.00415853243403
has 0.00142322569376
played 0.0
since 0.00149351528145
december 0.0
19 0.0
misses 0.0
out 0.0010583904873
international 0.00174973744895
duty 0.0
this 0.00089971690742
week 0.0
with 0.00284507044864
australia 0.0
facing 0.0
south 0.0
africa 0.0
durban 0.0
wednesday 0.0
