liverpool 0.0
winger 0.0
harry 0.0
kewell 0.0
is 0.00503540929406
struggling 0.0
to 0.0136806252498
recover 0.0
from 0.00131888569658
his 0.0
achilles 0.0
tendinitis 0.0
problem 0.0
and 0.00932767889211
may 0.0
not 0.000723429425977
until 0.0
march 0.0
claims 0.0
agent 0.0
26 0.0
had 0.0
hoped 0.0
play 0.0
against 0.0
fulham 0.0
last 0.0
weekend 0.0
be 0.00428914718356
ready 0.0
for 0.00156488070265
the 0.0184781925484
champions 0.0
league 0.0
tie 0.0
bayer 0.0
leverkusen 0.0
on 0.00534008522265
22 0.0
february 0.00170208056791
but 0.000636475464124
bernie 0.0
mandic 0.0
said 0.00226074741183
he 0.0
scans 0.0
which 0.00366291490248
don 0.0
show 0.00147565772937
anything 0.0
substantial 0.0
despite 0.0
best 0.0
efforts 0.0
at 0.00239868950518
moment 0.0
simply 0.0
can 0.00393112517162
shake 0.0
off 0.0
discomfort 0.0
get 0.0
back 0.0
park 0.0
continued 0.0
in 0.00539765920268
sydney 0.0
morning 0.0
herald 0.0
bit 0.0
club 0.0
are 0.0034901697053
doing 0.00173724780764
everything 0.00195616624973
they 0.0
him 0.0
right 0.0
was 0.00300569624941
desperate 0.0
fit 0.0
game 0.0
as 0.00444428744264
part 0.00257369242037
of 0.00735693340531
plan 0.0
himself 0.0
match 0.0
has 0.00290779599236
played 0.0
since 0.0
december 0.0
19 0.0
misses 0.0
out 0.00259488031798
international 0.0
duty 0.0
this 0.00294114220015
week 0.0
with 0.00174383117551
australia 0.0
facing 0.0
south 0.0
africa 0.0
durban 0.0
wednesday 0.0
