liverpool 0.0
winger 0.0
harry 0.0
kewell 0.0
is 0.00110565789343
struggling 0.0
to 0.00965553668458
recover 0.0
from 0.0104254702346
his 0.00509223567723
achilles 0.0
tendinitis 0.0
problem 0.0
and 0.00291051434256
may 0.00245449449601
not 0.00285926671543
until 0.0
march 0.00676108376063
claims 0.0
agent 0.0
26 0.0
had 0.0
hoped 0.0
play 0.0
against 0.0
fulham 0.0
last 0.00363406179547
weekend 0.0
be 0.00121088085436
ready 0.0
for 0.0030925002122
the 0.0172972435239
champions 0.0
league 0.0
tie 0.0
bayer 0.0
leverkusen 0.0
on 0.0052765091474
22 0.0
february 0.0
but 0.00377338765415
bernie 0.0
mandic 0.0
said 0.00223383221449
he 0.002798995196
scans 0.0
which 0.00289544502505
don 0.0
show 0.0
anything 0.0
substantial 0.0
despite 0.0
best 0.0
efforts 0.0
at 0.0
moment 0.0
simply 0.0
can 0.0
shake 0.0
off 0.00250116289725
discomfort 0.0
get 0.00228400261829
back 0.0
park 0.0
continued 0.00401860893816
in 0.0106667953675
sydney 0.0
morning 0.0
herald 0.0
bit 0.0
club 0.0
are 0.0
doing 0.00343313020902
everything 0.0
they 0.00160438881681
him 0.0
right 0.0
was 0.00118796484274
desperate 0.0
fit 0.0
game 0.0
as 0.00250935784912
part 0.0
of 0.0126001994922
plan 0.0
himself 0.0
match 0.0
has 0.00229854191651
played 0.0
since 0.0
december 0.0
19 0.0
misses 0.0
out 0.0
international 0.0
duty 0.0
this 0.00145306330104
week 0.0
with 0.00114871339631
australia 0.0
facing 0.0
south 0.0
africa 0.0
durban 0.0
wednesday 0.0
