liverpool 0.0
winger 0.0
harry 0.0
kewell 0.0
is 0.00114594133177
struggling 0.0
to 0.00800586049848
recover 0.0
from 0.00135066385769
his 0.0
achilles 0.0
tendinitis 0.0
problem 0.0
and 0.00502759292556
may 0.0
not 0.00444516146528
until 0.0
march 0.0
claims 0.0
agent 0.0
26 0.0
had 0.0
hoped 0.0
play 0.0
against 0.00458923910901
fulham 0.0
last 0.00188323243491
weekend 0.0
be 0.0
ready 0.0
for 0.00213678138765
the 0.0199193885655
champions 0.0
league 0.0
tie 0.0
bayer 0.0
leverkusen 0.0
on 0.0109375059961
22 0.0
february 0.0
but 0.0
bernie 0.0
mandic 0.0
said 0.00347282917895
he 0.00145048676521
scans 0.0
which 0.00150046870185
don 0.0
show 0.0
anything 0.0
substantial 0.0
despite 0.0
best 0.0
efforts 0.0
at 0.00491297043993
moment 0.0
simply 0.0
can 0.0
shake 0.0
off 0.0
discomfort 0.0
get 0.0
back 0.0
park 0.0
continued 0.0
in 0.00904535051906
sydney 0.0
morning 0.00448649499882
herald 0.0
bit 0.0
club 0.0
are 0.00428911717554
doing 0.0
everything 0.0
they 0.0
him 0.0
right 0.0
was 0.00369374113477
desperate 0.0
fit 0.0
game 0.0
as 0.00520156712598
part 0.0
of 0.00602735723331
plan 0.0
himself 0.0
match 0.0
has 0.002382286782
played 0.0
since 0.00249994201856
december 0.0
19 0.0
misses 0.0
out 0.00177160212828
international 0.0
duty 0.0
this 0.00150600407616
week 0.00259229003699
with 0.0011905655149
australia 0.0
facing 0.0
south 0.0
africa 0.0
durban 0.0
wednesday 0.0104759724323
