liverpool 0.0
winger 0.0
harry 0.0
kewell 0.0
is 0.0
struggling 0.0
to 0.0101413181957
recover 0.0
from 0.0
his 0.00162073699948
achilles 0.0
tendinitis 0.0
problem 0.0
and 0.00741077763326
may 0.0
not 0.00136505446256
until 0.0
march 0.0
claims 0.0
agent 0.0
26 0.00403656891588
had 0.00146434582827
hoped 0.0
play 0.00529561120615
against 0.00422789680945
fulham 0.0
last 0.0
weekend 0.0
be 0.00231236674068
ready 0.0
for 0.000984268960142
the 0.0220211980318
champions 0.00402355380521
league 0.0
tie 0.0
bayer 0.0
leverkusen 0.0
on 0.0040305284258
22 0.0
february 0.0
but 0.00600489585726
bernie 0.0
mandic 0.0
said 0.00319938949719
he 0.00400883995437
scans 0.0
which 0.0
don 0.00273872645267
show 0.0
anything 0.00354969100764
substantial 0.0
despite 0.0
best 0.00502762872281
efforts 0.0
at 0.00452613855032
moment 0.0
simply 0.0
can 0.00185443104943
shake 0.0
off 0.0
discomfort 0.0
get 0.0
back 0.0
park 0.0
continued 0.0
in 0.00648133731591
sydney 0.0
morning 0.0
herald 0.0
bit 0.00360531712441
club 0.0
are 0.0013171351787
doing 0.0
everything 0.00369113195127
they 0.00459574778858
him 0.0
right 0.00273872645267
was 0.00680581507641
desperate 0.0
fit 0.0
game 0.00529561120615
as 0.00119800300952
part 0.0
of 0.00647824569157
plan 0.0
himself 0.0
match 0.00961911929068
has 0.00109735649479
played 0.00606583404407
since 0.0
december 0.0
19 0.0
misses 0.0
out 0.00326422346183
international 0.0
duty 0.0
this 0.00138742603673
week 0.0
with 0.00109682411885
australia 0.0
facing 0.0
south 0.0
africa 0.0
durban 0.0
wednesday 0.0
