liverpool 0.0
winger 0.0
harry 0.0
kewell 0.0
is 0.00676433459511
struggling 0.0
to 0.0143460258976
recover 0.0
from 0.00227793817204
his 0.00148352036172
achilles 0.0
tendinitis 0.0
problem 0.0
and 0.0161104755779
may 0.0
not 0.00249896940801
until 0.0
march 0.0
claims 0.0
agent 0.0
26 0.0
had 0.00134036975372
hoped 0.0
play 0.0
against 0.0
fulham 0.0
last 0.0
weekend 0.0
be 0.00634978373048
ready 0.0
for 0.00270281306143
the 0.026875753175
champions 0.0
league 0.0
tie 0.0
bayer 0.0
leverkusen 0.0
on 0.000922322836782
22 0.0
february 0.0
but 0.00219860107521
bernie 0.0
mandic 0.0
said 0.00292851922654
he 0.0110083172675
scans 0.0
which 0.0
don 0.0
show 0.0
anything 0.0
substantial 0.0
despite 0.0
best 0.00230098701512
efforts 0.0
at 0.00310720618221
moment 0.0
simply 0.0
can 0.00509228743858
shake 0.0
off 0.0
discomfort 0.0
get 0.00399238912559
back 0.00196349865835
park 0.0
continued 0.0
in 0.00169503060863
sydney 0.0
morning 0.0
herald 0.0
bit 0.0
club 0.00303262088658
are 0.0
doing 0.00600104028055
everything 0.0
they 0.0070110957997
him 0.0
right 0.00250685734886
was 0.0031148067969
desperate 0.0
fit 0.0
game 0.0
as 0.0
part 0.0
of 0.00847111036059
plan 0.0
himself 0.0
match 0.0
has 0.00301335263761
played 0.00277614082916
since 0.0
december 0.0
19 0.0
misses 0.0
out 0.0
international 0.0
duty 0.0
this 0.00380988669325
week 0.00655797117241
with 0.00702774503103
australia 0.0
facing 0.0
south 0.0
africa 0.0
durban 0.0
wednesday 0.0
