liverpool 0.0
winger 0.0
harry 0.0
kewell 0.0
is 0.0010681630573
struggling 0.0
to 0.0074624801369
recover 0.0
from 0.00125899048723
his 0.0114789473407
achilles 0.0
tendinitis 0.0
problem 0.0
and 0.00749816959224
may 0.00237125819892
not 0.00276230386862
until 0.0
march 0.0
claims 0.0
agent 0.0
26 0.0
had 0.00148161419833
hoped 0.0
play 0.0
against 0.00427775449009
fulham 0.0
last 0.00175541213107
weekend 0.0
be 0.00467927087794
ready 0.0
for 0.00497938000082
the 0.0185674034087
champions 0.0
league 0.0
tie 0.0
bayer 0.0
leverkusen 0.0
on 0.00101951465752
22 0.0
february 0.0
but 0.00364542533184
bernie 0.0
mandic 0.0
said 0.00647423690974
he 0.00405611439629
scans 0.0
which 0.0
don 0.00277102301879
show 0.0
anything 0.0
substantial 0.0
despite 0.0
best 0.0
efforts 0.0
at 0.003434634946
moment 0.0
simply 0.0
can 0.0037525990372
shake 0.0
off 0.00241634399122
discomfort 0.0
get 0.00220654800562
back 0.00217040669751
park 0.0
continued 0.0
in 0.00749459291923
sydney 0.0
morning 0.0
herald 0.0
bit 0.0
club 0.0
are 0.0
doing 0.0
everything 0.0
they 0.0
him 0.00251611510622
right 0.0
was 0.00803375181553
desperate 0.0
fit 0.0
game 0.0
as 0.00242426103763
part 0.0
of 0.00561826347588
plan 0.0
himself 0.00739789771657
match 0.00648836881803
has 0.0
played 0.0
since 0.0
december 0.0
19 0.0
misses 0.0
out 0.0
international 0.0
duty 0.0
this 0.00140378732636
week 0.00241634399122
with 0.0044390338844
australia 0.0
facing 0.0
south 0.0
africa 0.0
durban 0.0
wednesday 0.0
