liverpool 0.0
winger 0.0
harry 0.0
kewell 0.0
is 0.00618868142228
struggling 0.0
to 0.00864716521915
recover 0.0
from 0.00145885798725
his 0.0
achilles 0.0
tendinitis 0.0
problem 0.00375920579639
and 0.00760245539704
may 0.00274770063667
not 0.00320082566376
until 0.0
march 0.0
claims 0.00381667797128
agent 0.0
26 0.0
had 0.0
hoped 0.0
play 0.0
against 0.00247842869691
fulham 0.0
last 0.00203408765539
weekend 0.0
be 0.00271105769425
ready 0.0
for 0.00346192049556
the 0.0236665213471
champions 0.0
league 0.0
tie 0.0
bayer 0.0
leverkusen 0.0
on 0.00236272968911
22 0.0
february 0.0
but 0.00281609639692
bernie 0.0
mandic 0.0
said 0.00625169684423
he 0.0047000314492
scans 0.0
which 0.0
don 0.00321092899812
show 0.0
anything 0.00416171749452
substantial 0.0
despite 0.0
best 0.0
efforts 0.0
at 0.00397989077366
moment 0.0
simply 0.0
can 0.00217416618072
shake 0.0
off 0.0
discomfort 0.0
get 0.0
back 0.0
park 0.0
continued 0.0
in 0.00542773498504
sydney 0.0
morning 0.0
herald 0.0
bit 0.0
club 0.0
are 0.00463269437036
doing 0.0
everything 0.00432754523792
they 0.0
him 0.0
right 0.0
was 0.0
desperate 0.0
fit 0.0
game 0.0
as 0.0
part 0.00284683635125
of 0.00651017511998
plan 0.0
himself 0.0
match 0.0
has 0.00257311845582
played 0.0
since 0.0
december 0.0
19 0.0
misses 0.0
out 0.00191351526906
international 0.0
duty 0.0
this 0.0130131331363
week 0.0
with 0.00385780518417
australia 0.0
facing 0.0
south 0.0
africa 0.0
durban 0.0
wednesday 0.0
