liverpool 0.0
winger 0.0
harry 0.0
kewell 0.0
is 0.00270563051323
struggling 0.0
to 0.0177208846633
recover 0.0
from 0.00318899165706
his 0.0
achilles 0.0
tendinitis 0.0
problem 0.0
and 0.00830929639698
may 0.0
not 0.0
until 0.0038208073649
march 0.0
claims 0.0
agent 0.0
26 0.0
had 0.00187644599597
hoped 0.0
play 0.0
against 0.0
fulham 0.0
last 0.00222320768007
weekend 0.0
be 0.00148155962478
ready 0.0
for 0.0012612645958
the 0.0176365395026
champions 0.0
league 0.0
tie 0.0
bayer 0.0
leverkusen 0.0
on 0.003873607986
22 0.0
february 0.00411553536804
but 0.00153896198152
bernie 0.0
mandic 0.0
said 0.00136659011727
he 0.0
scans 0.0
which 0.00177134456682
don 0.0
show 0.0
anything 0.0
substantial 0.0
despite 0.0
best 0.0
efforts 0.0
at 0.00289994835781
moment 0.0
simply 0.0
can 0.0
shake 0.0
off 0.00306026967906
discomfort 0.0
get 0.0
back 0.0
park 0.0
continued 0.0
in 0.00593238057964
sydney 0.0
morning 0.0
herald 0.0
bit 0.0
club 0.0
are 0.00168780692682
doing 0.0
everything 0.0
they 0.00196303185806
him 0.0
right 0.0070189325321
was 0.00145352099698
desperate 0.0
fit 0.0
game 0.0
as 0.00153514826004
part 0.00622304395116
of 0.00474364064793
plan 0.00437448772952
himself 0.0
match 0.0
has 0.00281235506127
played 0.0
since 0.00295125030365
december 0.0
19 0.0
misses 0.0
out 0.0
international 0.0
duty 0.0
this 0.0
week 0.0
with 0.00281099066402
australia 0.0
facing 0.0
south 0.0
africa 0.0
durban 0.0
wednesday 0.0
