liverpool 0.0
winger 0.0
harry 0.0
kewell 0.0
is 0.00347398447255
struggling 0.0
to 0.0121351042545
recover 0.0
from 0.0
his 0.0
achilles 0.0
tendinitis 0.0
problem 0.0
and 0.0040643802083
may 0.0
not 0.00299461169418
until 0.0
march 0.0
claims 0.0
agent 0.0
26 0.0
had 0.0
hoped 0.0
play 0.0
against 0.0046375106542
fulham 0.0
last 0.00190304106494
weekend 0.0
be 0.00507279428976
ready 0.0
for 0.00647777085626
the 0.0301933635959
champions 0.0
league 0.0
tie 0.0
bayer 0.0
leverkusen 0.0
on 0.00331576538391
22 0.0
february 0.0
but 0.00131733435183
bernie 0.0
mandic 0.0
said 0.00350935785542
he 0.0
scans 0.0
which 0.0
don 0.0
show 0.0
anything 0.0
substantial 0.0
despite 0.0
best 0.0
efforts 0.00439929377533
at 0.0
moment 0.0
simply 0.0
can 0.0
shake 0.0
off 0.0
discomfort 0.0
get 0.0
back 0.0
park 0.0
continued 0.00420883202524
in 0.00406244147394
sydney 0.0
morning 0.0
herald 0.0
bit 0.0
club 0.0
are 0.00144474397071
doing 0.0
everything 0.00404874208656
they 0.00168033345295
him 0.0
right 0.0
was 0.00622098909336
desperate 0.0
fit 0.0
game 0.0
as 0.0
part 0.0
of 0.010151259182
plan 0.0
himself 0.0
match 0.0
has 0.00120367233767
played 0.0
since 0.0
december 0.0
19 0.0
misses 0.0
out 0.0
international 0.0
duty 0.0
this 0.0015218448598
week 0.00261955683279
with 0.0
australia 0.0
facing 0.0
south 0.0
africa 0.0
durban 0.0
wednesday 0.0
