liverpool 0.0
winger 0.0
harry 0.0
kewell 0.0
is 0.00370463270482
struggling 0.0
to 0.0121319907802
recover 0.0
from 0.00218323284173
his 0.0
achilles 0.0
tendinitis 0.0
problem 0.00281289255885
and 0.00975200980826
may 0.0
not 0.00119753734956
until 0.0
march 0.0
claims 0.00285589713531
agent 0.0
26 0.0
had 0.0
hoped 0.0
play 0.0
against 0.0
fulham 0.0
last 0.00152204224504
weekend 0.0
be 0.00304289566512
ready 0.0
for 0.00431740591351
the 0.0305880918504
champions 0.0
league 0.0
tie 0.0
bayer 0.0
leverkusen 0.0
on 0.00265193173281
22 0.0
february 0.0
but 0.00632158255941
bernie 0.0
mandic 0.0
said 0.0
he 0.0
scans 0.0
which 0.0
don 0.0
show 0.0
anything 0.0
substantial 0.0
despite 0.0
best 0.0
efforts 0.0
at 0.00198534934391
moment 0.0
simply 0.0
can 0.00488057547473
shake 0.0
off 0.0
discomfort 0.0
get 0.0
back 0.0
park 0.0
continued 0.0
in 0.00162455967327
sydney 0.0
morning 0.0
herald 0.0
bit 0.0
club 0.0
are 0.002310997274
doing 0.0
everything 0.0
they 0.00537568746835
him 0.0
right 0.00480526939732
was 0.00099510287828
desperate 0.0
fit 0.0
game 0.0
as 0.00210197232146
part 0.0
of 0.00730703138255
plan 0.0
himself 0.0
match 0.0
has 0.00481345405748
played 0.0
since 0.0
december 0.0
19 0.0
misses 0.0
out 0.00286364362747
international 0.0
duty 0.0
this 0.003651490569
week 0.0
with 0.0067355663746
australia 0.0
facing 0.0
south 0.0
africa 0.0
durban 0.0
wednesday 0.0
