liverpool 0.0
winger 0.0
harry 0.0
kewell 0.0
is 0.0064706119632
struggling 0.0
to 0.00941780629037
recover 0.0
from 0.000847398599402
his 0.00110374644241
achilles 0.0
tendinitis 0.0
problem 0.0
and 0.0100937036062
may 0.00159604134977
not 0.001859245525
until 0.0
march 0.0
claims 0.0
agent 0.0
26 0.0
had 0.0019944833726
hoped 0.0
play 0.0
against 0.0
fulham 0.0
last 0.0
weekend 0.0
be 0.00393689192691
ready 0.0
for 0.00402181241055
the 0.0218702886596
champions 0.0
league 0.0
tie 0.0
bayer 0.0
leverkusen 0.0
on 0.00205863817467
22 0.0
february 0.0
but 0.00572519503054
bernie 0.0
mandic 0.0
said 0.0
he 0.00637018835146
scans 0.0
which 0.00188277056374
don 0.0
show 0.0
anything 0.0
substantial 0.0
despite 0.00188495285453
best 0.0
efforts 0.0
at 0.00154118445014
moment 0.0
simply 0.0
can 0.0
shake 0.0
off 0.0
discomfort 0.0
get 0.0
back 0.00146085265477
park 0.00562960140906
continued 0.0
in 0.00441388887077
sydney 0.0
morning 0.0
herald 0.0
bit 0.0
club 0.0
are 0.00448494502231
doing 0.0
everything 0.0
they 0.00104325794859
him 0.0
right 0.00186511419177
was 0.00154495437994
desperate 0.0
fit 0.0
game 0.0
as 0.0
part 0.0
of 0.00504203820317
plan 0.0
himself 0.0
match 0.0
has 0.000747316392211
played 0.0
since 0.0
december 0.0
19 0.0
misses 0.0
out 0.0
international 0.00183752651937
duty 0.0
this 0.00283457442995
week 0.00162638759753
with 0.00448172301677
australia 0.0
facing 0.0
south 0.0
africa 0.0
durban 0.0
wednesday 0.0
