liverpool 0.0
winger 0.0
harry 0.0
kewell 0.0
is 0.00268171004068
struggling 0.0
to 0.0128804238689
recover 0.0
from 0.0
his 0.00617546332654
achilles 0.0
tendinitis 0.0
problem 0.0
and 0.00941238163254
may 0.0
not 0.0
until 0.0
march 0.0
claims 0.00413465443575
agent 0.0
26 0.0
had 0.00371971268329
hoped 0.0
play 0.0
against 0.00268491245068
fulham 0.0
last 0.0
weekend 0.0
be 0.0044053834796
ready 0.0
for 0.00375034127607
the 0.0244728608618
champions 0.0
league 0.0
tie 0.0
bayer 0.0
leverkusen 0.0
on 0.00511914857007
22 0.0
february 0.0
but 0.00305071204504
bernie 0.0
mandic 0.0
said 0.00135450809748
he 0.0118804050871
scans 0.0
which 0.00351136822794
don 0.0
show 0.0
anything 0.0
substantial 0.0
despite 0.0
best 0.0
efforts 0.0
at 0.00287430992169
moment 0.0
simply 0.0
can 0.00235530110499
shake 0.0
off 0.0
discomfort 0.0
get 0.0
back 0.0
park 0.0
continued 0.0
in 0.00470394593431
sydney 0.00577898243029
morning 0.0
herald 0.0
bit 0.0
club 0.0
are 0.00167288503003
doing 0.0
everything 0.0
they 0.0038913533967
him 0.00315845558304
right 0.00347843908364
was 0.00288134084302
desperate 0.0
fit 0.0
game 0.0
as 0.00152157601815
part 0.00308401301764
of 0.00470170213291
plan 0.0
himself 0.0
match 0.0
has 0.00418123655589
played 0.0
since 0.0
december 0.0
19 0.0
misses 0.0
out 0.00207293474971
international 0.0
duty 0.0
this 0.00176216100264
week 0.00303321384254
with 0.0
australia 0.0
facing 0.0
south 0.0
africa 0.0
durban 0.0
wednesday 0.0
