liverpool 0.0
winger 0.0
harry 0.0
kewell 0.0
is 0.00276616931543
struggling 0.0
to 0.0120782610334
recover 0.0
from 0.00326034572193
his 0.0
achilles 0.0
tendinitis 0.0
problem 0.0
and 0.00728161533
may 0.0
not 0.0
until 0.00781259676169
march 0.0
claims 0.0
agent 0.0
26 0.0
had 0.0
hoped 0.0
play 0.0
against 0.0
fulham 0.0
last 0.00454590442884
weekend 0.0
be 0.00302941939264
ready 0.0
for 0.00257897108012
the 0.0192332364335
champions 0.0
league 0.0
tie 0.0
bayer 0.0
leverkusen 0.0
on 0.00264018694804
22 0.0
february 0.0
but 0.0
bernie 0.0
mandic 0.0
said 0.00279433546501
he 0.0
scans 0.0
which 0.0
don 0.0
show 0.0
anything 0.0
substantial 0.0
despite 0.0
best 0.00658666970247
efforts 0.0
at 0.0
moment 0.0
simply 0.0
can 0.0
shake 0.0
off 0.0
discomfort 0.0
get 0.0
back 0.0
park 0.0
continued 0.0
in 0.0145562839094
sydney 0.0
morning 0.0
herald 0.0
bit 0.0
club 0.0
are 0.0103534308366
doing 0.0
everything 0.0
they 0.0
him 0.0
right 0.0
was 0.00594417480365
desperate 0.0
fit 0.0
game 0.0
as 0.00627798953451
part 0.0127245705887
of 0.00242489008377
plan 0.0
himself 0.0
match 0.0
has 0.00287528183784
played 0.0
since 0.0
december 0.0
19 0.0
misses 0.0
out 0.0
international 0.0
duty 0.0
this 0.00727063794434
week 0.0
with 0.0
australia 0.0
facing 0.0
south 0.0
africa 0.0
durban 0.0
wednesday 0.0
