liverpool 0.0
winger 0.0
harry 0.0
kewell 0.0
is 0.00756784553858
struggling 0.0
to 0.0136583532774
recover 0.0
from 0.00237862449352
his 0.000774546454406
achilles 0.0
tendinitis 0.0
problem 0.0
and 0.0106247803476
may 0.00448004404293
not 0.000652356362807
until 0.00712471759144
march 0.0
claims 0.0
agent 0.0
26 0.0
had 0.0
hoped 0.0
play 0.0
against 0.0
fulham 0.0
last 0.000829129833296
weekend 0.0
be 0.00663044822517
ready 0.0
for 0.00470379854044
the 0.017978294118
champions 0.0
league 0.0
tie 0.0
bayer 0.0
leverkusen 0.0
on 0.00192618018999
22 0.0
february 0.0
but 0.00286972580795
bernie 0.0
mandic 0.0
said 0.0
he 0.00127721021318
scans 0.0
which 0.00132122125932
don 0.0
show 0.0013306822677
anything 0.0
substantial 0.0
despite 0.0
best 0.0
efforts 0.0
at 0.00432606223887
moment 0.0
simply 0.0
can 0.00265868489718
shake 0.0
off 0.00114130628083
discomfort 0.0
get 0.00104221381844
back 0.0
park 0.0
continued 0.0
in 0.005309856131
sydney 0.0
morning 0.0
herald 0.0027405457199
bit 0.0017229726949
club 0.0
are 0.00818292602595
doing 0.0
everything 0.0
they 0.00585679256804
him 0.0
right 0.0
was 0.0
desperate 0.0
fit 0.0
game 0.00632690079413
as 0.00286261430353
part 0.0
of 0.00796098496196
plan 0.0
himself 0.0
match 0.00153231826909
has 0.0
played 0.0
since 0.0
december 0.0
19 0.0
misses 0.0
out 0.000779982412186
international 0.0
duty 0.0
this 0.00331523843116
week 0.0
with 0.00157250911029
australia 0.0
facing 0.0
south 0.0
africa 0.0
durban 0.0
wednesday 0.0
