liverpool 0.0
winger 0.0
harry 0.0
kewell 0.0
is 0.00323902635008
struggling 0.0
to 0.00660004526174
recover 0.0
from 0.00127255956999
his 0.00331504701357
achilles 0.0
tendinitis 0.0
problem 0.0
and 0.00852635585011
may 0.0
not 0.00139603764242
until 0.0
march 0.0
claims 0.0
agent 0.0
26 0.0
had 0.00449274799033
hoped 0.0
play 0.00270790389181
against 0.00432385905188
fulham 0.0
last 0.0
weekend 0.0
be 0.00118242572059
ready 0.0
for 0.00301982790352
the 0.0178291423013
champions 0.0
league 0.0
tie 0.0
bayer 0.0
leverkusen 0.0
on 0.00412201092013
22 0.0
february 0.0
but 0.00245647653935
bernie 0.0
mandic 0.0
said 0.00763468370758
he 0.00546644023587
scans 0.0
which 0.00141370171055
don 0.0
show 0.0
anything 0.0
substantial 0.0
despite 0.0
best 0.0
efforts 0.0
at 0.0
moment 0.0
simply 0.0
can 0.00758608721125
shake 0.0
off 0.0
discomfort 0.0
get 0.0
back 0.0
park 0.0
continued 0.0
in 0.010416130665
sydney 0.0
morning 0.0
herald 0.0
bit 0.0
club 0.0
are 0.00538812286265
doing 0.0
everything 0.0
they 0.00313337285991
him 0.0
right 0.0
was 0.0058002411226
desperate 0.0
fit 0.0
game 0.00270790389181
as 0.0
part 0.0
of 0.00378587713753
plan 0.0
himself 0.0
match 0.00655829882494
has 0.00112226362823
played 0.00310175633663
since 0.0
december 0.0
19 0.0
misses 0.0
out 0.0
international 0.00275945931347
duty 0.0
this 0.00283783398606
week 0.0
with 0.0033651575062
australia 0.0
facing 0.0
south 0.0
africa 0.0
durban 0.0
wednesday 0.0
