liverpool 0.0
winger 0.0
harry 0.0
kewell 0.0
is 0.00608433177821
struggling 0.00167665601425
to 0.00850136217141
recover 0.00176628306789
from 0.00239043273951
his 0.0
achilles 0.0
tendinitis 0.0
problem 0.00123194014617
and 0.00783018509179
may 0.00270137064101
not 0.0
until 0.0
march 0.0
claims 0.0
agent 0.0
26 0.0
had 0.000562625233935
hoped 0.0
play 0.00101732952564
against 0.0
fulham 0.0
last 0.0
weekend 0.00141819229957
be 0.00222112129065
ready 0.00154591412575
for 0.00226903184997
the 0.0274979207293
champions 0.0
league 0.0
tie 0.0
bayer 0.0
leverkusen 0.0
on 0.00116144541542
22 0.0
february 0.0
but 0.00138430657754
bernie 0.0
mandic 0.0
said 0.0040975231159
he 0.00154026082745
scans 0.0
which 0.0
don 0.0
show 0.0
anything 0.0
substantial 0.0
despite 0.0
best 0.0
efforts 0.0
at 0.00130426145494
moment 0.0
simply 0.00136982376671
can 0.0
shake 0.0
off 0.0
discomfort 0.0
get 0.0
back 0.0
park 0.0
continued 0.0
in 0.00711495458667
sydney 0.0
morning 0.0
herald 0.0
bit 0.0
club 0.0
are 0.00455458079888
doing 0.0
everything 0.0
they 0.000588586754289
him 0.0
right 0.0
was 0.00305072096346
desperate 0.0
fit 0.0
game 0.0
as 0.00368233629229
part 0.00186588986112
of 0.0113784971589
plan 0.0
himself 0.0
match 0.0
has 0.00252973215482
played 0.0
since 0.0
december 0.00116529553066
19 0.00146231699423
misses 0.0
out 0.0
international 0.00311009498108
duty 0.0
this 0.0015992142363
week 0.0
with 0.00210708739198
australia 0.0
facing 0.0
south 0.00125728308641
africa 0.0
durban 0.0
wednesday 0.0
