liverpool 0.0310244207089
winger 0.0
harry 0.0
kewell 0.0
is 0.00670169102573
struggling 0.0
to 0.0110889122955
recover 0.0
from 0.00124720243472
his 0.00541498515283
achilles 0.0
tendinitis 0.0
problem 0.0
and 0.00773746196711
may 0.0
not 0.00364858685891
until 0.0
march 0.00107844090007
claims 0.00108764757547
agent 0.0
26 0.0
had 0.00146774169799
hoped 0.0
play 0.0
against 0.0
fulham 0.0
last 0.000579658677865
weekend 0.0
be 0.00386288200142
ready 0.00134429485621
for 0.00559045858294
the 0.0183935549734
champions 0.00134429485621
league 0.00244868841602
tie 0.0
bayer 0.0
leverkusen 0.0
on 0.00168328140151
22 0.0
february 0.0
but 0.00481505713833
bernie 0.0
mandic 0.0
said 0.0
he 0.00625043470467
scans 0.0
which 0.00046184405481
don 0.000915025885359
show 0.0
anything 0.00118597428883
substantial 0.0
despite 0.00184951748498
best 0.000839881328575
efforts 0.0
at 0.00264637031489
moment 0.00123323060556
simply 0.0
can 0.00123915436037
shake 0.0
off 0.000797906507782
discomfort 0.00222607744141
get 0.0
back 0.000716694988281
park 0.00138094252789
continued 0.0
in 0.0049496135361
sydney 0.0
morning 0.0
herald 0.0
bit 0.0
club 0.007748540734
are 0.000880126441145
doing 0.0
everything 0.00123323060556
they 0.00102364566446
him 0.000830852157173
right 0.000915025885359
was 0.000757955333559
desperate 0.0
fit 0.0
game 0.0
as 0.00440286447638
part 0.0
of 0.007111675541
plan 0.0
himself 0.00122143841138
match 0.0
has 0.00403297144534
played 0.0
since 0.0023084454022
december 0.00101331682126
19 0.0
misses 0.0
out 0.00163589665568
international 0.0
duty 0.0
this 0.000927095684484
week 0.0
with 0.00366455897576
australia 0.0
facing 0.0
south 0.0
africa 0.0
durban 0.0
wednesday 0.0
