liverpool 0.0
winger 0.0
harry 0.0
kewell 0.0
is 0.00373281670603
struggling 0.0
to 0.011409335654
recover 0.0
from 0.00146656158637
his 0.0
achilles 0.0
tendinitis 0.0
problem 0.0
and 0.00327540029202
may 0.00138110502866
not 0.00402215980254
until 0.0
march 0.0
claims 0.0
agent 0.0
26 0.0
had 0.0
hoped 0.0
play 0.0
against 0.0
fulham 0.0
last 0.0
weekend 0.0
be 0.00408806042902
ready 0.0
for 0.0034802014029
the 0.0297393675345
champions 0.0
league 0.0
tie 0.0
bayer 0.0
leverkusen 0.0
on 0.00475041248883
22 0.0
february 0.0
but 0.00141548349303
bernie 0.0
mandic 0.0
said 0.00188541280677
he 0.0015749500953
scans 0.0
which 0.000814610440319
don 0.0
show 0.0
anything 0.0
substantial 0.0
despite 0.0
best 0.0
efforts 0.0
at 0.00133363561946
moment 0.0
simply 0.00210101175736
can 0.00546411753389
shake 0.0
off 0.0
discomfort 0.0
get 0.00128517195974
back 0.0
park 0.0
continued 0.0
in 0.00436511720792
sydney 0.00268135901252
morning 0.0
herald 0.0
bit 0.0
club 0.0
are 0.00465715762901
doing 0.0
everything 0.0
they 0.00270829223666
him 0.0
right 0.0
was 0.00267379571776
desperate 0.0
fit 0.0
game 0.0
as 0.000705987882591
part 0.0
of 0.00981682881572
plan 0.0
himself 0.0
match 0.0
has 0.00064667649584
played 0.0
since 0.00135722848868
december 0.0
19 0.0
misses 0.0
out 0.00192361971698
international 0.00159006977894
duty 0.0
this 0.0008176156171
week 0.00140736459605
with 0.00258545105841
australia 0.0
facing 0.0
south 0.0
africa 0.0
durban 0.0
wednesday 0.0
