liverpool 0.0
winger 0.0
harry 0.0
kewell 0.0
is 0.000629316802585
struggling 0.0
to 0.00934273211134
recover 0.0
from 0.00148348861626
his 0.000966130510305
achilles 0.0
tendinitis 0.0
problem 0.0
and 0.00607420899932
may 0.00139704572036
not 0.0
until 0.0
march 0.0
claims 0.0
agent 0.0
26 0.0
had 0.00261871454058
hoped 0.00243017974469
play 0.00157837192543
against 0.0
fulham 0.0
last 0.0
weekend 0.0
be 0.00137841491858
ready 0.0
for 0.00410709813578
the 0.0235191383573
champions 0.0
league 0.0
tie 0.0
bayer 0.0
leverkusen 0.0
on 0.00300327604514
22 0.0
february 0.0
but 0.00501137343138
bernie 0.0
mandic 0.0
said 0.0
he 0.00159312814359
scans 0.0
which 0.000824012660722
don 0.0
show 0.00165982651013
anything 0.0
substantial 0.0
despite 0.00164993552258
best 0.0
efforts 0.0
at 0.00202354263002
moment 0.00220030467424
simply 0.0
can 0.0
shake 0.0
off 0.0
discomfort 0.0
get 0.0
back 0.00127871245298
park 0.0
continued 0.0
in 0.00772712380907
sydney 0.0
morning 0.00246384924707
herald 0.0
bit 0.0
club 0.0
are 0.00157030348878
doing 0.0
everything 0.0
they 0.00273955130144
him 0.0
right 0.0
was 0.00811396987285
desperate 0.0
fit 0.0
game 0.0
as 0.00642722744885
part 0.0
of 0.00937846035511
plan 0.0
himself 0.00217926528399
match 0.0
has 0.000654140425398
played 0.0
since 0.00274578719547
december 0.0
19 0.0
misses 0.0
out 0.00194582210435
international 0.0
duty 0.0
this 0.0
week 0.0
with 0.00130764614616
australia 0.0
facing 0.0
south 0.0
africa 0.0
durban 0.0
wednesday 0.0
