liverpool 0.0
winger 0.0
harry 0.0
kewell 0.0
is 0.00539413154625
struggling 0.0
to 0.00863611895226
recover 0.0
from 0.0
his 0.00276036650223
achilles 0.0
tendinitis 0.0
problem 0.0
and 0.00552199540957
may 0.0039915499691
not 0.0034873492245
until 0.0
march 0.00274875373724
claims 0.0
agent 0.0
26 0.0
had 0.00249400807987
hoped 0.0
play 0.00225481182125
against 0.00360038202726
fulham 0.0
last 0.0
weekend 0.0
be 0.0029537394225
ready 0.0
for 0.00419090677208
the 0.0273477720474
champions 0.00342636811134
league 0.0
tie 0.0
bayer 0.0
leverkusen 0.0
on 0.00429038442712
22 0.00319065507429
february 0.0
but 0.0112499959691
bernie 0.0
mandic 0.0
said 0.00272452828511
he 0.00796562229452
scans 0.0
which 0.00353147466384
don 0.0
show 0.0
anything 0.0
substantial 0.0
despite 0.00235704529502
best 0.00214070788729
efforts 0.0
at 0.00192717899985
moment 0.0
simply 0.0
can 0.00157919185876
shake 0.0
off 0.0
discomfort 0.0
get 0.00185714626683
back 0.00182672785071
park 0.0
continued 0.0
in 0.00788480197685
sydney 0.0
morning 0.0
herald 0.0
bit 0.00614041428271
club 0.0
are 0.00112164275492
doing 0.00279151385387
everything 0.00314328512178
they 0.00260909044308
him 0.00211769413788
right 0.0
was 0.00289783968085
desperate 0.0
fit 0.0
game 0.0135288709275
as 0.00306057742075
part 0.0
of 0.00551672862591
plan 0.0
himself 0.0
match 0.0
has 0.0046724208033
played 0.0
since 0.0
december 0.0
19 0.0
misses 0.0
out 0.0
international 0.0
duty 0.0
this 0.00118150087192
week 0.0
with 0.000934030801253
australia 0.0
facing 0.0
south 0.0
africa 0.0
durban 0.0
wednesday 0.0
