liverpool 0.0
winger 0.0
harry 0.0
kewell 0.0
is 0.00460622539809
struggling 0.0
to 0.010056360691
recover 0.0
from 0.000904854665927
his 0.00471433452506
achilles 0.0
tendinitis 0.0
problem 0.0
and 0.00673630362011
may 0.0
not 0.0
until 0.0
march 0.00234725074259
claims 0.0
agent 0.0
26 0.0
had 0.00106485754584
hoped 0.0
play 0.00192545758106
against 0.00307448400073
fulham 0.0
last 0.00252328015746
weekend 0.0
be 0.00420382454235
ready 0.0
for 0.00501025335936
the 0.0213514580502
champions 0.0
league 0.0
tie 0.0
bayer 0.0
leverkusen 0.0
on 0.00219821977417
22 0.0
february 0.0
but 0.00349335985645
bernie 0.0
mandic 0.0
said 0.00387760639412
he 0.00388691741439
scans 0.0
which 0.0
don 0.0
show 0.0
anything 0.0
substantial 0.0
despite 0.00201275808891
best 0.0018280204989
efforts 0.0
at 0.000822840598126
moment 0.0
simply 0.0
can 0.0
shake 0.0
off 0.0
discomfort 0.0
get 0.00158587795438
back 0.00311980534741
park 0.0
continued 0.0
in 0.00538647228949
sydney 0.0
morning 0.0
herald 0.0
bit 0.0
club 0.0
are 0.000957807443327
doing 0.0
everything 0.0
they 0.00222798768658
him 0.00361673661075
right 0.00199157430765
was 0.00247456010723
desperate 0.0
fit 0.0
game 0.0
as 0.0052270543747
part 0.0
of 0.0067298786503
plan 0.0
himself 0.0
match 0.00233164223987
has 0.00638389277389
played 0.00220550672829
since 0.0
december 0.0
19 0.0
misses 0.0
out 0.00237371044292
international 0.0
duty 0.0
this 0.00100892224772
week 0.0
with 0.00239279837492
australia 0.0
facing 0.0
south 0.0
africa 0.00273159154874
durban 0.0
wednesday 0.0
