liverpool 0.0316983744252
winger 0.0
harry 0.0
kewell 0.0
is 0.00756803976012
struggling 0.0
to 0.0154211172003
recover 0.0
from 0.0
his 0.00387283166201
achilles 0.0
tendinitis 0.0
problem 0.0
and 0.00664065813902
may 0.00560019877373
not 0.00326186552455
until 0.00712490044051
march 0.0
claims 0.0
agent 0.0
26 0.0
had 0.0
hoped 0.0
play 0.0
against 0.0
fulham 0.0
last 0.0
weekend 0.0
be 0.00828827298662
ready 0.0
for 0.00470391925894
the 0.0197327804419
champions 0.0
league 0.0
tie 0.0
bayer 0.0
leverkusen 0.0
on 0.0
22 0.0
february 0.0
but 0.00286979945673
bernie 0.0
mandic 0.0
said 0.0
he 0.00319310747891
scans 0.0
which 0.0
don 0.0
show 0.0
anything 0.0
substantial 0.0
despite 0.0
best 0.0
efforts 0.0
at 0.00270385828945
moment 0.0
simply 0.0
can 0.0
shake 0.0
off 0.00570667785681
discomfort 0.0
get 0.0
back 0.0
park 0.0
continued 0.0
in 0.00442499366949
sydney 0.0
morning 0.0
herald 0.0
bit 0.0
club 0.0
are 0.009442080038
doing 0.0
everything 0.0
they 0.00732117859628
him 0.0
right 0.0
was 0.0
desperate 0.0
fit 0.0
game 0.0
as 0.00286268776979
part 0.0
of 0.00221144146473
plan 0.0
himself 0.0
match 0.0
has 0.00262218791753
played 0.0
since 0.00550338255252
december 0.0
19 0.0
misses 0.0
out 0.00390001214845
international 0.0
duty 0.0
this 0.0
week 0.0
with 0.00524183155746
australia 0.0
facing 0.0
south 0.0
africa 0.0
durban 0.0
wednesday 0.0
