liverpool 0.0
winger 0.0
harry 0.0
kewell 0.0
is 0.00357018537101
struggling 0.0
to 0.00890796227695
recover 0.0
from 0.00120228552026
his 0.00156599074707
achilles 0.0
tendinitis 0.0
problem 0.0
and 0.00626539534497
may 0.0
not 0.00263788962466
until 0.00144048710832
march 0.0
claims 0.0
agent 0.0
26 0.0
had 0.000707441126573
hoped 0.0
play 0.0
against 0.0040850843075
fulham 0.0
last 0.00335269663859
weekend 0.00178322531161
be 0.00111712909648
ready 0.0
for 0.00332857600984
the 0.0212773524441
champions 0.0
league 0.0
tie 0.0
bayer 0.0
leverkusen 0.0
on 0.00146039353299
22 0.0
february 0.00310320572345
but 0.00232082351488
bernie 0.0
mandic 0.0
said 0.0
he 0.0
scans 0.0
which 0.0
don 0.0
show 0.0
anything 0.0
substantial 0.0
despite 0.0
best 0.0024289011919
efforts 0.00193762206771
at 0.00273328240949
moment 0.00178322531161
simply 0.00172240704874
can 0.00268768640323
shake 0.0
off 0.0
discomfort 0.0
get 0.0
back 0.00103632575939
park 0.0
continued 0.0018537352193
in 0.00805166577367
sydney 0.00219817506836
morning 0.0
herald 0.0
bit 0.0
club 0.0
are 0.0025452883511
doing 0.0
everything 0.00178322531161
they 0.00222025489487
him 0.0
right 0.0
was 0.00219197468792
desperate 0.0
fit 0.0
game 0.0
as 0.00231507225228
part 0.0
of 0.0084949264905
plan 0.0
himself 0.0
match 0.00154903312597
has 0.00106028931136
played 0.0
since 0.00222530874228
december 0.0
19 0.00183870740132
misses 0.0
out 0.000788490627909
international 0.00130353739604
duty 0.0
this 0.000670280352842
week 0.0
with 0.00211954983667
australia 0.00745617791496
facing 0.0
south 0.00158089916594
africa 0.00181474058209
durban 0.0
wednesday 0.0
