liverpool 0.0
winger 0.0
harry 0.0
kewell 0.0
is 0.00264498931683
struggling 0.0
to 0.00923931047055
recover 0.0
from 0.00233813767894
his 0.0
achilles 0.0
tendinitis 0.0
problem 0.00200831536089
and 0.00522196742883
may 0.0
not 0.00171000676638
until 0.0
march 0.0
claims 0.0
agent 0.0
26 0.00252830943689
had 0.00275158392213
hoped 0.0
play 0.0
against 0.0
fulham 0.0
last 0.00108668950437
weekend 0.0
be 0.00506923719339
ready 0.0
for 0.00308248979792
the 0.0120688766775
champions 0.0
league 0.0
tie 0.0
bayer 0.0
leverkusen 0.0
on 0.00568018343069
22 0.0
february 0.0
but 0.00225670392551
bernie 0.0
mandic 0.0
said 0.00333990195907
he 0.0
scans 0.0
which 0.00259746523006
don 0.0
show 0.0
anything 0.0
substantial 0.0
despite 0.0
best 0.0
efforts 0.0
at 0.00212621394207
moment 0.0
simply 0.0
can 0.00580762476752
shake 0.0
off 0.0
discomfort 0.0
get 0.0
back 0.0107487381984
park 0.0
continued 0.0
in 0.00521947651825
sydney 0.0
morning 0.0
herald 0.0
bit 0.0
club 0.0
are 0.00577492360457
doing 0.0
everything 0.0
they 0.00671662074228
him 0.0
right 0.00171540436436
was 0.00142094328475
desperate 0.0
fit 0.0
game 0.0
as 0.000750370519499
part 0.0
of 0.00753564760963
plan 0.0
himself 0.0
match 0.0
has 0.0
played 0.0
since 0.0
december 0.0
19 0.0
misses 0.0
out 0.0
international 0.0
duty 0.0
this 0.0
week 0.0
with 0.00274798803447
australia 0.0
facing 0.0
south 0.0
africa 0.0
durban 0.0
wednesday 0.0
