liverpool 0.0
winger 0.0
harry 0.0
kewell 0.0
is 0.00435076476178
struggling 0.0
to 0.00759890903199
recover 0.0
from 0.0
his 0.0040075903541
achilles 0.0
tendinitis 0.0
problem 0.0
and 0.0106893513456
may 0.0
not 0.00112512169849
until 0.0
march 0.00266048704143
claims 0.0
agent 0.0
26 0.0
had 0.00362088248638
hoped 0.0
play 0.0
against 0.0
fulham 0.0
last 0.0
weekend 0.0
be 0.000952963440711
ready 0.0
for 0.00243379819907
the 0.0189068522629
champions 0.0
league 0.0
tie 0.0
bayer 0.0
leverkusen 0.0
on 0.000830522721365
22 0.0
february 0.00264717982261
but 0.00296965673303
bernie 0.0
mandic 0.0
said 0.000879013168565
he 0.00881123880329
scans 0.0
which 0.00455743146575
don 0.0
show 0.0
anything 0.0
substantial 0.0
despite 0.0
best 0.0
efforts 0.0033057647469
at 0.000932647164086
moment 0.00304234941847
simply 0.0
can 0.00152848158757
shake 0.0
off 0.00196841563046
discomfort 0.0
get 0.0
back 0.0
park 0.0
continued 0.0
in 0.00763160889949
sydney 0.0
morning 0.0
herald 0.0
bit 0.0
club 0.00273077977813
are 0.00325687526039
doing 0.0
everything 0.0
they 0.00252530854972
him 0.00409938346618
right 0.0
was 0.00186985707124
desperate 0.0
fit 0.0
game 0.0
as 0.00394973011799
part 0.00200138194786
of 0.00610237487274
plan 0.0
himself 0.0
match 0.0
has 0.00271342932563
played 0.00249982754886
since 0.00189829258083
december 0.0
19 0.0
misses 0.0
out 0.00134523887008
international 0.0
duty 0.0
this 0.00228712213583
week 0.0
with 0.00180807528107
australia 0.0
facing 0.0
south 0.0
africa 0.0
durban 0.0
wednesday 0.0
