liverpool 0.0
winger 0.0
harry 0.0
kewell 0.0
is 0.00528221422239
struggling 0.0
to 0.0129999196003
recover 0.0
from 0.000565989298768
his 0.000737207584949
achilles 0.0
tendinitis 0.0
problem 0.0
and 0.00716308269147
may 0.0
not 0.00372544775861
until 0.0
march 0.0
claims 0.0
agent 0.0
26 0.0
had 0.000666071578509
hoped 0.0
play 0.0
against 0.0
fulham 0.0
last 0.0015783192823
weekend 0.00167894635119
be 0.0052590096387
ready 0.0
for 0.00313392845536
the 0.0179463198848
champions 0.0
league 0.0
tie 0.0
bayer 0.0
leverkusen 0.0
on 0.00458331013576
22 0.0
february 0.0
but 0.00218510703425
bernie 0.0
mandic 0.0
said 0.0
he 0.0
scans 0.0
which 0.000628764309893
don 0.00373720705084
show 0.00126653353757
anything 0.0
substantial 0.0
despite 0.0
best 0.0
efforts 0.0
at 0.00308813552497
moment 0.0
simply 0.0
can 0.00168701107686
shake 0.0
off 0.0
discomfort 0.0
get 0.00198394280348
back 0.000975723786021
park 0.0
continued 0.0
in 0.00463272496628
sydney 0.0
morning 0.0
herald 0.0
bit 0.0
club 0.0
are 0.00119822283869
doing 0.00149105213739
everything 0.0
they 0.00139361295894
him 0.0
right 0.0
was 0.000515948248409
desperate 0.0
fit 0.00374694365068
game 0.0
as 0.00217969209241
part 0.0
of 0.00378860329438
plan 0.0
himself 0.0
match 0.0
has 0.00499143001987
played 0.0
since 0.00104758887416
december 0.0
19 0.0
misses 0.0
out 0.00371190744673
international 0.0
duty 0.0
this 0.000631083882306
week 0.0
with 0.000498900845742
australia 0.0
facing 0.0
south 0.0
africa 0.0
durban 0.0
wednesday 0.0
