liverpool 0.0
winger 0.0
harry 0.0
kewell 0.0
is 0.00177079868783
struggling 0.0
to 0.00695884803687
recover 0.0
from 0.00104357601938
his 0.0
achilles 0.0
tendinitis 0.0
problem 0.0
and 0.00621522565507
may 0.0
not 0.00114483552687
until 0.00250066690007
march 0.0
claims 0.0
agent 0.0
26 0.0
had 0.00245621720424
hoped 0.0
play 0.0
against 0.0
fulham 0.0
last 0.0
weekend 0.0030956559669
be 0.00193932159375
ready 0.0
for 0.00412740335448
the 0.0215467042766
champions 0.0
league 0.0
tie 0.0
bayer 0.0
leverkusen 0.0
on 0.00338029892613
22 0.0
february 0.0
but 0.00201445973068
bernie 0.0
mandic 0.0
said 0.00447207402236
he 0.00336210937158
scans 0.0
which 0.00231864226789
don 0.0
show 0.0
anything 0.0
substantial 0.0
despite 0.0046426595419
best 0.0
efforts 0.0
at 0.000948988548453
moment 0.0
simply 0.0
can 0.0
shake 0.0
off 0.0
discomfort 0.0
get 0.00182900554661
back 0.0
park 0.0
continued 0.0
in 0.0108714566699
sydney 0.0
morning 0.0
herald 0.0
bit 0.0
club 0.0
are 0.001104646875
doing 0.0
everything 0.0
they 0.00513911152529
him 0.0
right 0.0
was 0.00856178903751
desperate 0.0
fit 0.0
game 0.0
as 0.00200946767212
part 0.00203644917685
of 0.00543313547035
plan 0.0
himself 0.0
match 0.0
has 0.00184064846544
played 0.0
since 0.0019315535287
december 0.0
19 0.0
misses 0.0
out 0.0
international 0.0
duty 0.0
this 0.00465439192739
week 0.0
with 0.000919877742918
australia 0.0
facing 0.0
south 0.0
africa 0.0
durban 0.0
wednesday 0.0
