liverpool 0.0
winger 0.0
harry 0.0030201908724
kewell 0.0
is 0.00213337146232
struggling 0.0
to 0.00931519891402
recover 0.0
from 0.000838166157757
his 0.00436688432302
achilles 0.0
tendinitis 0.0
problem 0.0
and 0.00935974903268
may 0.0
not 0.0
until 0.0
march 0.0
claims 0.0
agent 0.0
26 0.0
had 0.00197275339645
hoped 0.0
play 0.0
against 0.0
fulham 0.0
last 0.0
weekend 0.0
be 0.00467279919822
ready 0.0
for 0.00132599820114
the 0.0166875513349
champions 0.0
league 0.0
tie 0.0
bayer 0.0
leverkusen 0.0
on 0.00339368204899
22 0.00252379921522
february 0.0
but 0.000808974114516
bernie 0.0
mandic 0.0
said 0.00502855320865
he 0.00270033638335
scans 0.0
which 0.00186225770312
don 0.0
show 0.0
anything 0.0
substantial 0.0
despite 0.0
best 0.0
efforts 0.0
at 0.00457317955168
moment 0.0
simply 0.0
can 0.0
shake 0.0
off 0.0
discomfort 0.0
get 0.0
back 0.00144493660665
park 0.0
continued 0.0
in 0.00249474249995
sydney 0.0
morning 0.0
herald 0.0
bit 0.0
club 0.0
are 0.00266164882011
doing 0.0
everything 0.0
they 0.00206378322299
him 0.0
right 0.0
was 0.00152812204016
desperate 0.0
fit 0.0
game 0.0
as 0.00161393877072
part 0.0
of 0.00935082186603
plan 0.0
himself 0.0
match 0.0
has 0.000739174350217
played 0.0
since 0.00155136067673
december 0.0
19 0.0
misses 0.0
out 0.00109938304818
international 0.0
duty 0.0
this 0.000934563876042
week 0.0
with 0.0014776314884
australia 0.00259901491336
facing 0.0
south 0.0
africa 0.0
durban 0.0
wednesday 0.0
