liverpool 0.0
winger 0.0
harry 0.0
kewell 0.0
is 0.00292416926222
struggling 0.0
to 0.0127681553901
recover 0.0
from 0.0
his 0.00336690018039
achilles 0.0
tendinitis 0.0
problem 0.0
and 0.00577314870291
may 0.0
not 0.000945249417951
until 0.0
march 0.0
claims 0.0
agent 0.0
26 0.0
had 0.00608402996284
hoped 0.0
play 0.0
against 0.00292766120906
fulham 0.0
last 0.0
weekend 0.0
be 0.00560429771473
ready 0.0
for 0.00136313925517
the 0.0228732902529
champions 0.0
league 0.0
tie 0.0
bayer 0.0
leverkusen 0.0
on 0.00209324321099
22 0.0
february 0.0
but 0.00415816692272
bernie 0.0
mandic 0.0
said 0.00812334661914
he 0.0111038899544
scans 0.0
which 0.00191441932288
don 0.00189646615305
show 0.0
anything 0.0
substantial 0.0
despite 0.0
best 0.0
efforts 0.0
at 0.000783545629055
moment 0.0
simply 0.0
can 0.0
shake 0.0
off 0.00165372664262
discomfort 0.0
get 0.0
back 0.00148540911146
park 0.0
continued 0.0
in 0.00128230997233
sydney 0.0
morning 0.0
herald 0.0
bit 0.0
club 0.0
are 0.00182413419417
doing 0.0
everything 0.0
they 0.00848635819566
him 0.0
right 0.0
was 0.0047127736776
desperate 0.0
fit 0.0
game 0.0
as 0.000829572503159
part 0.0
of 0.00769018983145
plan 0.0
himself 0.0
match 0.0
has 0.00379939268518
played 0.0
since 0.0
december 0.0
19 0.0
misses 0.0
out 0.00113017663836
international 0.0
duty 0.0
this 0.00192148180111
week 0.00165372664262
with 0.0
australia 0.0
facing 0.0
south 0.0
africa 0.0
durban 0.0
wednesday 0.0
