liverpool 0.0
winger 0.0
harry 0.0
kewell 0.0
is 0.00427393467032
struggling 0.0
to 0.00746472000824
recover 0.0
from 0.00251873674912
his 0.0
achilles 0.0
tendinitis 0.0
problem 0.0
and 0.0131257353077
may 0.0
not 0.00138156648853
until 0.0
march 0.0
claims 0.0
agent 0.0
26 0.0
had 0.0
hoped 0.0
play 0.0
against 0.0
fulham 0.0
last 0.0
weekend 0.0
be 0.00585084420758
ready 0.0
for 0.00398469965362
the 0.0260021670084
champions 0.0
league 0.0
tie 0.0
bayer 0.0
leverkusen 0.0
on 0.00305946199779
22 0.0
february 0.0
but 0.00121550650337
bernie 0.0
mandic 0.0
said 0.0010793633598
he 0.0
scans 0.0
which 0.00559618981247
don 0.0
show 0.0
anything 0.0
substantial 0.0
despite 0.00280133813557
best 0.00254422206246
efforts 0.0
at 0.00114522195177
moment 0.0
simply 0.0
can 0.0
shake 0.0
off 0.0
discomfort 0.0
get 0.0
back 0.0
park 0.0
continued 0.0
in 0.0131194742512
sydney 0.0
morning 0.0
herald 0.0
bit 0.0
club 0.0
are 0.00533227024612
doing 0.0
everything 0.0
they 0.0031008927036
him 0.0
right 0.0
was 0.00574011653905
desperate 0.0
fit 0.0
game 0.0
as 0.00484997736431
part 0.0
of 0.00655660810424
plan 0.0
himself 0.0
match 0.0
has 0.00111063038198
played 0.0
since 0.0
december 0.0
19 0.0
misses 0.0
out 0.00165185414562
international 0.0
duty 0.0
this 0.00140420867462
week 0.00241706925944
with 0.00222018313257
australia 0.0
facing 0.0
south 0.0033119161454
africa 0.011405411736
durban 0.0
wednesday 0.0
