liverpool 0.0
winger 0.0
harry 0.0
kewell 0.0
is 0.00111133052446
struggling 0.0
to 0.0092198211362
recover 0.0
from 0.000654934913213
his 0.0
achilles 0.0
tendinitis 0.0
problem 0.0
and 0.00780119167056
may 0.0
not 0.000718484080227
until 0.0
march 0.0
claims 0.0
agent 0.0
26 0.0
had 0.00231223557979
hoped 0.0
play 0.0
against 0.00111265763885
fulham 0.0
last 0.0
weekend 0.0
be 0.00730256002113
ready 0.0
for 0.0056986717945
the 0.0231813171523
champions 0.0
league 0.0
tie 0.0
bayer 0.0
leverkusen 0.0
on 0.0021214322126
22 0.0
february 0.0
but 0.00252849813407
bernie 0.0
mandic 0.0
said 0.00392926274679
he 0.00140667778778
scans 0.0
which 0.00145515012255
don 0.0
show 0.0
anything 0.0
substantial 0.0
despite 0.00291367352994
best 0.0
efforts 0.0
at 0.00178671909207
moment 0.0
simply 0.0
can 0.00292818907253
shake 0.0
off 0.0
discomfort 0.0
get 0.00114786040182
back 0.0
park 0.0
continued 0.0
in 0.00438607713046
sydney 0.0
morning 0.0
herald 0.0
bit 0.0
club 0.0
are 0.00207978659466
doing 0.0
everything 0.0
they 0.0040315505271
him 0.0
right 0.0
was 0.000597029876765
desperate 0.0
fit 0.0
game 0.0
as 0.0037833483455
part 0.0
of 0.00974218878619
plan 0.0
himself 0.0
match 0.0
has 0.00173275102232
played 0.0
since 0.0
december 0.0
19 0.0
misses 0.0
out 0.0
international 0.0
duty 0.0
this 0.00219077746834
week 0.0
with 0.000577303462838
australia 0.0
facing 0.0
south 0.0
africa 0.0
durban 0.0
wednesday 0.0
