liverpool 0.0
winger 0.0
harry 0.0
kewell 0.0
is 0.00325385348994
struggling 0.0
to 0.0132605159622
recover 0.0
from 0.00383515471974
his 0.00333022214967
achilles 0.0
tendinitis 0.0
problem 0.0
and 0.00380683846738
may 0.0
not 0.0
until 0.0
march 0.0
claims 0.0
agent 0.0
26 0.0
had 0.0
hoped 0.0
play 0.0
against 0.0
fulham 0.0
last 0.0
weekend 0.0
be 0.00237567691132
ready 0.0
for 0.00202243441924
the 0.0188534294047
champions 0.0
league 0.0
tie 0.0
bayer 0.0
leverkusen 0.0
on 0.00310566004295
22 0.0
february 0.0
but 0.0
bernie 0.0
mandic 0.0
said 0.00109566180616
he 0.0013728659261
scans 0.0
which 0.00426051944081
don 0.0
show 0.0
anything 0.0
substantial 0.0
despite 0.0
best 0.0
efforts 0.0
at 0.00116251486651
moment 0.0
simply 0.0
can 0.0
shake 0.0
off 0.0
discomfort 0.0
get 0.0
back 0.0
park 0.0
continued 0.0
in 0.00761004516404
sydney 0.0
morning 0.0
herald 0.0
bit 0.0
club 0.0
are 0.00135319695534
doing 0.0
everything 0.0
they 0.00157385817735
him 0.0
right 0.0
was 0.0
desperate 0.0
fit 0.0
game 0.0
as 0.00246160614521
part 0.00249465859923
of 0.0123604246049
plan 0.0
himself 0.0
match 0.0
has 0.00789180673466
played 0.0
since 0.00236616099975
december 0.0
19 0.0
misses 0.0
out 0.0
international 0.0
duty 0.0
this 0.00142541230317
week 0.0
with 0.00338056203076
australia 0.0
facing 0.0
south 0.0
africa 0.0
durban 0.0
wednesday 0.0
