liverpool 0.0
winger 0.0
harry 0.0
kewell 0.0
is 0.00930170377762
struggling 0.0
to 0.0107076328
recover 0.0
from 0.000498338819366
his 0.0
achilles 0.0
tendinitis 0.0
problem 0.0
and 0.00667790209281
may 0.0
not 0.00164007980511
until 0.0
march 0.0
claims 0.0
agent 0.0
26 0.0
had 0.0
hoped 0.0
play 0.0
against 0.0
fulham 0.0
last 0.000694834486656
weekend 0.0
be 0.00231521042897
ready 0.0
for 0.0055186845752
the 0.0158012667074
champions 0.0
league 0.0
tie 0.0
bayer 0.0
leverkusen 0.0
on 0.000807097012899
22 0.0
february 0.0
but 0.000961964883442
bernie 0.0
mandic 0.0
said 0.00298976908806
he 0.00214067729128
scans 0.0
which 0.0044288846384
don 0.0010968377868
show 0.0
anything 0.0
substantial 0.0
despite 0.0
best 0.0
efforts 0.0
at 0.000906340935483
moment 0.0
simply 0.00142785100655
can 0.0037134231607
shake 0.0
off 0.0
discomfort 0.0
get 0.000873404953529
back 0.00171819870309
park 0.0
continued 0.0
in 0.0044498111283
sydney 0.0
morning 0.0
herald 0.0
bit 0.00288780067947
club 0.0
are 0.0073850277602
doing 0.00262566505543
everything 0.0
they 0.0079757591668
him 0.0
right 0.0
was 0.0
desperate 0.0
fit 0.0
game 0.0
as 0.00431811461652
part 0.0
of 0.00630089211284
plan 0.0
himself 0.0
match 0.0
has 0.00175792959228
played 0.0
since 0.0
december 0.0
19 0.0
misses 0.0
out 0.000653647543735
international 0.0
duty 0.0
this 0.00111130580565
week 0.0
with 0.00483196104393
australia 0.0
facing 0.0
south 0.0
africa 0.0
durban 0.0
wednesday 0.0
