liverpool 0.00219801419113
winger 0.0
harry 0.0
kewell 0.0
is 0.00472301598553
struggling 0.0
to 0.0114570435046
recover 0.0
from 0.00185559441079
his 0.0
achilles 0.0
tendinitis 0.0
problem 0.00159384059901
and 0.0119723105178
may 0.0
not 0.00271419345977
until 0.00148215476938
march 0.0
claims 0.0
agent 0.0
26 0.0
had 0.000727904632918
hoped 0.0
play 0.00131618496692
against 0.0
fulham 0.0
last 0.0
weekend 0.0
be 0.00402305146002
ready 0.0
for 0.00342485870212
the 0.0168757177873
champions 0.0
league 0.0
tie 0.0
bayer 0.0
leverkusen 0.0
on 0.000500879003033
22 0.0
february 0.0
but 0.00298494483359
bernie 0.0
mandic 0.0
said 0.00424098441328
he 0.00132848999604
scans 0.0
which 0.000687134039271
don 0.0
show 0.0
anything 0.0
substantial 0.0
despite 0.0
best 0.0012495799043
efforts 0.0
at 0.00224987646797
moment 0.0
simply 0.0
can 0.00460905110748
shake 0.0
off 0.0
discomfort 0.0
get 0.0
back 0.0
park 0.0
continued 0.0
in 0.00874482282264
sydney 0.0
morning 0.0
herald 0.0
bit 0.0
club 0.0
are 0.00196418519501
doing 0.00162947015568
everything 0.0
they 0.000761492729937
him 0.0
right 0.0
was 0.0
desperate 0.0
fit 0.0
game 0.0131618496692
as 0.00416856692477
part 0.0
of 0.0092006857963
plan 0.0
himself 0.0
match 0.0
has 0.00218191867276
played 0.0
since 0.0
december 0.0
19 0.0
misses 0.0
out 0.00243389573849
international 0.0
duty 0.0
this 0.00137933788654
week 0.0
with 0.00218086012795
australia 0.0
facing 0.0
south 0.0
africa 0.0
durban 0.0
wednesday 0.0
