liverpool 0.0
winger 0.0
harry 0.0
kewell 0.0
is 0.0103579975824
struggling 0.0
to 0.0135682148471
recover 0.0
from 0.00203474246962
his 0.0
achilles 0.0
tendinitis 0.0
problem 0.0
and 0.0106035261862
may 0.0
not 0.00446435223498
until 0.0
march 0.0
claims 0.0
agent 0.0
26 0.0
had 0.0
hoped 0.0
play 0.0129893024631
against 0.00691357784183
fulham 0.0277404244921
last 0.0
weekend 0.0
be 0.00378124826151
ready 0.0
for 0.00482851430387
the 0.0255068659788
champions 0.0
league 0.0
tie 0.0
bayer 0.0
leverkusen 0.0
on 0.00494312655997
22 0.0
february 0.0
but 0.00196387550654
bernie 0.0
mandic 0.0
said 0.00348782216975
he 0.00437024653613
scans 0.0
which 0.0
don 0.00447844386261
show 0.0
anything 0.0
substantial 0.0
despite 0.0
best 0.00411066117523
efforts 0.0
at 0.00370063563526
moment 0.0
simply 0.0
can 0.00303241871559
shake 0.0
off 0.0
discomfort 0.0
get 0.0
back 0.00701549174288
park 0.00675879632213
continued 0.0
in 0.00757033445642
sydney 0.0
morning 0.0
herald 0.0
bit 0.00589551772607
club 0.0
are 0.00646145140001
doing 0.0
everything 0.0
they 0.00751509828877
him 0.0
right 0.0
was 0.0
desperate 0.0
fit 0.0
game 0.00865953497539
as 0.00783603520557
part 0.00397062557053
of 0.00756672337601
plan 0.0
himself 0.0
match 0.0
has 0.00179442874055
played 0.0
since 0.0
december 0.0
19 0.0
misses 0.0
out 0.0
international 0.0
duty 0.0
this 0.0
week 0.0
with 0.00538067455252
australia 0.0
facing 0.0
south 0.0
africa 0.0
durban 0.0
wednesday 0.00526059979003
