liverpool 0.0
winger 0.0
harry 0.0
kewell 0.0
is 0.00157117244331
struggling 0.0
to 0.0123487219048
recover 0.0
from 0.00370372509403
his 0.0
achilles 0.0
tendinitis 0.0
problem 0.0
and 0.00413592663523
may 0.0
not 0.0
until 0.0
march 0.0
claims 0.0
agent 0.0
26 0.0
had 0.0
hoped 0.0
play 0.0
against 0.0
fulham 0.0
last 0.0103282177684
weekend 0.0
be 0.00516209211313
ready 0.0
for 0.00292968927864
the 0.0314076406567
champions 0.0
league 0.0
tie 0.0
bayer 0.0
leverkusen 0.0
on 0.00149961499276
22 0.0
february 0.0
but 0.00178736501147
bernie 0.0
mandic 0.0
said 0.0
he 0.0
scans 0.0
which 0.0
don 0.0
show 0.0041439759159
anything 0.0
substantial 0.0
despite 0.00411928176026
best 0.0
efforts 0.0
at 0.00168401373526
moment 0.0
simply 0.0
can 0.00275986899085
shake 0.0
off 0.0
discomfort 0.0
get 0.0
back 0.0
park 0.0
continued 0.00571056170412
in 0.0234257380458
sydney 0.0
morning 0.0
herald 0.0
bit 0.0
club 0.0
are 0.00196023493975
doing 0.0
everything 0.0
they 0.00227988377987
him 0.0
right 0.0
was 0.0
desperate 0.0
fit 0.0
game 0.0
as 0.00178293571926
part 0.0
of 0.0123959455799
plan 0.0
himself 0.0
match 0.0
has 0.0
played 0.0
since 0.00342761003598
december 0.00902751670762
19 0.0
misses 0.0
out 0.00242900082866
international 0.0
duty 0.0
this 0.00206484576336
week 0.0
with 0.00326471116297
australia 0.0
facing 0.0
south 0.0
africa 0.0
durban 0.0
wednesday 0.0
