liverpool 0.0
winger 0.0
harry 0.0
kewell 0.0
is 0.00529964716459
struggling 0.0
to 0.0138842958343
recover 0.0
from 0.00104107160423
his 0.00271201552675
achilles 0.0
tendinitis 0.0
problem 0.0
and 0.00387519381867
may 0.00392163340747
not 0.00342626431541
until 0.00249466570039
march 0.0
claims 0.0
agent 0.0
26 0.0033772405943
had 0.0
hoped 0.0
play 0.0
against 0.0
fulham 0.0
last 0.0
weekend 0.0
be 0.00677133636486
ready 0.0
for 0.0041174982481
the 0.023030352472
champions 0.0
league 0.0
tie 0.0
bayer 0.0
leverkusen 0.0
on 0.00252914006296
22 0.0
february 0.0
but 0.00200962535027
bernie 0.0
mandic 0.0
said 0.00803041517094
he 0.00111801361602
scans 0.0
which 0.0
don 0.0
show 0.0
anything 0.0
substantial 0.0
despite 0.0
best 0.0
efforts 0.0
at 0.000946711128071
moment 0.0
simply 0.0
can 0.0
shake 0.0
off 0.0
discomfort 0.0
get 0.00182461622651
back 0.00179473062373
park 0.0
continued 0.0
in 0.00387334532739
sydney 0.0
morning 0.0
herald 0.0
bit 0.0
club 0.0
are 0.00220399179917
doing 0.0
everything 0.0
they 0.0
him 0.0
right 0.00229138616121
was 0.00189805380364
desperate 0.00816131442339
fit 0.0
game 0.0
as 0.00300696790777
part 0.00203156202529
of 0.0108401936324
plan 0.00285617238803
himself 0.0
match 0.0
has 0.0
played 0.0
since 0.0
december 0.0025375239961
19 0.0
misses 0.0
out 0.0
international 0.0
duty 0.0
this 0.00116080553323
week 0.00199809858839
with 0.0
australia 0.0
facing 0.0
south 0.0
africa 0.0
durban 0.0
wednesday 0.0
