liverpool 0.0
winger 0.0
harry 0.0
kewell 0.0
is 0.00715481022742
struggling 0.0
to 0.00937227505444
recover 0.0
from 0.00337320709706
his 0.0
achilles 0.0
tendinitis 0.0
problem 0.0
and 0.00690587196995
may 0.0
not 0.00277538525163
until 0.0
march 0.0
claims 0.0
agent 0.0
26 0.0
had 0.00198484086242
hoped 0.0
play 0.0
against 0.0
fulham 0.0
last 0.00352745039708
weekend 0.0
be 0.00861928906735
ready 0.0
for 0.00333530716238
the 0.0149242661293
champions 0.0
league 0.0
tie 0.0
bayer 0.0
leverkusen 0.0
on 0.00273158066974
22 0.0
february 0.0
but 0.000813930865368
bernie 0.0
mandic 0.0
said 0.00433659787613
he 0.00271688189999
scans 0.0
which 0.0
don 0.0
show 0.0
anything 0.0
substantial 0.0
despite 0.0
best 0.0
efforts 0.0
at 0.00383433363647
moment 0.0
simply 0.0
can 0.0
shake 0.0
off 0.0
discomfort 0.0
get 0.0
back 0.0
park 0.0
continued 0.0
in 0.0031375353757
sydney 0.0
morning 0.0
herald 0.0
bit 0.0
club 0.0
are 0.00446326215013
doing 0.0
everything 0.0
they 0.00103821422372
him 0.0
right 0.0
was 0.0038437128958
desperate 0.0
fit 0.0
game 0.0
as 0.00243574155847
part 0.0
of 0.0100353240273
plan 0.0
himself 0.0
match 0.0
has 0.000743703423552
played 0.0
since 0.0031217323656
december 0.0
19 0.0
misses 0.0
out 0.00221223838864
international 0.0
duty 0.0
this 0.000940290141204
week 0.00161852467965
with 0.00148668524056
australia 0.0
facing 0.0
south 0.0
africa 0.0
durban 0.0
wednesday 0.0
