liverpool 0.0
winger 0.0
harry 0.0
kewell 0.0
is 0.00477904990104
struggling 0.0
to 0.0114770402993
recover 0.0
from 0.00211231035454
his 0.0
achilles 0.0
tendinitis 0.0
problem 0.0
and 0.00891103640567
may 0.0
not 0.00154484700858
until 0.0
march 0.0
claims 0.00184208206445
agent 0.0
26 0.0
had 0.0
hoped 0.0
play 0.0
against 0.0
fulham 0.0
last 0.000981732390239
weekend 0.0
be 0.00261693063541
ready 0.0
for 0.00278476976636
the 0.0145376173543
champions 0.0
league 0.0
tie 0.0
bayer 0.0
leverkusen 0.0
on 0.0
22 0.0
february 0.0
but 0.00203874182086
bernie 0.0
mandic 0.0
said 0.000603463992288
he 0.0
scans 0.0
which 0.00156439396203
don 0.0
show 0.0
anything 0.0
substantial 0.0
despite 0.00313241445466
best 0.0
efforts 0.0
at 0.0
moment 0.0
simply 0.0
can 0.0
shake 0.0
off 0.0
discomfort 0.0
get 0.0
back 0.0
park 0.0
continued 0.0
in 0.00681107148379
sydney 0.0
morning 0.0
herald 0.0
bit 0.0
club 0.0
are 0.00298123246584
doing 0.0
everything 0.0
they 0.000866842974413
him 0.0
right 0.0
was 0.00128370251274
desperate 0.0
fit 0.0
game 0.0
as 0.00271158611805
part 0.0
of 0.00628414391531
plan 0.0
himself 0.0
match 0.0
has 0.00248378060336
played 0.0
since 0.0
december 0.0
19 0.0
misses 0.0
out 0.000923539314482
international 0.00305360137591
duty 0.0
this 0.00157016516282
week 0.00135136536894
with 0.00124128780602
australia 0.0
facing 0.0
south 0.00185166757892
africa 0.0
durban 0.0
wednesday 0.0
