liverpool 0.0
winger 0.0
harry 0.0
kewell 0.0
is 0.00186846309997
struggling 0.0
to 0.0106060465659
recover 0.0
from 0.00220226420725
his 0.00860542353637
achilles 0.0
tendinitis 0.0
problem 0.0
and 0.0106567701884
may 0.0
not 0.0
until 0.00263858554911
march 0.00285640694053
claims 0.0
agent 0.0
26 0.0
had 0.00259168433045
hoped 0.0
play 0.0
against 0.00374138871442
fulham 0.0
last 0.0
weekend 0.0
be 0.00102314025355
ready 0.0
for 0.00609705738284
the 0.0211111310501
champions 0.0
league 0.0
tie 0.0116352822272
bayer 0.0
leverkusen 0.0
on 0.00356673169783
22 0.0
february 0.0
but 0.00212556271869
bernie 0.0
mandic 0.0
said 0.000943744237958
he 0.00354753893937
scans 0.0
which 0.0
don 0.0
show 0.0
anything 0.0
substantial 0.0
despite 0.00244935748467
best 0.0
efforts 0.00354920329239
at 0.0
moment 0.0
simply 0.00315498717221
can 0.00164103991008
shake 0.0
off 0.0
discomfort 0.0
get 0.0
back 0.0
park 0.0
continued 0.0
in 0.0106516868434
sydney 0.0
morning 0.0
herald 0.0
bit 0.0
club 0.0
are 0.0
doing 0.0
everything 0.0
they 0.0027112738217
him 0.0022006322907
right 0.0
was 0.00100377724697
desperate 0.0
fit 0.0
game 0.0
as 0.00106014766719
part 0.0
of 0.00818969688106
plan 0.0
himself 0.0
match 0.0
has 0.00485541321175
played 0.0
since 0.0
december 0.0
19 0.0
misses 0.0
out 0.00144430308636
international 0.0
duty 0.0
this 0.00245554721406
week 0.0
with 0.00291183458222
australia 0.0
facing 0.0
south 0.0
africa 0.0
durban 0.0
wednesday 0.0
