liverpool 0.0
winger 0.0
harry 0.0
kewell 0.0
is 0.000827224254719
struggling 0.0
to 0.00505681362174
recover 0.0
from 0.0
his 0.0
achilles 0.0
tendinitis 0.0
problem 0.0
and 0.00798442531939
may 0.00183638844551
not 0.0
until 0.0
march 0.0
claims 0.0
agent 0.0
26 0.0
had 0.00114741583002
hoped 0.0
play 0.0
against 0.00165642419748
fulham 0.0
last 0.00135945489027
weekend 0.0
be 0.000905949316017
ready 0.0
for 0.00231372759916
the 0.0158171984849
champions 0.0
league 0.0
tie 0.0
bayer 0.0
leverkusen 0.0
on 0.00078954916759
22 0.0
february 0.00251658211345
but 0.0
bernie 0.0
mandic 0.0
said 0.0025069420656
he 0.00314120225895
scans 0.0
which 0.0
don 0.00214598083678
show 0.0
anything 0.0
substantial 0.0
despite 0.0
best 0.0
efforts 0.0
at 0.00443317667967
moment 0.0
simply 0.0
can 0.0
shake 0.0
off 0.0
discomfort 0.0
get 0.0
back 0.0
park 0.0
continued 0.0
in 0.00362755304518
sydney 0.0
morning 0.0
herald 0.0
bit 0.0
club 0.0
are 0.00309619843579
doing 0.0
everything 0.0
they 0.00360108497705
him 0.0
right 0.0
was 0.00177760831358
desperate 0.0
fit 0.0
game 0.0
as 0.00469358942061
part 0.0
of 0.0101523035252
plan 0.0
himself 0.0
match 0.0
has 0.0017197088133
played 0.0
since 0.00180464096704
december 0.0
19 0.0
misses 0.0
out 0.00127887197154
international 0.00211423875013
duty 0.0
this 0.0
week 0.0
with 0.00257831176027
australia 0.0
facing 0.0030491725152
south 0.0
africa 0.0
durban 0.0
wednesday 0.0
