liverpool 0.0
winger 0.0
harry 0.0
kewell 0.0
is 0.00225566752538
struggling 0.0
to 0.0049245975335
recover 0.0
from 0.0
his 0.00346291281024
achilles 0.0
tendinitis 0.0
problem 0.0
and 0.0
may 0.0
not 0.0
until 0.0
march 0.0
claims 0.0
agent 0.0
26 0.0
had 0.0
hoped 0.0
play 0.002828688413
against 0.0
fulham 0.0
last 0.0
weekend 0.0
be 0.0
ready 0.0
for 0.0010515085396
the 0.012743011284
champions 0.0
league 0.0
tie 0.0
bayer 0.0
leverkusen 0.0
on 0.00538233860667
22 0.00400271497314
february 0.0
but 0.00128302314286
bernie 0.0
mandic 0.0
said 0.0
he 0.00142756692754
scans 0.0
which 0.0029535181512
don 0.0
show 0.0
anything 0.0
substantial 0.0
despite 0.0
best 0.00537108732475
efforts 0.0
at 0.00241766911779
moment 0.0
simply 0.0
can 0.0
shake 0.0
off 0.0
discomfort 0.0
get 0.0
back 0.0
park 0.0
continued 0.00409920904688
in 0.0108807362808
sydney 0.0
morning 0.0
herald 0.0
bit 0.0
club 0.0
are 0.0
doing 0.0
everything 0.0
they 0.0
him 0.0
right 0.0
was 0.00121179151932
desperate 0.0
fit 0.0
game 0.0
as 0.00383953100014
part 0.0
of 0.0138416041593
plan 0.0
himself 0.0
match 0.0
has 0.00117232156248
played 0.00324010842331
since 0.0
december 0.0
19 0.0
misses 0.0
out 0.00174360819261
international 0.0
duty 0.0
this 0.0
week 0.0025513280177
with 0.00703051690609
australia 0.0
facing 0.0
south 0.0
africa 0.0
durban 0.0
wednesday 0.0
