liverpool 0.0
winger 0.0
harry 0.0
kewell 0.0
is 0.00428355033123
struggling 0.0
to 0.0128254532905
recover 0.0
from 0.00216377442767
his 0.0
achilles 0.0
tendinitis 0.0
problem 0.0
and 0.00698034527045
may 0.0
not 0.00395621368403
until 0.0
march 0.0
claims 0.0
agent 0.0
26 0.0
had 0.0
hoped 0.0
play 0.00153477902118
against 0.0
fulham 0.0
last 0.0020113023981
weekend 0.0
be 0.0073718953435
ready 0.0
for 0.00285261755899
the 0.0143599597385
champions 0.0
league 0.0
tie 0.0
bayer 0.0
leverkusen 0.0
on 0.00233626307951
22 0.0
february 0.0
but 0.0048729647847
bernie 0.0
mandic 0.0
said 0.0061816671576
he 0.0
scans 0.0
which 0.004807526
don 0.00158748055349
show 0.0
anything 0.0
substantial 0.0
despite 0.0
best 0.0
efforts 0.0
at 0.00131176973225
moment 0.0
simply 0.0
can 0.0032247177069
shake 0.0
off 0.0
discomfort 0.0
get 0.0
back 0.0
park 0.0
continued 0.0
in 0.00858709612655
sydney 0.0
morning 0.0
herald 0.0
bit 0.0
club 0.0
are 0.00381733356479
doing 0.0
everything 0.0
they 0.00355185052576
him 0.0
right 0.0
was 0.0046024246974
desperate 0.0
fit 0.0
game 0.0
as 0.00416647630972
part 0.00140747345993
of 0.00590081253209
plan 0.0
himself 0.0
match 0.0
has 0.000636073783138
played 0.0
since 0.0
december 0.0
19 0.0
misses 0.0
out 0.000946040314259
international 0.0
duty 0.0
this 0.00321684095257
week 0.0
with 0.00572188676168
australia 0.0
facing 0.0
south 0.0
africa 0.0
durban 0.0
wednesday 0.0
