liverpool 0.0267090257112
winger 0.0
harry 0.0
kewell 0.0
is 0.00212560814449
struggling 0.0
to 0.00742504079723
recover 0.00925596880178
from 0.00501069647598
his 0.0
achilles 0.0
tendinitis 0.0
problem 0.0
and 0.00559541339865
may 0.0
not 0.00274844536168
until 0.0
march 0.0
claims 0.0
agent 0.0
26 0.0
had 0.00294836184928
hoped 0.0
play 0.0
against 0.00851258590356
fulham 0.0
last 0.0
weekend 0.0
be 0.0
ready 0.0
for 0.00396351872008
the 0.00738970022188
champions 0.0
league 0.0
tie 0.0
bayer 0.0
leverkusen 0.0
on 0.0
22 0.0
february 0.0
but 0.00725427239083
bernie 0.0
mandic 0.0
said 0.00429450373101
he 0.00538101977148
scans 0.0
which 0.0
don 0.0110284830711
show 0.0
anything 0.0
substantial 0.0
despite 0.0
best 0.0
efforts 0.0
at 0.00455653779615
moment 0.00743184595856
simply 0.0
can 0.0037337722092
shake 0.0
off 0.0
discomfort 0.0
get 0.0
back 0.0
park 0.0
continued 0.0
in 0.0037284962347
sydney 0.0
morning 0.0
herald 0.0
bit 0.0
club 0.0
are 0.00530392621231
doing 0.0
everything 0.0
they 0.0
him 0.00500698346166
right 0.0
was 0.0137030509714
desperate 0.0
fit 0.0
game 0.00533117851924
as 0.00241209849505
part 0.0
of 0.00559007659018
plan 0.0
himself 0.0
match 0.0
has 0.00220945350602
played 0.0
since 0.0
december 0.0
19 0.0
misses 0.0
out 0.0
international 0.0
duty 0.0
this 0.0
week 0.0
with 0.00220838160285
australia 0.0
facing 0.0
south 0.0
africa 0.0
durban 0.0
wednesday 0.0
