liverpool 0.0
winger 0.0
harry 0.0
kewell 0.0
is 0.00549335500754
struggling 0.0
to 0.00915840665257
recover 0.00217462140075
from 0.00176583910707
his 0.0
achilles 0.0
tendinitis 0.0
problem 0.0
and 0.00920220690921
may 0.0
not 0.00322863453318
until 0.0
march 0.0
claims 0.0
agent 0.0
26 0.00190946312471
had 0.0
hoped 0.0
play 0.0
against 0.0
fulham 0.0
last 0.000820703947993
weekend 0.0
be 0.0038284560228
ready 0.0
for 0.00232799850981
the 0.0160594374802
champions 0.0
league 0.0
tie 0.0
bayer 0.0
leverkusen 0.0
on 0.00285990858667
22 0.0
february 0.0
but 0.00284056272693
bernie 0.0
mandic 0.0
said 0.00100896188384
he 0.000632115395131
scans 0.0
which 0.0
don 0.0
show 0.0
anything 0.0
substantial 0.0
despite 0.0
best 0.00118913758825
efforts 0.0
at 0.000535262424552
moment 0.0
simply 0.0
can 0.00701777728558
shake 0.0
off 0.00112970795758
discomfort 0.0
get 0.00206324500964
back 0.00202945087808
park 0.00391038736368
continued 0.0
in 0.00700786087613
sydney 0.0
morning 0.0
herald 0.0
bit 0.0
club 0.0
are 0.00124611822882
doing 0.00155065250681
everything 0.0
they 0.00144931848733
him 0.0
right 0.0
was 0.00107314348669
desperate 0.0
fit 0.00194835828308
game 0.0
as 0.00566704698382
part 0.0
of 0.00831786524127
plan 0.0
himself 0.0
match 0.0
has 0.00311456854342
played 0.0
since 0.0
december 0.0
19 0.0
misses 0.0
out 0.00386027989429
international 0.0
duty 0.0
this 0.000656309581378
week 0.0
with 0.00103768584303
australia 0.0
facing 0.00184078775931
south 0.0
africa 0.0
durban 0.0
wednesday 0.0
