liverpool 0.0
winger 0.0
harry 0.0
kewell 0.0
is 0.00105898349835
struggling 0.0
to 0.0115599206561
recover 0.0
from 0.00249634199842
his 0.00650302844901
achilles 0.0
tendinitis 0.0
problem 0.0
and 0.00743373196788
may 0.0
not 0.00136928261762
until 0.00149546360082
march 0.0
claims 0.0
agent 0.0
26 0.0
had 0.00293776306196
hoped 0.0
play 0.0
against 0.0
fulham 0.0
last 0.0
weekend 0.0
be 0.00115976456266
ready 0.0
for 0.0083922001127
the 0.018868035198
champions 0.0
league 0.0
tie 0.0
bayer 0.0
leverkusen 0.0
on 0.0050537658612
22 0.0
february 0.0
but 0.00120469911545
bernie 0.0
mandic 0.0
said 0.00427906582547
he 0.00804251407819
scans 0.0
which 0.000693304077174
don 0.0
show 0.00139653738556
anything 0.0
substantial 0.0
despite 0.00138821535082
best 0.0
efforts 0.0
at 0.00113503948228
moment 0.0
simply 0.0
can 0.000930087506102
shake 0.0
off 0.00239557846112
discomfort 0.0
get 0.00109379270809
back 0.00107587734927
park 0.0
continued 0.0
in 0.00603702615101
sydney 0.0
morning 0.0
herald 0.0
bit 0.0
club 0.0
are 0.00132121490733
doing 0.00164410178801
everything 0.0
they 0.00153666092561
him 0.0
right 0.00137360472747
was 0.00227563186145
desperate 0.0
fit 0.0
game 0.0
as 0.00180257060262
part 0.0
of 0.00742664180298
plan 0.0
himself 0.0
match 0.0
has 0.00165113321284
played 0.0
since 0.0
december 0.0
19 0.0
misses 0.0
out 0.00163716707607
international 0.0
duty 0.0066835968034
this 0.00139172348608
week 0.00239557846112
with 0.00330066435085
australia 0.0
facing 0.0
south 0.00164123451406
africa 0.0
durban 0.0
wednesday 0.0
