liverpool 0.0
winger 0.0
harry 0.0
kewell 0.0
is 0.00407825709206
struggling 0.0
to 0.0142459113965
recover 0.0
from 0.00320455873491
his 0.00208698734317
achilles 0.0
tendinitis 0.0
problem 0.0
and 0.0107355320571
may 0.00603565813338
not 0.00175775057089
until 0.0
march 0.0
claims 0.0
agent 0.0
26 0.0
had 0.0
hoped 0.0
play 0.0
against 0.00272208480844
fulham 0.0
last 0.00223406027887
weekend 0.0
be 0.00297758373018
ready 0.0
for 0.00380226439467
the 0.03308224706
champions 0.0
league 0.0
tie 0.0
bayer 0.0
leverkusen 0.0
on 0.0077850340434
22 0.0
february 0.0
but 0.00154647443171
bernie 0.0
mandic 0.0
said 0.00274652226677
he 0.00172069830952
scans 0.0
which 0.0
don 0.0
show 0.0
anything 0.0
substantial 0.0
despite 0.0
best 0.0
efforts 0.0
at 0.0
moment 0.0
simply 0.0
can 0.00238791002499
shake 0.0
off 0.0
discomfort 0.0
get 0.00280820735229
back 0.0
park 0.0
continued 0.0
in 0.0107304111423
sydney 0.0
morning 0.0
herald 0.0
bit 0.0
club 0.0
are 0.0
doing 0.0
everything 0.0
they 0.0
him 0.0
right 0.0
was 0.0029212327332
desperate 0.0
fit 0.0
game 0.0
as 0.00308528418707
part 0.0
of 0.00595849594023
plan 0.0
himself 0.0
match 0.00412877602771
has 0.0
played 0.0
since 0.0
december 0.0
19 0.0
misses 0.0
out 0.00630490300303
international 0.0
duty 0.0
this 0.00178655795428
week 0.0
with 0.00423706879236
australia 0.00496840385745
facing 0.0
south 0.0
africa 0.0
durban 0.0
wednesday 0.0
