liverpool 0.0
winger 0.0
harry 0.002412902583
kewell 0.0
is 0.00227253518267
struggling 0.0
to 0.00446528086543
recover 0.0
from 0.00133926190263
his 0.00436101015955
achilles 0.0
tendinitis 0.0
problem 0.0
and 0.00598218154317
may 0.0
not 0.00146921218717
until 0.0
march 0.0
claims 0.0
agent 0.0
26 0.0
had 0.0
hoped 0.0
play 0.00142492053174
against 0.00341287345426
fulham 0.0
last 0.0
weekend 0.0
be 0.00186660541197
ready 0.0
for 0.0047671722712
the 0.0133320831103
champions 0.0
league 0.00197207467028
tie 0.0
bayer 0.0
leverkusen 0.0
on 0.000542258719918
22 0.0
february 0.0
but 0.00129261746225
bernie 0.0
mandic 0.0
said 0.00229567496862
he 0.00215736319645
scans 0.0
which 0.000743901066508
don 0.0
show 0.0
anything 0.0
substantial 0.0
despite 0.00446857986566
best 0.0
efforts 0.0
at 0.000608937051717
moment 0.00198638816105
simply 0.0
can 0.0019959296664
shake 0.0
off 0.0
discomfort 0.0
get 0.0
back 0.00115439434716
park 0.0
continued 0.0
in 0.00448449600434
sydney 0.0
morning 0.0
herald 0.0
bit 0.0
club 0.00356592085629
are 0.000708818259552
doing 0.00176408752496
everything 0.0
they 0.00082440284073
him 0.0
right 0.0
was 0.00122085317571
desperate 0.0
fit 0.0
game 0.00142492053174
as 0.000644707105147
part 0.00261345484041
of 0.00348627757447
plan 0.0
himself 0.0
match 0.0
has 0.00295272016617
played 0.0
since 0.0
december 0.0
19 0.0
misses 0.0
out 0.000878323360584
international 0.00145204940402
duty 0.0
this 0.0
week 0.00128520329737
with 0.0023610301373
australia 0.00207641505542
facing 0.0
south 0.0
africa 0.0
durban 0.0
wednesday 0.0
