liverpool 0.0
winger 0.0
harry 0.0
kewell 0.0
is 0.00220092124886
struggling 0.0
to 0.00768811980074
recover 0.0
from 0.0
his 0.00337886603468
achilles 0.0
tendinitis 0.0
problem 0.0
and 0.00386244419106
may 0.0
not 0.00284582641139
until 0.0
march 0.0
claims 0.0
agent 0.0
26 0.0
had 0.00915847861268
hoped 0.0
play 0.0
against 0.0
fulham 0.0
last 0.00361697948022
weekend 0.0
be 0.00241037794605
ready 0.0
for 0.00205197571196
the 0.0191288176553
champions 0.0
league 0.0
tie 0.0
bayer 0.0
leverkusen 0.0
on 0.0
22 0.0
february 0.0
but 0.00250376694805
bernie 0.0
mandic 0.0
said 0.004446663671
he 0.01671502923
scans 0.0
which 0.0
don 0.0
show 0.0
anything 0.0
substantial 0.0
despite 0.0
best 0.0
efforts 0.0
at 0.0023589909746
moment 0.0
simply 0.0
can 0.0
shake 0.0
off 0.0
discomfort 0.0
get 0.0
back 0.0
park 0.0
continued 0.0
in 0.00386060178143
sydney 0.0
morning 0.0
herald 0.0
bit 0.0
club 0.0
are 0.0
doing 0.0
everything 0.0
they 0.0
him 0.0
right 0.0
was 0.00236476136138
desperate 0.0
fit 0.0
game 0.0
as 0.00249756233098
part 0.0050621951511
of 0.00578814038795
plan 0.0
himself 0.0
match 0.0
has 0.00457547472461
played 0.0
since 0.0
december 0.0
19 0.0
misses 0.0
out 0.0
international 0.0
duty 0.0
this 0.0
week 0.00497881180078
with 0.00228662748019
australia 0.0
facing 0.0
south 0.0
africa 0.0
durban 0.0
wednesday 0.0
