liverpool 0.0
winger 0.0
harry 0.0
kewell 0.0
is 0.00143076356166
struggling 0.0
to 0.00999570672893
recover 0.0
from 0.00505910881663
his 0.0
achilles 0.0
tendinitis 0.0
problem 0.0
and 0.00627719461834
may 0.0
not 0.00370000038331
until 0.0
march 0.0
claims 0.0
agent 0.0
26 0.0
had 0.00198456555196
hoped 0.0
play 0.0
against 0.0
fulham 0.0
last 0.0
weekend 0.0
be 0.00470077828111
ready 0.0
for 0.00266787562671
the 0.0211397777171
champions 0.0
league 0.0
tie 0.0
bayer 0.0
leverkusen 0.0
on 0.00409680267236
22 0.0
february 0.0
but 0.00162763593563
bernie 0.0
mandic 0.0
said 0.00722666060257
he 0.00181100336709
scans 0.0
which 0.0
don 0.0
show 0.0
anything 0.0
substantial 0.0
despite 0.0
best 0.0
efforts 0.0108711180729
at 0.0
moment 0.0
simply 0.0
can 0.0025132314431
shake 0.0
off 0.0
discomfort 0.0
get 0.00295558666058
back 0.0
park 0.0
continued 0.0
in 0.0100387205726
sydney 0.0
morning 0.0
herald 0.0
bit 0.0
club 0.0
are 0.00892528613275
doing 0.0
everything 0.0
they 0.0
him 0.0
right 0.0
was 0.00461181569711
desperate 0.0
fit 0.0
game 0.0
as 0.0
part 0.0
of 0.015050898093
plan 0.0
himself 0.0
match 0.0
has 0.00297440106802
played 0.0
since 0.0
december 0.0
19 0.0
misses 0.0
out 0.00221193153665
international 0.00365677837306
duty 0.0
this 0.0
week 0.0
with 0.0
australia 0.0
facing 0.0
south 0.0
africa 0.0
durban 0.0
wednesday 0.0
