liverpool 0.0
winger 0.0
harry 0.0
kewell 0.0
is 0.00349966474765
struggling 0.0
to 0.00534835392775
recover 0.0
from 0.0020624400908
his 0.0026863519889
achilles 0.0
tendinitis 0.0
problem 0.0
and 0.00690934182901
may 0.0
not 0.0
until 0.0
march 0.0
claims 0.0
agent 0.0
26 0.00334528209665
had 0.0
hoped 0.0
play 0.0
against 0.00175192196614
fulham 0.0
last 0.00143783149743
weekend 0.0
be 0.00191635996305
ready 0.0
for 0.00489424171756
the 0.0129270371486
champions 0.0
league 0.0
tie 0.0
bayer 0.0
leverkusen 0.0
on 0.00250520705775
22 0.0
february 0.00266167053757
but 0.000995304231004
bernie 0.0
mandic 0.0
said 0.00176764980824
he 0.00553716981227
scans 0.0
which 0.0
don 0.0
show 0.0
anything 0.00294178497233
substantial 0.0
despite 0.00458769030205
best 0.0
efforts 0.0
at 0.0056265149592
moment 0.0
simply 0.0
can 0.00307369705233
shake 0.0
off 0.0
discomfort 0.0
get 0.0
back 0.0
park 0.0
continued 0.0
in 0.00767338447829
sydney 0.0
morning 0.0
herald 0.0
bit 0.0
club 0.0
are 0.0010915678201
doing 0.0
everything 0.0
they 0.00126956606946
him 0.0
right 0.0
was 0.000940046353008
desperate 0.0
fit 0.0
game 0.00219435289326
as 0.00198567550958
part 0.0
of 0.00306788969704
plan 0.0
himself 0.0
match 0.0
has 0.00272828269169
played 0.0
since 0.0
december 0.0
19 0.0
misses 0.0
out 0.00135260273439
international 0.0
duty 0.0
this 0.00229964188786
week 0.0
with 0.0018179727211
australia 0.0
facing 0.0
south 0.0
africa 0.0
durban 0.0
wednesday 0.0
