liverpool 0.0
winger 0.0
harry 0.0
kewell 0.0
is 0.00601375842871
struggling 0.0
to 0.00525172075972
recover 0.0
from 0.000886014616692
his 0.0115404424999
achilles 0.0
tendinitis 0.0
problem 0.0
and 0.0118728837352
may 0.0
not 0.000971985741025
until 0.0
march 0.0
claims 0.00231799976373
agent 0.0
26 0.0
had 0.00104268606422
hoped 0.0
play 0.0
against 0.0
fulham 0.0
last 0.00494148549088
weekend 0.00525653404061
be 0.000823259277049
ready 0.0
for 0.00210254335083
the 0.013066811053
champions 0.0
league 0.0
tie 0.0
bayer 0.0
leverkusen 0.0
on 0.00358741744937
22 0.0
february 0.0
but 0.00256546825479
bernie 0.0
mandic 0.0
said 0.00227812227024
he 0.00666047830909
scans 0.0
which 0.000984284279283
don 0.0
show 0.0
anything 0.0
substantial 0.0
despite 0.0
best 0.0017899591422
efforts 0.0
at 0.00322283268065
moment 0.0
simply 0.0
can 0.00396133763274
shake 0.0
off 0.00170050220148
discomfort 0.0
get 0.0015528582664
back 0.00305484763811
park 0.0
continued 0.0
in 0.00988935024721
sydney 0.0
morning 0.0
herald 0.0
bit 0.00256716265388
club 0.0
are 0.0
doing 0.0
everything 0.0
they 0.0
him 0.00177071612852
right 0.0019501075844
was 0.00242303709916
desperate 0.0
fit 0.0
game 0.0
as 0.000853036911639
part 0.0
of 0.00527180425963
plan 0.0
himself 0.00260313543913
match 0.0
has 0.00703234490279
played 0.0
since 0.00327984665719
december 0.0
19 0.0
misses 0.0
out 0.00116214361677
international 0.0
duty 0.0
this 0.0059274923957
week 0.00170050220148
with 0.00156198515615
australia 0.0
facing 0.0
south 0.0
africa 0.0
durban 0.0
wednesday 0.0
