liverpool 0.0
winger 0.0
harry 0.0
kewell 0.0
is 0.00448559387189
struggling 0.0
to 0.0137101953089
recover 0.0
from 0.000881157605992
his 0.00229543587516
achilles 0.0
tendinitis 0.0
problem 0.0
and 0.00655988789653
may 0.00165962508768
not 0.00289997234521
until 0.0
march 0.0
claims 0.00230529280671
agent 0.0
26 0.0
had 0.0
hoped 0.0
play 0.0
against 0.0
fulham 0.0
last 0.00122859923616
weekend 0.0
be 0.0040937314126
ready 0.0
for 0.00627305248899
the 0.0110459034978
champions 0.0
league 0.0
tie 0.0
bayer 0.0
leverkusen 0.0
on 0.004994852406
22 0.0
february 0.0
but 0.000850468236471
bernie 0.0
mandic 0.0
said 0.00226563391617
he 0.00757024740551
scans 0.0
which 0.0
don 0.0
show 0.00197179639668
anything 0.0
substantial 0.0
despite 0.0
best 0.0
efforts 0.0
at 0.00160258277679
moment 0.0
simply 0.0
can 0.00131320737424
shake 0.0
off 0.0
discomfort 0.0
get 0.0
back 0.00151905069101
park 0.0
continued 0.0
in 0.00786811054759
sydney 0.0
morning 0.0
herald 0.0
bit 0.0
club 0.0
are 0.00559634168145
doing 0.00696401116409
everything 0.0
they 0.00325445903637
him 0.0
right 0.0
was 0.000803251447286
desperate 0.0
fit 0.0
game 0.0
as 0.000848360680198
part 0.0017195035609
of 0.00720899430787
plan 0.0
himself 0.0
match 0.0
has 0.0023312648506
played 0.0
since 0.0
december 0.0
19 0.0
misses 0.0
out 0.0
international 0.0
duty 0.0
this 0.000982499782458
week 0.00169118028147
with 0.000776711283797
australia 0.0
facing 0.0
south 0.0
africa 0.0
durban 0.0
wednesday 0.0
