liverpool 0.0
winger 0.0
harry 0.0
kewell 0.0
is 0.00592548795136
struggling 0.0
to 0.0110885047255
recover 0.0
from 0.00299317582593
his 0.00129954867036
achilles 0.0
tendinitis 0.0
problem 0.0
and 0.00594215238051
may 0.00187917562789
not 0.00328360748048
until 0.0
march 0.00258816302944
claims 0.0
agent 0.0
26 0.0
had 0.00234830040246
hoped 0.0
play 0.0
against 0.00169501827839
fulham 0.0
last 0.0
weekend 0.0
be 0.00278117281601
ready 0.0
for 0.00394606101681
the 0.0242786001788
champions 0.0
league 0.0
tie 0.0
bayer 0.0
leverkusen 0.0
on 0.00242383612746
22 0.0
february 0.0
but 0.000962976032443
bernie 0.0
mandic 0.0
said 0.00513070580653
he 0.00428585483769
scans 0.0
which 0.0
don 0.0
show 0.0
anything 0.0
substantial 0.0
despite 0.0
best 0.0
efforts 0.0
at 0.00090729361655
moment 0.0
simply 0.0
can 0.0
shake 0.0
off 0.0
discomfort 0.0
get 0.00174864602927
back 0.0
park 0.0
continued 0.0
in 0.0103938063902
sydney 0.0
morning 0.0
herald 0.0
bit 0.0
club 0.0
are 0.00211222582161
doing 0.0
everything 0.0
they 0.00368498894632
him 0.0
right 0.0
was 0.00363805188056
desperate 0.0
fit 0.0
game 0.0
as 0.0
part 0.0
of 0.0081626666803
plan 0.00273725204932
himself 0.0
match 0.0
has 0.00263966610408
played 0.0
since 0.00184668844473
december 0.0
19 0.0
misses 0.0
out 0.0
international 0.0
duty 0.0
this 0.0066748435872
week 0.00191490523427
with 0.000879461828614
australia 0.0
facing 0.0
south 0.00787152317315
africa 0.0
durban 0.0
wednesday 0.0
