liverpool 0.0
winger 0.0
harry 0.0
kewell 0.0
is 0.00214850344997
struggling 0.0
to 0.00813043534288
recover 0.0
from 0.00168822252795
his 0.0
achilles 0.0
tendinitis 0.0
problem 0.0
and 0.00251363670981
may 0.00158984978505
not 0.0
until 0.0
march 0.0
claims 0.0
agent 0.0
26 0.0
had 0.000993373060687
hoped 0.0
play 0.0
against 0.0
fulham 0.0
last 0.0
weekend 0.0
be 0.0023529716638
ready 0.0
for 0.00267080699271
the 0.0155610333429
champions 0.0
league 0.0
tie 0.0
bayer 0.0
leverkusen 0.0
on 0.00478485477414
22 0.0
february 0.0
but 0.00244413648538
bernie 0.0
mandic 0.0
said 0.00361730049895
he 0.0
scans 0.0
which 0.00187546668293
don 0.00185787880577
show 0.0
anything 0.0
substantial 0.0
despite 0.0
best 0.0
efforts 0.0
at 0.00383801423305
moment 0.0
simply 0.0
can 0.0
shake 0.0
off 0.0
discomfort 0.0
get 0.0
back 0.00145518553107
park 0.0
continued 0.0
in 0.00816542249133
sydney 0.0
morning 0.0
herald 0.0
bit 0.0
club 0.0
are 0.000893509291686
doing 0.00222374152141
everything 0.0
they 0.0
him 0.0
right 0.0
was 0.000769480499116
desperate 0.0
fit 0.0
game 0.0
as 0.0
part 0.0
of 0.00878933736316
plan 0.0
himself 0.0
match 0.0
has 0.00297766923317
played 0.0
since 0.00312472893256
december 0.0
19 0.0
misses 0.0
out 0.0
international 0.0
duty 0.0
this 0.0018823854611
week 0.00162007830982
with 0.0
australia 0.0
facing 0.0
south 0.0
africa 0.0
durban 0.0
wednesday 0.00654706667454
