liverpool 0.0
winger 0.0
harry 0.0
kewell 0.0
is 0.00352927625195
struggling 0.0
to 0.0110954214214
recover 0.0
from 0.00166391271356
his 0.00216726548683
achilles 0.0
tendinitis 0.0
problem 0.0
and 0.00805168396396
may 0.0
not 0.000912682139451
until 0.0
march 0.0
claims 0.0
agent 0.0
26 0.0
had 0.000979068835786
hoped 0.0
play 0.0
against 0.0
fulham 0.0
last 0.0
weekend 0.0
be 0.00309211959224
ready 0.0
for 0.00460660953451
the 0.0208582654655
champions 0.0
league 0.0
tie 0.0
bayer 0.0
leverkusen 0.0
on 0.00606337011983
22 0.0
february 0.0
but 0.000802980591397
bernie 0.0
mandic 0.0
said 0.00427825516317
he 0.00625410367286
scans 0.0
which 0.000924230309074
don 0.0
show 0.0
anything 0.0
substantial 0.0
despite 0.0
best 0.0
efforts 0.0
at 0.00226964890166
moment 0.0
simply 0.0
can 0.0
shake 0.0
off 0.0
discomfort 0.0
get 0.0
back 0.0
park 0.0
continued 0.0
in 0.00433345406372
sydney 0.0
morning 0.0
herald 0.0
bit 0.0
club 0.0
are 0.000880643070158
doing 0.0
everything 0.0
they 0.0
him 0.0
right 0.0
was 0.000758400248854
desperate 0.0
fit 0.0
game 0.0
as 0.0
part 0.0
of 0.00680646526757
plan 0.00456493244964
himself 0.0
match 0.0
has 0.00220109387766
played 0.0
since 0.0
december 0.0
19 0.0
misses 0.0
out 0.0
international 0.00180404106123
duty 0.0
this 0.000927639884165
week 0.0
with 0.00293336804016
australia 0.0
facing 0.0
south 0.0
africa 0.00502304964251
durban 0.0
wednesday 0.00215093040085
