liverpool 0.0
winger 0.0
harry 0.0
kewell 0.0
is 0.00196369101699
struggling 0.0
to 0.00171486051557
recover 0.0
from 0.00231450460053
his 0.0
achilles 0.0
tendinitis 0.0
problem 0.0
and 0.00516918560729
may 0.0
not 0.00253908392353
until 0.0
march 0.0
claims 0.0
agent 0.0
26 0.0
had 0.0
hoped 0.0
play 0.0
against 0.0
fulham 0.0
last 0.00645423376016
weekend 0.0
be 0.0
ready 0.0
for 0.00183079984108
the 0.0256004757653
champions 0.0
league 0.0
tie 0.0
bayer 0.0
leverkusen 0.0
on 0.00374851341464
22 0.0
february 0.0
but 0.00223389395102
bernie 0.0
mandic 0.0
said 0.0158694883078
he 0.0
scans 0.0
which 0.0025712109594
don 0.0
show 0.00517924580165
anything 0.0
substantial 0.0
despite 0.0
best 0.0
efforts 0.0
at 0.00420944582944
moment 0.0
simply 0.0
can 0.0
shake 0.0
off 0.0
discomfort 0.0
get 0.0
back 0.0
park 0.0
continued 0.0
in 0.0120556797059
sydney 0.0
morning 0.0
herald 0.0
bit 0.0
club 0.0
are 0.00244995115512
doing 0.0
everything 0.0
they 0.0
him 0.0
right 0.0
was 0.00632961399012
desperate 0.0
fit 0.0
game 0.0
as 0.0
part 0.0
of 0.00516425532751
plan 0.0
himself 0.0
match 0.0
has 0.0
played 0.0
since 0.0
december 0.00564140923549
19 0.0
misses 0.0
out 0.0
international 0.0
duty 0.0
this 0.00258069640557
week 0.0
with 0.00204015924894
australia 0.0
facing 0.0
south 0.0
africa 0.0
durban 0.0
wednesday 0.0
