liverpool 0.0
winger 0.0
harry 0.0
kewell 0.0
is 0.0100458923249
struggling 0.0
to 0.0102350732709
recover 0.0
from 0.00197343198779
his 0.00257041790887
achilles 0.0
tendinitis 0.0
problem 0.0
and 0.00587658440365
may 0.0
not 0.00216491660169
until 0.0
march 0.0
claims 0.0
agent 0.0
26 0.0
had 0.0
hoped 0.0
play 0.0
against 0.0100578887994
fulham 0.0
last 0.00275155887701
weekend 0.0
be 0.00183365619592
ready 0.0
for 0.00468302240851
the 0.0145519399029
champions 0.0
league 0.0
tie 0.0
bayer 0.0
leverkusen 0.0
on 0.0
22 0.0
february 0.0
but 0.00380940074974
bernie 0.0
mandic 0.0
said 0.00169136388027
he 0.00635784461993
scans 0.0
which 0.00219230929741
don 0.0086870004494
show 0.0
anything 0.0
substantial 0.0
despite 0.0
best 0.0
efforts 0.0
at 0.00358912877027
moment 0.0
simply 0.0
can 0.0
shake 0.0
off 0.0
discomfort 0.0
get 0.0
back 0.00340205112495
park 0.0
continued 0.0
in 0.0102791171643
sydney 0.0
morning 0.0
herald 0.0
bit 0.0
club 0.0
are 0.00208891871588
doing 0.0
everything 0.0
they 0.0145773094884
him 0.0
right 0.0
was 0.0
desperate 0.0
fit 0.0
game 0.0
as 0.00569994093713
part 0.0
of 0.00293548970957
plan 0.0
himself 0.0
match 0.0
has 0.00174035934734
played 0.00481007358507
since 0.0
december 0.0
19 0.0
misses 0.0
out 0.0
international 0.00427925372346
duty 0.0
this 0.0
week 0.0
with 0.0
australia 0.0
facing 0.0
south 0.0
africa 0.0
durban 0.0
wednesday 0.0
