liverpool 0.0
winger 0.0
harry 0.0
kewell 0.0
is 0.00815685859649
struggling 0.0
to 0.00623284940964
recover 0.0
from 0.0048070410732
his 0.00156530660034
achilles 0.0
tendinitis 0.0
problem 0.0
and 0.00894665447469
may 0.00452693474375
not 0.00395510578351
until 0.0
march 0.0
claims 0.0
agent 0.0
26 0.0
had 0.0
hoped 0.0
play 0.00255724870119
against 0.0
fulham 0.0
last 0.0
weekend 0.00356489251981
be 0.0100497694273
ready 0.0
for 0.00665424365715
the 0.00974785938468
champions 0.0
league 0.0
tie 0.0
bayer 0.0
leverkusen 0.0
on 0.00291951103869
22 0.0
february 0.0
but 0.0023198095984
bernie 0.0
mandic 0.0
said 0.00617993603971
he 0.00387173467519
scans 0.0
which 0.00133504991596
don 0.0
show 0.00537843979464
anything 0.0
substantial 0.0
despite 0.0
best 0.00242784005868
efforts 0.0
at 0.00109283531954
moment 0.0
simply 0.0
can 0.00716403256659
shake 0.0
off 0.0
discomfort 0.0
get 0.0042124888951
back 0.0
park 0.0
continued 0.0
in 0.00268271605964
sydney 0.0
morning 0.0
herald 0.0
bit 0.0
club 0.0
are 0.00381626455634
doing 0.0
everything 0.0
they 0.0
him 0.00240173948556
right 0.0
was 0.0
desperate 0.0
fit 0.0
game 0.0
as 0.00925624339362
part 0.0
of 0.00625668491733
plan 0.0
himself 0.0
match 0.0
has 0.00423930437762
played 0.0
since 0.0
december 0.0
19 0.0
misses 0.0
out 0.0
international 0.0
duty 0.0
this 0.00535990017742
week 0.0
with 0.00211862385222
australia 0.0
facing 0.0
south 0.0
africa 0.0
durban 0.0
wednesday 0.0
