liverpool 0.0
winger 0.0
harry 0.0
kewell 0.0
is 0.00562907077089
struggling 0.0
to 0.00860261337527
recover 0.0
from 0.00829338098716
his 0.0
achilles 0.0
tendinitis 0.0
problem 0.0
and 0.00123482221998
may 0.0
not 0.0
until 0.0
march 0.0
claims 0.0
agent 0.0
26 0.0
had 0.00195197519717
hoped 0.0
play 0.0
against 0.0
fulham 0.0
last 0.00462538890965
weekend 0.0
be 0.00154119417607
ready 0.0
for 0.00262406401609
the 0.0183464313638
champions 0.0
league 0.0
tie 0.0
bayer 0.0
leverkusen 0.0
on 0.0026863502346
22 0.0
february 0.0
but 0.00480272113949
bernie 0.0
mandic 0.0
said 0.00142159700803
he 0.0
scans 0.0
which 0.0
don 0.0
show 0.0
anything 0.0
substantial 0.0
despite 0.0
best 0.0
efforts 0.0
at 0.00452501213439
moment 0.0
simply 0.0
can 0.0
shake 0.0
off 0.0
discomfort 0.0
get 0.0
back 0.00571887073718
park 0.0110192368324
continued 0.0
in 0.0160450316284
sydney 0.0
morning 0.0
herald 0.0
bit 0.0
club 0.0
are 0.00175574317931
doing 0.0
everything 0.0
they 0.0
him 0.0
right 0.0
was 0.00302405391977
desperate 0.0
fit 0.0
game 0.0
as 0.00159693981816
part 0.0
of 0.00863551127538
plan 0.0
himself 0.0
match 0.0
has 0.00438833358677
played 0.0
since 0.0
december 0.00808576592739
19 0.0
misses 0.0
out 0.0
international 0.0
duty 0.0
this 0.00184944099905
week 0.0
with 0.00438620461295
australia 0.0
facing 0.0
south 0.00436202511451
africa 0.0
durban 0.0
wednesday 0.0
