liverpool 0.0
winger 0.00876337543092
harry 0.0
kewell 0.0
is 0.00561235716914
struggling 0.0
to 0.019604733383
recover 0.0
from 0.00441000353431
his 0.00287204021545
achilles 0.0
tendinitis 0.0
problem 0.0
and 0.00984924669945
may 0.0
not 0.00483791178211
until 0.0
march 0.0
claims 0.0
agent 0.0
26 0.0
had 0.00518981193058
hoped 0.0
play 0.0
against 0.00374603950776
fulham 0.0
last 0.0030744369321
weekend 0.0
be 0.00614647250684
ready 0.0
for 0.00348836367312
the 0.016259518139
champions 0.0
league 0.0
tie 0.0
bayer 0.0
leverkusen 0.0
on 0.0
22 0.0
february 0.0
but 0.00212820493357
bernie 0.0
mandic 0.0
said 0.00377966949757
he 0.0142077950585
scans 0.0
which 0.0
don 0.0
show 0.0
anything 0.0
substantial 0.0
despite 0.0
best 0.0
efforts 0.0
at 0.00401029036214
moment 0.0
simply 0.0
can 0.0
shake 0.0
off 0.0042319960514
discomfort 0.0
get 0.00386455839107
back 0.00380126033675
park 0.0
continued 0.0
in 0.00328151618273
sydney 0.0
morning 0.0
herald 0.0
bit 0.0
club 0.00587104118636
are 0.0
doing 0.0
everything 0.0
they 0.0
him 0.0132202069321
right 0.00485318254207
was 0.00402010003362
desperate 0.0
fit 0.0
game 0.0
as 0.0
part 0.0
of 0.00327995088613
plan 0.0
himself 0.0
match 0.0
has 0.00777831809782
played 0.0
since 0.00408123496998
december 0.0
19 0.0
misses 0.0
out 0.00289219690103
international 0.00478139711969
duty 0.0
this 0.0
week 0.0
with 0.00388727224664
australia 0.0
facing 0.0
south 0.0
africa 0.0
durban 0.0
wednesday 0.0
