liverpool 0.00248886387319
winger 0.0
harry 0.0
kewell 0.0
is 0.00237688160247
struggling 0.0
to 0.0119352368352
recover 0.0
from 0.00210113379202
his 0.0018245006538
achilles 0.0
tendinitis 0.0
problem 0.0
and 0.00834248162493
may 0.0039574014116
not 0.000768336491427
until 0.0
march 0.00181682504359
claims 0.0
agent 0.0
26 0.0
had 0.0
hoped 0.0
play 0.0
against 0.0
fulham 0.0
last 0.0
weekend 0.0
be 0.00065077101213
ready 0.0
for 0.00221602809323
the 0.0170429638034
champions 0.0
league 0.0
tie 0.0
bayer 0.0
leverkusen 0.0
on 0.0034029434219
22 0.0
february 0.0
but 0.00135196968059
bernie 0.0
mandic 0.0
said 0.00180081291142
he 0.00225642134413
scans 0.0
which 0.000778058255168
don 0.0
show 0.0
anything 0.0
substantial 0.0
despite 0.0
best 0.0
efforts 0.0
at 0.00254758876575
moment 0.0
simply 0.0
can 0.00626272614839
shake 0.0
off 0.00134421508465
discomfort 0.0
get 0.00122750532413
back 0.0
park 0.0
continued 0.0
in 0.00312693832871
sydney 0.0
morning 0.0
herald 0.0
bit 0.0
club 0.0
are 0.0051895520273
doing 0.0
everything 0.0
they 0.00344902549381
him 0.0
right 0.00154152345663
was 0.0
desperate 0.0
fit 0.0
game 0.0
as 0.000674309673571
part 0.0
of 0.00937634029912
plan 0.0
himself 0.0
match 0.0
has 0.001235319267
played 0.0
since 0.0
december 0.0
19 0.0
misses 0.0
out 0.00183730544874
international 0.0
duty 0.0
this 0.0
week 0.0
with 0.00185207993886
australia 0.0
facing 0.0
south 0.0036837402357
africa 0.0
durban 0.0
wednesday 0.0
