liverpool 0.0
winger 0.0
harry 0.0
kewell 0.0
is 0.0
struggling 0.0
to 0.00242273433715
recover 0.0
from 0.00326990429734
his 0.00212954401727
achilles 0.0
tendinitis 0.0
problem 0.0
and 0.00547722249951
may 0.0
not 0.000896796816794
until 0.0
march 0.0
claims 0.0
agent 0.0
26 0.0
had 0.00192405609226
hoped 0.0
play 0.00173952300179
against 0.00138879601673
fulham 0.0
last 0.00113980799085
weekend 0.0
be 0.0
ready 0.0
for 0.00258653202354
the 0.0138644171132
champions 0.0
league 0.0
tie 0.0
bayer 0.0
leverkusen 0.0
on 0.00463387288377
22 0.0
february 0.0
but 0.00631203708003
bernie 0.0
mandic 0.0
said 0.0
he 0.000877892911653
scans 0.0
which 0.0
don 0.0
show 0.0
anything 0.0
substantial 0.0
despite 0.0
best 0.0
efforts 0.0
at 0.00148676362578
moment 0.0
simply 0.0
can 0.0
shake 0.0
off 0.0
discomfort 0.0
get 0.0
back 0.00281853685915
park 0.0
continued 0.0
in 0.00304144990594
sydney 0.0
morning 0.0
herald 0.0
bit 0.0
club 0.0
are 0.0
doing 0.0
everything 0.0
they 0.0
him 0.0
right 0.00179925507164
was 0.00447120130632
desperate 0.0
fit 0.0
game 0.0
as 0.000787049392472
part 0.0
of 0.00486399859509
plan 0.0
himself 0.0
match 0.0
has 0.0
played 0.0
since 0.0
december 0.0
19 0.0
misses 0.0
out 0.00321673452249
international 0.0
duty 0.0
this 0.0
week 0.0
with 0.00288231248009
australia 0.0
facing 0.0
south 0.0
africa 0.0
durban 0.0
wednesday 0.0
