liverpool 0.0
winger 0.0
harry 0.0
kewell 0.0
is 0.00391193032081
struggling 0.0
to 0.0204973637567
recover 0.0
from 0.0092215940758
his 0.0
achilles 0.0
tendinitis 0.0
problem 0.0
and 0.00686513093153
may 0.0
not 0.0
until 0.0
march 0.0119607017333
claims 0.0
agent 0.0
26 0.0
had 0.0
hoped 0.0
play 0.0
against 0.0
fulham 0.0
last 0.0
weekend 0.0
be 0.0042842198814
ready 0.0
for 0.00547079047648
the 0.0169998362789
champions 0.0
league 0.0
tie 0.0
bayer 0.0
leverkusen 0.0
on 0.0
22 0.0
february 0.0
but 0.0
bernie 0.0
mandic 0.0
said 0.00395176302878
he 0.0
scans 0.0
which 0.002561094904
don 0.00507415459313
show 0.0
anything 0.0
substantial 0.0
despite 0.0
best 0.0
efforts 0.0
at 0.0
moment 0.0
simply 0.0
can 0.0
shake 0.0
off 0.0
discomfort 0.0
get 0.0
back 0.0
park 0.0
continued 0.0
in 0.00514639216639
sydney 0.0
morning 0.0
herald 0.0
bit 0.0
club 0.0
are 0.00244031217878
doing 0.0
everything 0.0
they 0.0
him 0.0
right 0.0
was 0.00210157034828
desperate 0.0
fit 0.0
game 0.0
as 0.00221959095894
part 0.0
of 0.00342929154423
plan 0.0
himself 0.0
match 0.0
has 0.0
played 0.0
since 0.0
december 0.0
19 0.0
misses 0.0
out 0.0
international 0.0
duty 0.0
this 0.00257054303106
week 0.00442468463038
with 0.00203213253922
australia 0.0
facing 0.0
south 0.0
africa 0.0
durban 0.0
wednesday 0.0
