liverpool 0.0
winger 0.0
harry 0.0
kewell 0.0
is 0.00593161792997
struggling 0.0
to 0.016279964651
recover 0.0
from 0.0
his 0.00130089306691
achilles 0.0
tendinitis 0.0
problem 0.0
and 0.00669183704847
may 0.0
not 0.00109566813547
until 0.0
march 0.0
claims 0.0
agent 0.0
26 0.0
had 0.00117536487177
hoped 0.0
play 0.0
against 0.0
fulham 0.0
last 0.00139256883247
weekend 0.0
be 0.0037120666241
ready 0.0
for 0.00474017190932
the 0.029459050475
champions 0.0
league 0.0
tie 0.0
bayer 0.0
leverkusen 0.0
on 0.00566146842571
22 0.0
february 0.0
but 0.00192794448223
bernie 0.0
mandic 0.0
said 0.00513601357478
he 0.00965314934747
scans 0.0
which 0.0011095316274
don 0.00219825317469
show 0.0
anything 0.0
substantial 0.0
despite 0.0
best 0.0
efforts 0.0
at 0.000908232221186
moment 0.0
simply 0.00286166108235
can 0.00446540647133
shake 0.0
off 0.0
discomfort 0.0
get 0.00175045502169
back 0.0
park 0.0
continued 0.0
in 0.00371591388947
sydney 0.0
morning 0.0
herald 0.0
bit 0.0
club 0.0
are 0.00105720547054
doing 0.0
everything 0.0
they 0.00122960036851
him 0.00199603467118
right 0.0
was 0.00364181548288
desperate 0.0
fit 0.0
game 0.0
as 0.00192316681822
part 0.0
of 0.00742828276678
plan 0.0
himself 0.0
match 0.0
has 0.00704639164262
played 0.0
since 0.0
december 0.0
19 0.0
misses 0.0
out 0.0026200461097
international 0.0
duty 0.0
this 0.00334087439098
week 0.00191688622355
with 0.00264111492293
australia 0.0
facing 0.00624689004378
south 0.0
africa 0.0
durban 0.0
wednesday 0.0
