liverpool 0.0
winger 0.0
harry 0.0
kewell 0.0
is 0.00494401716235
struggling 0.0
to 0.00863506503485
recover 0.0
from 0.00194242209668
his 0.0
achilles 0.0
tendinitis 0.0
problem 0.0
and 0.00144606040002
may 0.0
not 0.00426179556287
until 0.0
march 0.0
claims 0.0
agent 0.0
26 0.0
had 0.00914358031069
hoped 0.0
play 0.00413331719723
against 0.0
fulham 0.0
last 0.0054166434882
weekend 0.0
be 0.00360968539551
ready 0.0
for 0.00307295657576
the 0.0186202578703
champions 0.0
league 0.0
tie 0.0
bayer 0.0
leverkusen 0.0
on 0.0078647448839
22 0.0
february 0.0
but 0.00749908204306
bernie 0.0
mandic 0.0
said 0.00166478631891
he 0.0
scans 0.0
which 0.00215786003693
don 0.0
show 0.0
anything 0.0
substantial 0.0
despite 0.008641444719
best 0.0
efforts 0.0
at 0.0
moment 0.0
simply 0.00556546919109
can 0.0
shake 0.0
off 0.0
discomfort 0.0
get 0.00340435265157
back 0.0
park 0.0
continued 0.0
in 0.00578148248125
sydney 0.0
morning 0.0
herald 0.0
bit 0.0
club 0.0
are 0.00205609410256
doing 0.0
everything 0.0
they 0.0
him 0.0
right 0.0
was 0.0
desperate 0.0
fit 0.0
game 0.0
as 0.0
part 0.0
of 0.00866808703579
plan 0.0
himself 0.0
match 0.0
has 0.0102780713195
played 0.00946897919575
since 0.00719045318288
december 0.0
19 0.0
misses 0.0
out 0.00509556704417
international 0.0
duty 0.0
this 0.0
week 0.0
with 0.0
australia 0.0060231303192
facing 0.0
south 0.0
africa 0.0
durban 0.0
wednesday 0.0
