liverpool 0.0
winger 0.0
harry 0.0
kewell 0.0
is 0.00395007897424
struggling 0.0
to 0.0160978622584
recover 0.0
from 0.0
his 0.00202139409989
achilles 0.0
tendinitis 0.0
problem 0.0
and 0.0103981182399
may 0.002922979811
not 0.00340501023613
until 0.00371878588322
march 0.0
claims 0.0
agent 0.0
26 0.0
had 0.0
hoped 0.0
play 0.00660472195727
against 0.00263653068583
fulham 0.0
last 0.00432768917483
weekend 0.00460360462592
be 0.0014419996853
ready 0.0
for 0.00613793437607
the 0.0286093609139
champions 0.0
league 0.0
tie 0.00546620180756
bayer 0.0
leverkusen 0.0
on 0.00125672554862
22 0.0
february 0.0
but 0.0074893465505
bernie 0.0
mandic 0.0
said 0.00266020008385
he 0.00499985218685
scans 0.0
which 0.0
don 0.0
show 0.0
anything 0.0
substantial 0.0
despite 0.0
best 0.0
efforts 0.0
at 0.00564503047924
moment 0.0
simply 0.0
can 0.0
shake 0.0
off 0.0
discomfort 0.0
get 0.0108797857194
back 0.0
park 0.0
continued 0.0
in 0.00346438609119
sydney 0.0
morning 0.0
herald 0.0
bit 0.00899315159196
club 0.0165285819475
are 0.00328547972909
doing 0.0
everything 0.0
they 0.00764246345327
him 0.0
right 0.00341575807452
was 0.00141470973234
desperate 0.0
fit 0.0
game 0.00660472195727
as 0.0029883148418
part 0.0
of 0.0115424452163
plan 0.0
himself 0.0
match 0.0
has 0.0
played 0.00378267453372
since 0.0
december 0.0
19 0.0
misses 0.0
out 0.0061067422246
international 0.0
duty 0.0
this 0.0
week 0.0
with 0.0013679664271
australia 0.0
facing 0.0
south 0.0
africa 0.0
durban 0.0
wednesday 0.0
