liverpool 0.0
winger 0.0
harry 0.0
kewell 0.0
is 0.00067357013502
struggling 0.0
to 0.0117643643427
recover 0.0
from 0.0
his 0.00103406846218
achilles 0.0
tendinitis 0.0
problem 0.0
and 0.00295515691057
may 0.00149528547565
not 0.000870936968394
until 0.0
march 0.0
claims 0.0
agent 0.0
26 0.0
had 0.0
hoped 0.0
play 0.0
against 0.0
fulham 0.0
last 0.00110694072226
weekend 0.0
be 0.00221301684385
ready 0.0
for 0.00565188146676
the 0.020489647706
champions 0.0
league 0.0
tie 0.0
bayer 0.0
leverkusen 0.0
on 0.000642893068457
22 0.0
february 0.0
but 0.000766253059769
bernie 0.0
mandic 0.0
said 0.00340214336475
he 0.00255773451711
scans 0.0
which 0.00176391387251
don 0.0
show 0.0
anything 0.0
substantial 0.0
despite 0.0
best 0.0
efforts 0.0
at 0.000721945807962
moment 0.0
simply 0.0
can 0.0
shake 0.0
off 0.0
discomfort 0.0
get 0.00139142130774
back 0.0
park 0.0
continued 0.0
in 0.00649824402161
sydney 0.0
morning 0.0
herald 0.0
bit 0.0
club 0.0
are 0.00252109000256
doing 0.0
everything 0.0
they 0.0
him 0.0
right 0.0
was 0.000723711777645
desperate 0.0
fit 0.0
game 0.0
as 0.00152870839642
part 0.0
of 0.00944748266576
plan 0.0
himself 0.0
match 0.0
has 0.00280055738444
played 0.0
since 0.0
december 0.00193507265022
19 0.0
misses 0.0
out 0.0
international 0.0
duty 0.0
this 0.00177042112156
week 0.0
with 0.00489859774382
australia 0.0
facing 0.0
south 0.0
africa 0.0
durban 0.0
wednesday 0.0
