liverpool 0.0
winger 0.0
harry 0.0
kewell 0.0
is 0.00333168458536
struggling 0.00344291444068
to 0.0167296698941
recover 0.0
from 0.000981722586909
his 0.0
achilles 0.0
tendinitis 0.0
problem 0.0050594331613
and 0.00657770081611
may 0.0
not 0.00107698037723
until 0.00235245073913
march 0.0
claims 0.0
agent 0.0
26 0.0
had 0.00924254242324
hoped 0.0
play 0.0
against 0.0
fulham 0.0
last 0.0
weekend 0.0
be 0.00729750694343
ready 0.0
for 0.00543587724552
the 0.016650042566
champions 0.0
league 0.0
tie 0.0
bayer 0.0
leverkusen 0.0
on 0.0
22 0.0
february 0.0
but 0.00568518415899
bernie 0.0
mandic 0.0
said 0.00841402254659
he 0.00421711327006
scans 0.0
which 0.00109060741291
don 0.0
show 0.0
anything 0.0
substantial 0.0
despite 0.0
best 0.0
efforts 0.0
at 0.0
moment 0.0
simply 0.0
can 0.00146308144176
shake 0.0
off 0.00376838347548
discomfort 0.0
get 0.0
back 0.0050772518919
park 0.0
continued 0.00302732371683
in 0.00730507023596
sydney 0.0
morning 0.0
herald 0.0
bit 0.0
club 0.0
are 0.00103917373301
doing 0.0
everything 0.0
they 0.00362588477072
him 0.0
right 0.0
was 0.00536955080503
desperate 0.0
fit 0.0
game 0.0
as 0.0
part 0.0
of 0.00511110998137
plan 0.00269334878987
himself 0.0
match 0.0
has 0.000865776014167
played 0.0
since 0.0
december 0.0
19 0.0
misses 0.0
out 0.00128767925079
international 0.0
duty 0.0
this 0.00547315384622
week 0.00188419173774
with 0.00346142395243
australia 0.0
facing 0.0
south 0.0
africa 0.0
durban 0.0
wednesday 0.0
