liverpool 0.0
winger 0.0
harry 0.0
kewell 0.0
is 0.0
struggling 0.0
to 0.00746545591908
recover 0.0
from 0.0
his 0.00437467609631
achilles 0.0
tendinitis 0.0
problem 0.0
and 0.00375057980308
may 0.0
not 0.00368454050807
until 0.0
march 0.0
claims 0.0
agent 0.0
26 0.0
had 0.0
hoped 0.0
play 0.0
against 0.00570594708329
fulham 0.0
last 0.00234148283929
weekend 0.0
be 0.00156037893711
ready 0.0
for 0.00265672832399
the 0.027243050934
champions 0.0
league 0.0
tie 0.0
bayer 0.0
leverkusen 0.0
on 0.00135989494019
22 0.0
february 0.0
but 0.0
bernie 0.0
mandic 0.0
said 0.00287858605079
he 0.00901718185815
scans 0.0
which 0.00186558050463
don 0.0
show 0.0
anything 0.0
substantial 0.0
despite 0.0
best 0.0
efforts 0.0
at 0.0
moment 0.0
simply 0.0
can 0.0
shake 0.0
off 0.0032230767289
discomfort 0.0
get 0.0
back 0.0
park 0.0
continued 0.0
in 0.00749758150689
sydney 0.0
morning 0.0
herald 0.0
bit 0.0
club 0.0
are 0.00533279592899
doing 0.0
everything 0.0
they 0.00206746560379
him 0.00335615792931
right 0.0
was 0.00153084864787
desperate 0.0
fit 0.0
game 0.0
as 0.00323363700017
part 0.00655411131872
of 0.0124900085499
plan 0.0
himself 0.0
match 0.0
has 0.00592394599299
played 0.0
since 0.00310825749767
december 0.0
19 0.0
misses 0.0
out 0.0
international 0.0
duty 0.0
this 0.0
week 0.0032230767289
with 0.0014802680065
australia 0.0
facing 0.0
south 0.0
africa 0.0
durban 0.0
wednesday 0.0
