liverpool 0.0
winger 0.0
harry 0.0
kewell 0.0
is 0.00260310268702
struggling 0.0
to 0.00454649736373
recover 0.0
from 0.00204543148342
his 0.00266419808175
achilles 0.0
tendinitis 0.0
problem 0.0
and 0.0106592291754
may 0.00192624417126
not 0.00224390229988
until 0.0
march 0.0
claims 0.0
agent 0.0
26 0.0
had 0.00120355966081
hoped 0.0
play 0.0
against 0.0
fulham 0.0
last 0.0
weekend 0.0
be 0.00380111210937
ready 0.0
for 0.00404489975298
the 0.0196077164393
champions 0.0
league 0.0
tie 0.0
bayer 0.0
leverkusen 0.0
on 0.00248454702333
22 0.0
february 0.0
but 0.00296128835755
bernie 0.0
mandic 0.0
said 0.00525921686487
he 0.00439320454003
scans 0.0
which 0.00340844160279
don 0.0
show 0.00228856585997
anything 0.0
substantial 0.0
despite 0.0
best 0.00413225551195
efforts 0.0
at 0.0055801140071
moment 0.0
simply 0.0
can 0.00152417438678
shake 0.0
off 0.0
discomfort 0.0
get 0.0
back 0.0
park 0.0
continued 0.0
in 0.00380505166339
sydney 0.0
morning 0.00339715098931
herald 0.0
bit 0.0
club 0.0
are 0.00108256583814
doing 0.0
everything 0.0
they 0.00251819232988
him 0.0
right 0.0
was 0.00279688183171
desperate 0.0
fit 0.0
game 0.0
as 0.00393859993439
part 0.0
of 0.00988841525939
plan 0.0
himself 0.0
match 0.0
has 0.000901927662957
played 0.0
since 0.0
december 0.0
19 0.0
misses 0.0
out 0.0
international 0.0
duty 0.00730179830211
this 0.0
week 0.00196286871289
with 0.00180298019628
australia 0.0
facing 0.0
south 0.0
africa 0.0
durban 0.0
wednesday 0.00528823504344
