liverpool 0.0
winger 0.0
harry 0.0
kewell 0.0
is 0.00139249828075
struggling 0.0
to 0.0139845390331
recover 0.0
from 0.00164126822863
his 0.00213777078421
achilles 0.0
tendinitis 0.0
problem 0.0
and 0.00427651924032
may 0.0
not 0.000900261285407
until 0.00196644281645
march 0.0
claims 0.0
agent 0.0
26 0.0
had 0.00289723354005
hoped 0.0
play 0.0
against 0.0
fulham 0.0
last 0.00114421125025
weekend 0.0
be 0.0038125479814
ready 0.0
for 0.00324565525972
the 0.02057440161
champions 0.0
league 0.0
tie 0.0
bayer 0.0
leverkusen 0.0
on 0.00730993099743
22 0.0
february 0.0
but 0.00554436879703
bernie 0.0
mandic 0.0
said 0.0
he 0.00264385305443
scans 0.0
which 0.00364660917572
don 0.0
show 0.0
anything 0.0
substantial 0.0
despite 0.0
best 0.0
efforts 0.00264509343682
at 0.00149250722993
moment 0.0
simply 0.0
can 0.0
shake 0.0
off 0.0
discomfort 0.0
get 0.00431481076303
back 0.0042441379724
park 0.0
continued 0.0
in 0.00488511921639
sydney 0.00300078046343
morning 0.0
herald 0.0
bit 0.00237772742241
club 0.0
are 0.0
doing 0.0
everything 0.0
they 0.0
him 0.0
right 0.0
was 0.0104731066241
desperate 0.0
fit 0.0
game 0.0
as 0.00158017977869
part 0.0016013971532
of 0.00549313761893
plan 0.0
himself 0.0
match 0.0
has 0.000723712932813
played 0.0
since 0.0
december 0.0
19 0.0
misses 0.0
out 0.00107638709304
international 0.00177948954461
duty 0.0
this 0.000915015467505
week 0.0047250578886
with 0.00217008548342
australia 0.00254465094036
facing 0.0
south 0.0
africa 0.0
durban 0.0
wednesday 0.00212165800534
