liverpool 0.0
winger 0.0
harry 0.0
kewell 0.0
is 0.00106508003611
struggling 0.0
to 0.00186023532628
recover 0.0
from 0.00125535668401
his 0.0
achilles 0.0
tendinitis 0.0
problem 0.0
and 0.00747652775058
may 0.0
not 0.0
until 0.0
march 0.0
claims 0.0
agent 0.00965272947924
26 0.0
had 0.00147733784001
hoped 0.0
play 0.0
against 0.0
fulham 0.0
last 0.00175034551436
weekend 0.0
be 0.00233288258828
ready 0.0
for 0.0029790048597
the 0.0148110500979
champions 0.0
league 0.0
tie 0.0
bayer 0.0
leverkusen 0.0
on 0.0111822925433
22 0.0
february 0.0
but 0.0
bernie 0.0
mandic 0.0
said 0.00215185014263
he 0.0
scans 0.0
which 0.0
don 0.0
show 0.0
anything 0.00358118467966
substantial 0.0
despite 0.0
best 0.0
efforts 0.0
at 0.00570786936086
moment 0.0
simply 0.0
can 0.0
shake 0.0
off 0.0
discomfort 0.0
get 0.0
back 0.0
park 0.0
continued 0.0
in 0.0140118026266
sydney 0.0
morning 0.00416991352251
herald 0.0
bit 0.0
club 0.0
are 0.0
doing 0.0
everything 0.0
they 0.0
him 0.0
right 0.0
was 0.00801056413185
desperate 0.0
fit 0.0
game 0.0
as 0.00483452786698
part 0.0
of 0.00653572217182
plan 0.0
himself 0.0
match 0.0
has 0.00110709249307
played 0.00611965151368
since 0.0
december 0.0
19 0.0
misses 0.0
out 0.00164659220019
international 0.0
duty 0.0
this 0.00139973559845
week 0.0
with 0.00221311078752
australia 0.0
facing 0.0
south 0.0
africa 0.0
durban 0.0
wednesday 0.0
