liverpool 0.0
winger 0.0
harry 0.0
kewell 0.0
is 0.00977429930035
struggling 0.0
to 0.00853574202487
recover 0.0
from 0.0
his 0.00428730182688
achilles 0.0
tendinitis 0.0
problem 0.0
and 0.013477458305
may 0.0
not 0.0036109501375
until 0.0
march 0.0
claims 0.0
agent 0.0
26 0.0
had 0.00193680175955
hoped 0.0
play 0.00350209250573
against 0.0
fulham 0.0
last 0.0
weekend 0.0048820372346
be 0.0
ready 0.0
for 0.00130183308961
the 0.0303396960836
champions 0.0
league 0.0
tie 0.0
bayer 0.0
leverkusen 0.0
on 0.00399820233528
22 0.0
february 0.0
but 0.0
bernie 0.0
mandic 0.0
said 0.00705273199815
he 0.00883708402695
scans 0.0
which 0.00365663949953
don 0.0
show 0.0
anything 0.0
substantial 0.0
despite 0.0
best 0.0
efforts 0.0
at 0.00299322500839
moment 0.0
simply 0.0
can 0.00245274391483
shake 0.0
off 0.0
discomfort 0.0
get 0.0
back 0.0
park 0.0
continued 0.0
in 0.0122463904314
sydney 0.0
morning 0.0
herald 0.0
bit 0.0
club 0.0
are 0.001742095127
doing 0.0
everything 0.0
they 0.0
him 0.0
right 0.00362234802056
was 0.00300054681088
desperate 0.0
fit 0.0
game 0.0
as 0.0
part 0.0
of 0.00856838419722
plan 0.0
himself 0.0
match 0.0
has 0.00290281427916
played 0.0
since 0.0
december 0.0
19 0.0
misses 0.0
out 0.00215869558351
international 0.0
duty 0.0
this 0.00367012919666
week 0.0
with 0.00145070299808
australia 0.0
facing 0.0
south 0.0
africa 0.0
durban 0.0
wednesday 0.0
