liverpool 0.0
winger 0.0
harry 0.0
kewell 0.0
is 0.0
struggling 0.0
to 0.00967149408681
recover 0.0
from 0.0
his 0.00728664493601
achilles 0.0
tendinitis 0.0
problem 0.0
and 0.00555299896801
may 0.00351221565997
not 0.00409141733675
until 0.0
march 0.0
claims 0.0
agent 0.0
26 0.0
had 0.00219450947677
hoped 0.0061095461884
play 0.0
against 0.0
fulham 0.0
last 0.0
weekend 0.0
be 0.00346537725462
ready 0.0
for 0.00147505290008
the 0.0192509223723
champions 0.0
league 0.0
tie 0.0
bayer 0.0
leverkusen 0.0
on 0.00302013112477
22 0.0
february 0.0
but 0.00719928345414
bernie 0.0
mandic 0.0
said 0.00958938856642
he 0.0100129321695
scans 0.0
which 0.0
don 0.00820866360749
show 0.0
anything 0.0
substantial 0.0
despite 0.0
best 0.0
efforts 0.0
at 0.00169574934931
moment 0.0
simply 0.00534297265077
can 0.00277910206279
shake 0.0
off 0.0
discomfort 0.0
get 0.0
back 0.00321472220738
park 0.0
continued 0.0
in 0.00416276261501
sydney 0.0
morning 0.0
herald 0.0
bit 0.0
club 0.0
are 0.0
doing 0.0
everything 0.0
they 0.0
him 0.0149070883675
right 0.0
was 0.00509969209252
desperate 0.0
fit 0.0
game 0.0
as 0.00718144281723
part 0.0
of 0.00554770261369
plan 0.0
himself 0.0
match 0.0
has 0.0
played 0.0
since 0.0
december 0.00454521399153
19 0.0
misses 0.0
out 0.00244592813493
international 0.0
duty 0.0
this 0.0
week 0.0
with 0.0
australia 0.0
facing 0.0
south 0.0
africa 0.0
durban 0.0
wednesday 0.00482114941873
