liverpool 0.0
winger 0.0
harry 0.0
kewell 0.0
is 0.00166580300139
struggling 0.0
to 0.00509151856978
recover 0.0
from 0.00196339886313
his 0.00127867482418
achilles 0.0
tendinitis 0.0
problem 0.0
and 0.00877006089538
may 0.0
not 0.0
until 0.0
march 0.00254659096815
claims 0.0
agent 0.0
26 0.0
had 0.0034658716592
hoped 0.0
play 0.0
against 0.00500337674577
fulham 0.0
last 0.00410635451669
weekend 0.0
be 0.000912166852649
ready 0.0
for 0.00310614230429
the 0.0166496498507
champions 0.0
league 0.0
tie 0.0
bayer 0.0
leverkusen 0.0
on 0.000794967849172
22 0.0
february 0.0
but 0.0
bernie 0.0
mandic 0.0
said 0.00252414722691
he 0.0
scans 0.0
which 0.0
don 0.0
show 0.0
anything 0.0
substantial 0.0
despite 0.0
best 0.0
efforts 0.0
at 0.000892720320584
moment 0.0
simply 0.0
can 0.0
shake 0.0
off 0.0
discomfort 0.0
get 0.0
back 0.00169237737919
park 0.0
continued 0.0
in 0.00730489793533
sydney 0.0
morning 0.0
herald 0.0
bit 0.0
club 0.0
are 0.0010391492226
doing 0.0
everything 0.0
they 0.0
him 0.0
right 0.0
was 0.00268471207821
desperate 0.0
fit 0.0
game 0.0
as 0.0
part 0.00574710695395
of 0.0124124028977
plan 0.0
himself 0.0
match 0.0
has 0.00173151118718
played 0.0
since 0.0
december 0.0
19 0.0
misses 0.0
out 0.00128764887902
international 0.0
duty 0.0
this 0.0
week 0.0
with 0.00432667788718
australia 0.0
facing 0.0
south 0.0
africa 0.0
durban 0.0
wednesday 0.0
