liverpool 0.0
winger 0.0
harry 0.0
kewell 0.0
is 0.0047477130413
struggling 0.0
to 0.0176209386529
recover 0.0
from 0.0
his 0.0
achilles 0.0
tendinitis 0.0
problem 0.0
and 0.00833186406223
may 0.0
not 0.00153471724324
until 0.00335228643859
march 0.0
claims 0.0
agent 0.0
26 0.0
had 0.00164634954455
hoped 0.0
play 0.0
against 0.0023766913021
fulham 0.0
last 0.0
weekend 0.0
be 0.00779931322953
ready 0.0
for 0.0
the 0.0278529922587
champions 0.0
league 0.0
tie 0.0
bayer 0.0
leverkusen 0.0
on 0.00339861246059
22 0.0
february 0.0
but 0.00135024901479
bernie 0.0
mandic 0.0
said 0.00599506999398
he 0.00150236638222
scans 0.0
which 0.00155413602475
don 0.0
show 0.0
anything 0.0
substantial 0.0
despite 0.00311187480046
best 0.0
efforts 0.0
at 0.0
moment 0.0
simply 0.0
can 0.0
shake 0.0
off 0.00537001715281
discomfort 0.0
get 0.0
back 0.00241172640082
park 0.0
continued 0.0
in 0.00104098621398
sydney 0.0
morning 0.0
herald 0.0
bit 0.0
club 0.0
are 0.00444252619777
doing 0.0
everything 0.0
they 0.0137785435335
him 0.0
right 0.0
was 0.00255057021253
desperate 0.0
fit 0.0
game 0.0
as 0.0
part 0.0
of 0.0104048965931
plan 0.0
himself 0.0
match 0.0
has 0.00493498825353
played 0.0
since 0.0
december 0.0
19 0.0
misses 0.0
out 0.0
international 0.0
duty 0.0
this 0.00311973876602
week 0.0026850085764
with 0.0
australia 0.0
facing 0.0
south 0.0
africa 0.0
durban 0.0
wednesday 0.0
