liverpool 0.0
winger 0.0
harry 0.0
kewell 0.0
is 0.00752896970578
struggling 0.0
to 0.00657493096403
recover 0.0
from 0.0
his 0.0
achilles 0.0
tendinitis 0.0
problem 0.0
and 0.0122689834397
may 0.0
not 0.00417217644338
until 0.0
march 0.0
claims 0.0
agent 0.0
26 0.0
had 0.0
hoped 0.0
play 0.0188831989901
against 0.00430740603085
fulham 0.0
last 0.0
weekend 0.00376054684968
be 0.00235585277817
ready 0.0
for 0.00100277898113
the 0.0308485725978
champions 0.0
league 0.0
tie 0.0
bayer 0.0
leverkusen 0.0
on 0.00307974447425
22 0.0
february 0.0
but 0.00244712922722
bernie 0.0
mandic 0.0
said 0.00434607567666
he 0.0
scans 0.0
which 0.00140832233447
don 0.0
show 0.0028368141134
anything 0.0
substantial 0.0
despite 0.0
best 0.0
efforts 0.0
at 0.00115281411579
moment 0.0
simply 0.0
can 0.0
shake 0.0
off 0.0
discomfort 0.0
get 0.0
back 0.0
park 0.0
continued 0.0
in 0.00188663554756
sydney 0.0
morning 0.0
herald 0.0
bit 0.0
club 0.0
are 0.00134190503408
doing 0.0
everything 0.0
they 0.0
him 0.0
right 0.0
was 0.0011556340432
desperate 0.0
fit 0.0
game 0.0
as 0.00244106496481
part 0.0
of 0.0066000746515
plan 0.0
himself 0.0
match 0.0
has 0.00111799322374
played 0.0
since 0.0
december 0.0
19 0.0
misses 0.0
out 0.00166280499019
international 0.0
duty 0.0
this 0.00282703554382
week 0.0
with 0.00111745083601
australia 0.0
facing 0.0
south 0.0
africa 0.00382700768912
durban 0.0
wednesday 0.0
