liverpool 0.0
winger 0.0
harry 0.0
kewell 0.0
is 0.0
struggling 0.0
to 0.0100518000518
recover 0.0
from 0.00226111076794
his 0.0
achilles 0.0
tendinitis 0.0
problem 0.0
and 0.00673324865311
may 0.0
not 0.0
until 0.0
march 0.0
claims 0.0
agent 0.0
26 0.0
had 0.00266093656128
hoped 0.0
play 0.0
against 0.00384136212238
fulham 0.0
last 0.0
weekend 0.0
be 0.0
ready 0.0
for 0.0
the 0.0116712832004
champions 0.0
league 0.0
tie 0.0
bayer 0.0
leverkusen 0.0
on 0.00183101905342
22 0.0
february 0.0
but 0.00218235974382
bernie 0.0
mandic 0.0
said 0.0
he 0.0
scans 0.0
which 0.0
don 0.0
show 0.0
anything 0.0
substantial 0.0
despite 0.0
best 0.0
efforts 0.0
at 0.00205616858351
moment 0.0
simply 0.0
can 0.0
shake 0.0
off 0.0
discomfort 0.0
get 0.0
back 0.0
park 0.0
continued 0.0
in 0.00673003685209
sydney 0.0
morning 0.0
herald 0.0
bit 0.0
club 0.0
are 0.0
doing 0.0
everything 0.0
they 0.0
him 0.0
right 0.0
was 0.0
desperate 0.0
fit 0.0
game 0.00481146092701
as 0.00217695161007
part 0.0
of 0.0
plan 0.0
himself 0.0
match 0.0
has 0.0
played 0.0
since 0.0
december 0.0
19 0.0
misses 0.0
out 0.0
international 0.0
duty 0.0
this 0.0
week 0.0
with 0.00797237740641
australia 0.0
facing 0.0
south 0.0
africa 0.0
durban 0.0
wednesday 0.0
