liverpool 0.0
winger 0.0
harry 0.0
kewell 0.0
is 0.00474691171265
struggling 0.0
to 0.00769860636022
recover 0.0
from 0.000799278276195
his 0.0
achilles 0.0
tendinitis 0.0
problem 0.0
and 0.00714039239425
may 0.00150540864675
not 0.00175366652634
until 0.0
march 0.0
claims 0.0
agent 0.0
26 0.0
had 0.00188122476609
hoped 0.0
play 0.0
against 0.0
fulham 0.0
last 0.00445773910563
weekend 0.0
be 0.000742666366248
ready 0.0
for 0.00316119168806
the 0.0165026910661
champions 0.0
league 0.0
tie 0.0
bayer 0.0
leverkusen 0.0
on 0.00323622746274
22 0.0
february 0.0
but 0.00154288127659
bernie 0.0
mandic 0.0
said 0.00685035215302
he 0.0
scans 0.0
which 0.00177585567373
don 0.0
show 0.0
anything 0.0
substantial 0.0
despite 0.00177791404109
best 0.00161473121401
efforts 0.0
at 0.00218050027132
moment 0.0
simply 0.0
can 0.0
shake 0.0
off 0.0
discomfort 0.0
get 0.0
back 0.00137789676842
park 0.0
continued 0.0
in 0.00832648411369
sydney 0.0
morning 0.00265495960996
herald 0.0
bit 0.0
club 0.0
are 0.00169210528731
doing 0.0
everything 0.0
they 0.0
him 0.0
right 0.0
was 0.00145722269835
desperate 0.0
fit 0.0
game 0.0
as 0.00153905784266
part 0.00311944613023
of 0.00832251234681
plan 0.0
himself 0.0
match 0.0
has 0.000704879330884
played 0.0
since 0.00147938314615
december 0.0
19 0.0
misses 0.0
out 0.0
international 0.0
duty 0.0
this 0.00267361046586
week 0.0
with 0.0
australia 0.0
facing 0.0
south 0.0
africa 0.0
durban 0.0
wednesday 0.0
