liverpool 0.0
winger 0.0
harry 0.0
kewell 0.0
is 0.0124331626795
struggling 0.0
to 0.0217153712863
recover 0.0
from 0.00732717417658
his 0.00477186440713
achilles 0.0
tendinitis 0.0
problem 0.0
and 0.0054548063672
may 0.0
not 0.00401906959968
until 0.0
march 0.0
claims 0.0
agent 0.0
26 0.0118846916821
had 0.0
hoped 0.0
play 0.0
against 0.0
fulham 0.0
last 0.00510814440876
weekend 0.0
be 0.00340409966257
ready 0.0
for 0.00289793965304
the 0.0189105120559
champions 0.0
league 0.0
tie 0.0
bayer 0.0
leverkusen 0.0
on 0.00593345346689
22 0.0
february 0.0
but 0.00707197992493
bernie 0.0
mandic 0.0
said 0.00627988084889
he 0.0078687003498
scans 0.0
which 0.0
don 0.0
show 0.0
anything 0.0
substantial 0.0
despite 0.0
best 0.0
efforts 0.0
at 0.00333152748671
moment 0.0
simply 0.0
can 0.00545991948298
shake 0.0
off 0.0
discomfort 0.0
get 0.0
back 0.0
park 0.0
continued 0.0
in 0.010904408782
sydney 0.0
morning 0.0
herald 0.0
bit 0.0
club 0.0
are 0.00775596593481
doing 0.0
everything 0.0
they 0.0
him 0.0
right 0.0
was 0.0
desperate 0.0
fit 0.0
game 0.0
as 0.0
part 0.0
of 0.00272480183364
plan 0.0
himself 0.0
match 0.0
has 0.00969269486864
played 0.0
since 0.00678092868813
december 0.0
19 0.0
misses 0.0
out 0.0
international 0.0
duty 0.0
this 0.004084937238
week 0.0
with 0.00322933083855
australia 0.0
facing 0.0
south 0.0
africa 0.0
durban 0.0
wednesday 0.0
