liverpool 0.0
winger 0.0
harry 0.0
kewell 0.0
is 0.00301989789917
struggling 0.0
to 0.00923030287475
recover 0.0
from 0.00533910441127
his 0.0
achilles 0.0
tendinitis 0.0
problem 0.0
and 0.00264984199328
may 0.0
not 0.0
until 0.0
march 0.0
claims 0.0
agent 0.00684226923971
26 0.0
had 0.00628320307606
hoped 0.0
play 0.0
against 0.0
fulham 0.0
last 0.0
weekend 0.0
be 0.0016536473759
ready 0.0
for 0.00422329318568
the 0.00787403133312
champions 0.0
league 0.0
tie 0.0
bayer 0.0
leverkusen 0.0
on 0.00288235972156
22 0.00535885293484
february 0.0
but 0.00343543438927
bernie 0.0
mandic 0.0
said 0.00305064760616
he 0.00764493227286
scans 0.0
which 0.0
don 0.00391710167085
show 0.0
anything 0.0
substantial 0.0
despite 0.0
best 0.0
efforts 0.0
at 0.0
moment 0.0
simply 0.0
can 0.00530465169686
shake 0.0
off 0.0
discomfort 0.0
get 0.0
back 0.0
park 0.0
continued 0.0
in 0.00397286700352
sydney 0.0
morning 0.0
herald 0.0
bit 0.0
club 0.00473863594484
are 0.00565155282763
doing 0.0
everything 0.0
they 0.00438208820841
him 0.00711353072119
right 0.0
was 0.00324470394884
desperate 0.0
fit 0.0
game 0.0
as 0.00171346049757
part 0.0
of 0.00264731461984
plan 0.0
himself 0.0
match 0.0
has 0.00784754708721
played 0.0
since 0.0
december 0.0
19 0.0
misses 0.0
out 0.0
international 0.0
duty 0.0
this 0.00198438542168
week 0.0
with 0.00627499191731
australia 0.0
facing 0.0
south 0.0
africa 0.0
durban 0.0
wednesday 0.0
