liverpool 0.0
winger 0.0
harry 0.0
kewell 0.0
is 0.00303067103666
struggling 0.0
to 0.00661659351127
recover 0.0
from 0.000893025175087
his 0.0
achilles 0.0
tendinitis 0.0
problem 0.00460231968273
and 0.0113020037457
may 0.00168197717914
not 0.0
until 0.0
march 0.0
claims 0.0
agent 0.0
26 0.0
had 0.0
hoped 0.0
play 0.0
against 0.0
fulham 0.0
last 0.00124514620373
weekend 0.0
be 0.000829773286104
ready 0.0
for 0.00423835929707
the 0.00790212103183
champions 0.0
league 0.0
tie 0.0
bayer 0.0
leverkusen 0.0
on 0.00289264220746
22 0.0
february 0.0
but 0.00258576742895
bernie 0.0
mandic 0.0
said 0.00153076521984
he 0.0
scans 0.0
which 0.00396828957122
don 0.0
show 0.0
anything 0.0
substantial 0.0
despite 0.0
best 0.0
efforts 0.0
at 0.000812083306723
moment 0.0
simply 0.0
can 0.00798536314505
shake 0.0
off 0.0
discomfort 0.0
get 0.0
back 0.0
park 0.0
continued 0.0
in 0.000664506624731
sydney 0.0
morning 0.0
herald 0.0
bit 0.0
club 0.0
are 0.0103981424994
doing 0.0
everything 0.0
they 0.00659658120409
him 0.0
right 0.0
was 0.0
desperate 0.0
fit 0.0
game 0.0
as 0.00859786535143
part 0.0
of 0.00664189652361
plan 0.0
himself 0.0
match 0.0
has 0.000787554230643
played 0.0
since 0.0
december 0.0
19 0.0
misses 0.0
out 0.00234267807165
international 0.0
duty 0.0
this 0.00099573224391
week 0.0
with 0.00236151646024
australia 0.0
facing 0.0
south 0.0
africa 0.0
durban 0.0
wednesday 0.0
