liverpool 0.0
winger 0.0
harry 0.0
kewell 0.0
is 0.00166898788687
struggling 0.0
to 0.00583000360728
recover 0.0
from 0.00295072909305
his 0.00128111955076
achilles 0.0
tendinitis 0.0
problem 0.0
and 0.00659012142611
may 0.0
not 0.0
until 0.0
march 0.00255145985156
claims 0.0
agent 0.0
26 0.0
had 0.00115749937854
hoped 0.0
play 0.0
against 0.00668392374942
fulham 0.0
last 0.00548560739522
weekend 0.00291767344654
be 0.00274173253369
ready 0.0
for 0.00155604050312
the 0.00797810041377
champions 0.0
league 0.0
tie 0.0
bayer 0.0
leverkusen 0.0
on 0.00318595106291
22 0.00296164338476
february 0.0
but 0.000949319906376
bernie 0.0
mandic 0.0
said 0.0016859821331
he 0.00105626910125
scans 0.0
which 0.0
don 0.0
show 0.0
anything 0.0
substantial 0.0
despite 0.0
best 0.0
efforts 0.0
at 0.000894427132245
moment 0.0
simply 0.0
can 0.00293168832911
shake 0.0
off 0.0
discomfort 0.0
get 0.0
back 0.0
park 0.0
continued 0.0
in 0.00439131859844
sydney 0.0
morning 0.0
herald 0.0
bit 0.0
club 0.0
are 0.0010411359949
doing 0.0
everything 0.0
they 0.0
him 0.0
right 0.0
was 0.00268984503842
desperate 0.0
fit 0.0
game 0.00627891297442
as 0.0
part 0.0
of 0.00073153732026
plan 0.0
himself 0.0
match 0.00253449342045
has 0.00260223255238
played 0.0
since 0.00182050024341
december 0.0
19 0.0
misses 0.0
out 0.0
international 0.0
duty 0.0
this 0.00109669775013
week 0.00188774963911
with 0.000866990031603
australia 0.0
facing 0.0
south 0.0
africa 0.0
durban 0.0
wednesday 0.0
