liverpool 0.0
winger 0.0
harry 0.0141311663366
kewell 0.0
is 0.00221818408655
struggling 0.0
to 0.00871697391812
recover 0.0
from 0.00130723144037
his 0.00340536803512
achilles 0.0
tendinitis 0.0
problem 0.0
and 0.00778547823483
may 0.0
not 0.00573629507378
until 0.0
march 0.0
claims 0.0
agent 0.0
26 0.0
had 0.00153838546216
hoped 0.0
play 0.0
against 0.0
fulham 0.0
last 0.0
weekend 0.0
be 0.00364392547343
ready 0.0
for 0.00310210545193
the 0.0115673122624
champions 0.0
league 0.00384981907824
tie 0.0
bayer 0.0
leverkusen 0.0
on 0.00529289787233
22 0.0
february 0.0
but 0.00378510771577
bernie 0.0
mandic 0.0
said 0.00448154089945
he 0.0126345996694
scans 0.0
which 0.0
don 0.00287720078022
show 0.0
anything 0.0
substantial 0.0
despite 0.0
best 0.0
efforts 0.0
at 0.0047549872517
moment 0.0
simply 0.0
can 0.0
shake 0.0
off 0.0
discomfort 0.0
get 0.0
back 0.0
park 0.00434222570338
continued 0.0
in 0.00778176451383
sydney 0.0
morning 0.0
herald 0.0
bit 0.0
club 0.00348063649691
are 0.00276746322008
doing 0.0
everything 0.0
they 0.0
him 0.0
right 0.0
was 0.00357496390863
desperate 0.00512391595621
fit 0.0
game 0.00278168282911
as 0.00251715186111
part 0.0
of 0.00388902629021
plan 0.0
himself 0.0
match 0.0
has 0.0023056811387
played 0.0
since 0.0
december 0.0
19 0.0
misses 0.0
out 0.0
international 0.0
duty 0.0
this 0.00145757648467
week 0.0
with 0.00230456255127
australia 0.0
facing 0.0
south 0.00343778754539
africa 0.0
durban 0.0
wednesday 0.00337970113831
