liverpool 0.0
winger 0.0
harry 0.0
kewell 0.0
is 0.00632128214452
struggling 0.0
to 0.0145534559361
recover 0.0
from 0.00270930174178
his 0.0
achilles 0.0
tendinitis 0.0
problem 0.00174534171607
and 0.00453819045106
may 0.0
not 0.0066874246496
until 0.00162303968808
march 0.0
claims 0.0
agent 0.0
26 0.00219724651679
had 0.0
hoped 0.0
play 0.0
against 0.0
fulham 0.0
last 0.0
weekend 0.0
be 0.00314675648576
ready 0.0
for 0.00428617786903
the 0.0169814601738
champions 0.0
league 0.0
tie 0.0
bayer 0.0
leverkusen 0.0
on 0.000548489616365
22 0.0
february 0.0
but 0.00130747045632
bernie 0.0
mandic 0.0
said 0.00522462089096
he 0.0021821526672
scans 0.0
which 0.000752448961345
don 0.0
show 0.0
anything 0.0
substantial 0.0
despite 0.00150664222703
best 0.0
efforts 0.0
at 0.000615934124467
moment 0.0
simply 0.0
can 0.00504716040888
shake 0.0
off 0.0
discomfort 0.0
get 0.00237420553037
back 0.0
park 0.0
continued 0.0
in 0.00403202285004
sydney 0.0
morning 0.0
herald 0.0
bit 0.0
club 0.0
are 0.00645266727628
doing 0.0
everything 0.0
they 0.00500325451192
him 0.0
right 0.0
was 0.0
desperate 0.0
fit 0.0
game 0.0
as 0.00391269119092
part 0.0
of 0.00957148645191
plan 0.0
himself 0.0
match 0.0
has 0.00119465951708
played 0.0
since 0.0
december 0.0
19 0.0
misses 0.0
out 0.00177683170559
international 0.0
duty 0.0
this 0.00302089927365
week 0.0
with 0.000597039967579
australia 0.0
facing 0.0
south 0.0
africa 0.0
durban 0.0
wednesday 0.0
