liverpool 0.0
winger 0.0
harry 0.0
kewell 0.0
is 0.0
struggling 0.0
to 0.00685166531468
recover 0.0
from 0.00184950446385
his 0.0
achilles 0.0
tendinitis 0.0
problem 0.0
and 0.0041306601218
may 0.0
not 0.00202896423259
until 0.0
march 0.0
claims 0.0
agent 0.0
26 0.0
had 0.0021765470838
hoped 0.0
play 0.00787119197195
against 0.00628418252952
fulham 0.0
last 0.00257876656356
weekend 0.0
be 0.00171850630805
ready 0.0
for 0.00585191747333
the 0.0245485936958
champions 0.0
league 0.0
tie 0.00651435807035
bayer 0.0
leverkusen 0.0
on 0.0
22 0.0
february 0.0
but 0.00357017811347
bernie 0.0
mandic 0.0
said 0.00158514966105
he 0.0
scans 0.0
which 0.00205463672261
don 0.0
show 0.0
anything 0.0
substantial 0.0
despite 0.0
best 0.0
efforts 0.0
at 0.0
moment 0.0
simply 0.0
can 0.00275635469082
shake 0.0
off 0.0
discomfort 0.0
get 0.00324150216183
back 0.0
park 0.0
continued 0.0
in 0.0137622992384
sydney 0.0
morning 0.0
herald 0.0
bit 0.0
club 0.0
are 0.0
doing 0.0
everything 0.0
they 0.0
him 0.0
right 0.0
was 0.00505795033912
desperate 0.0
fit 0.0
game 0.0
as 0.00356133080918
part 0.0
of 0.00275114691311
plan 0.0
himself 0.0
match 0.0142974874081
has 0.00326213662443
played 0.0
since 0.0
december 0.0
19 0.0
misses 0.0
out 0.0
international 0.0
duty 0.0
this 0.00412443295281
week 0.0
with 0.00489083102751
australia 0.00573500807612
facing 0.0
south 0.0
africa 0.0
durban 0.0
wednesday 0.0
