liverpool 0.0
winger 0.0
harry 0.0
kewell 0.0
is 0.00668164174792
struggling 0.0
to 0.0163379237558
recover 0.0
from 0.00315012706803
his 0.00410307681287
achilles 0.0
tendinitis 0.0
problem 0.0
and 0.00351772718392
may 0.0
not 0.00518368185162
until 0.0
march 0.0
claims 0.0
agent 0.0
26 0.0
had 0.00370715508805
hoped 0.0
play 0.0100548236189
against 0.0
fulham 0.0
last 0.0
weekend 0.0
be 0.00292700739219
ready 0.0
for 0.00373768027997
the 0.0220673613588
champions 0.0
league 0.0
tie 0.0
bayer 0.0
leverkusen 0.0
on 0.00255093326875
22 0.0
february 0.0
but 0.00456061945217
bernie 0.0
mandic 0.0
said 0.00269987066901
he 0.0135317683815
scans 0.0
which 0.0
don 0.0
show 0.0
anything 0.0
substantial 0.0
despite 0.0
best 0.0
efforts 0.0
at 0.00429690955648
moment 0.0
simply 0.0
can 0.0
shake 0.0
off 0.0
discomfort 0.0
get 0.0
back 0.0
park 0.0
continued 0.0
in 0.0058600820107
sydney 0.0
morning 0.0
herald 0.0
bit 0.0
club 0.0
are 0.00333447487956
doing 0.0
everything 0.0
they 0.0
him 0.00629558553682
right 0.0
was 0.00574322711244
desperate 0.0
fit 0.0
game 0.0
as 0.00454931772246
part 0.0
of 0.00234291469107
plan 0.0
himself 0.0
match 0.0
has 0.00555616116701
played 0.0
since 0.00291528309443
december 0.0
19 0.0
misses 0.0
out 0.0
international 0.0
duty 0.0
this 0.00175621202042
week 0.0
with 0.00694183203578
australia 0.0
facing 0.0
south 0.0
africa 0.0
durban 0.0
wednesday 0.0
