liverpool 0.0
winger 0.0
harry 0.0
kewell 0.0
is 0.0
struggling 0.0
to 0.00818960239469
recover 0.0
from 0.0
his 0.00287941084022
achilles 0.0
tendinitis 0.0
problem 0.0
and 0.00822876932627
may 0.0
not 0.0024251637485
until 0.0
march 0.0
claims 0.0
agent 0.0
26 0.0
had 0.00780469611006
hoped 0.0
play 0.0
against 0.0
fulham 0.0
last 0.0
weekend 0.0
be 0.0
ready 0.0
for 0.00349731599196
the 0.0244518683274
champions 0.0
league 0.0
tie 0.0
bayer 0.0
leverkusen 0.0
on 0.00537049529539
22 0.00665651231523
february 0.0
but 0.0
bernie 0.0
mandic 0.0
said 0.00189468470275
he 0.00237404284285
scans 0.0
which 0.00491169870417
don 0.0
show 0.0
anything 0.0
substantial 0.0
despite 0.0
best 0.0
efforts 0.0
at 0.0
moment 0.0
simply 0.0
can 0.0
shake 0.0
off 0.0
discomfort 0.0
get 0.0
back 0.0
park 0.0
continued 0.0
in 0.0115147818138
sydney 0.0
morning 0.0
herald 0.0
bit 0.0
club 0.0
are 0.0
doing 0.0
everything 0.0
they 0.00272161080743
him 0.0
right 0.00486563744687
was 0.0100760424187
desperate 0.0
fit 0.0
game 0.0
as 0.0021283791592
part 0.0
of 0.00328836834739
plan 0.0
himself 0.0
match 0.0
has 0.00389913994398
played 0.0
since 0.0
december 0.0
19 0.0
misses 0.0
out 0.00289961925466
international 0.0
duty 0.0
this 0.0
week 0.0
with 0.00194862414977
australia 0.0
facing 0.0
south 0.0
africa 0.0
durban 0.0
wednesday 0.0
