liverpool 0.0
winger 0.0
harry 0.0
kewell 0.0
is 0.00268908565201
struggling 0.0
to 0.0105675131448
recover 0.0
from 0.00158474552742
his 0.00206414931443
achilles 0.0
tendinitis 0.0
problem 0.0
and 0.00235956721787
may 0.0
not 0.00347703080013
until 0.00379744322583
march 0.0
claims 0.0
agent 0.0
26 0.0
had 0.0
hoped 0.0
play 0.00337221037225
against 0.0
fulham 0.0
last 0.00220961282211
weekend 0.0
be 0.00147249992566
ready 0.0
for 0.00250710399027
the 0.0163601130147
champions 0.0
league 0.0
tie 0.0
bayer 0.0
leverkusen 0.0
on 0.00769984194496
22 0.0
february 0.0
but 0.00152955126846
bernie 0.0
mandic 0.0
said 0.00814940072243
he 0.00170186860383
scans 0.0
which 0.00176051284021
don 0.0
show 0.0
anything 0.0
substantial 0.0
despite 0.0
best 0.0
efforts 0.0
at 0.00288221524795
moment 0.0
simply 0.0
can 0.0
shake 0.0
off 0.0
discomfort 0.0
get 0.00277747696937
back 0.0
park 0.0
continued 0.0
in 0.0023584416898
sydney 0.0
morning 0.0105280863816
herald 0.0
bit 0.0
club 0.0
are 0.00335497206148
doing 0.0
everything 0.0
they 0.00195102796858
him 0.00316714240616
right 0.0
was 0.00144463275335
desperate 0.0
fit 0.0
game 0.0
as 0.0106803260746
part 0.0
of 0.00825060846223
plan 0.0
himself 0.0
match 0.0
has 0.00559031516436
played 0.0
since 0.0
december 0.0
19 0.0
misses 0.0
out 0.0020786360227
international 0.0
duty 0.0
this 0.00176700754252
week 0.0
with 0.00279380152818
australia 0.0
facing 0.0
south 0.0
africa 0.0
durban 0.0
wednesday 0.0
