liverpool 0.0
winger 0.0
harry 0.0
kewell 0.0
is 0.00469948879273
struggling 0.0
to 0.0090287774143
recover 0.0
from 0.00110781058087
his 0.0
achilles 0.0
tendinitis 0.0
problem 0.0
and 0.00742251085904
may 0.0
not 0.002430605699
until 0.0
march 0.0
claims 0.0
agent 0.0
26 0.0
had 0.00130370157863
hoped 0.0
play 0.0
against 0.0
fulham 0.0
last 0.00154462178414
weekend 0.0
be 0.0113228027259
ready 0.0
for 0.00525774570059
the 0.031041867045
champions 0.0
league 0.0
tie 0.0
bayer 0.0
leverkusen 0.0
on 0.00179418214262
22 0.0
february 0.0
but 0.00320768170638
bernie 0.0
mandic 0.0
said 0.0066462769935
he 0.00356905512077
scans 0.0
which 0.0
don 0.0
show 0.0
anything 0.0
substantial 0.0
despite 0.0
best 0.00447607892625
efforts 0.0
at 0.0
moment 0.0
simply 0.0
can 0.0
shake 0.0
off 0.0
discomfort 0.0
get 0.0019415851451
back 0.0
park 0.0
continued 0.0
in 0.00494598018381
sydney 0.0
morning 0.0
herald 0.0
bit 0.0
club 0.0
are 0.0
doing 0.0
everything 0.0
they 0.00136385898542
him 0.0
right 0.0
was 0.00605919154318
desperate 0.0
fit 0.0
game 0.0
as 0.0021331551394
part 0.0
of 0.00988724186218
plan 0.0
himself 0.0
match 0.0
has 0.001953944713
played 0.0
since 0.0
december 0.00270019460781
19 0.0
misses 0.0
out 0.0
international 0.0
duty 0.0
this 0.00123522017777
week 0.0
with 0.000976498384198
australia 0.0
facing 0.0
south 0.0
africa 0.0
durban 0.0
wednesday 0.0
