liverpool 0.0
winger 0.0
harry 0.0
kewell 0.0
is 0.00426948986112
struggling 0.0
to 0.00798959661875
recover 0.0
from 0.00143778132099
his 0.0
achilles 0.0
tendinitis 0.0
problem 0.0
and 0.00588705848048
may 0.00135400178963
not 0.000788645534955
until 0.0
march 0.0
claims 0.0
agent 0.0
26 0.0
had 0.0
hoped 0.0
play 0.0
against 0.0
fulham 0.0
last 0.0
weekend 0.0
be 0.00400783504666
ready 0.0
for 0.00113730161235
the 0.0116623011366
champions 0.0
league 0.00211714536117
tie 0.0
bayer 0.0
leverkusen 0.0
on 0.00232859445076
22 0.0
february 0.0
but 0.0020815584003
bernie 0.0
mandic 0.0
said 0.00431296337135
he 0.00154404277977
scans 0.0
which 0.00079862426908
don 0.00158226975377
show 0.0
anything 0.0020507958037
substantial 0.0
despite 0.0
best 0.0
efforts 0.0
at 0.00261492787005
moment 0.0
simply 0.0
can 0.00749964316434
shake 0.0
off 0.0
discomfort 0.0
get 0.0
back 0.0
park 0.0
continued 0.0
in 0.00320959108221
sydney 0.0
morning 0.0
herald 0.0
bit 0.0
club 0.0
are 0.00684864615657
doing 0.0
everything 0.0
they 0.000885047952945
him 0.0
right 0.00158226975377
was 0.0
desperate 0.0
fit 0.0
game 0.0
as 0.00346066677278
part 0.0
of 0.00588144350598
plan 0.0
himself 0.0
match 0.0
has 0.000633985913094
played 0.0
since 0.0
december 0.0
19 0.0
misses 0.0
out 0.00282880499885
international 0.0
duty 0.0
this 0.000801570471328
week 0.0
with 0.0038020700317
australia 0.0
facing 0.0
south 0.0
africa 0.0
durban 0.0
wednesday 0.0
