liverpool 0.0
winger 0.0
harry 0.0
kewell 0.0
is 0.00306547170399
struggling 0.0
to 0.00642486787337
recover 0.0
from 0.00361311851015
his 0.00282367710146
achilles 0.0
tendinitis 0.0
problem 0.00186206692702
and 0.00753152741602
may 0.0
not 0.000792740798252
until 0.00173158556665
march 0.0
claims 0.0
agent 0.0
26 0.0
had 0.00425201599152
hoped 0.00236753482899
play 0.0
against 0.0
fulham 0.0
last 0.0
weekend 0.0
be 0.00201432342753
ready 0.0
for 0.00514443316586
the 0.0245114364454
champions 0.0
league 0.0
tie 0.0
bayer 0.0
leverkusen 0.0
on 0.00351102949656
22 0.0
february 0.0
but 0.00278982330207
bernie 0.0
mandic 0.0
said 0.00743204510437
he 0.00543221229349
scans 0.0
which 0.000802771349755
don 0.00159048613358
show 0.0
anything 0.0
substantial 0.0
despite 0.0
best 0.0
efforts 0.0
at 0.00131425330849
moment 0.0
simply 0.0
can 0.0
shake 0.0
off 0.0
discomfort 0.0
get 0.0
back 0.0
park 0.0
continued 0.0
in 0.0102164829851
sydney 0.0
morning 0.00240033640251
herald 0.0
bit 0.0
club 0.0
are 0.000764912186002
doing 0.00190369255706
everything 0.00214358545373
they 0.000889643812855
him 0.0
right 0.0
was 0.00592860661358
desperate 0.0
fit 0.0
game 0.0
as 0.00139145490253
part 0.0
of 0.00967415653994
plan 0.0
himself 0.00212308841465
match 0.0
has 0.00127455612579
played 0.0
since 0.0
december 0.0
19 0.0
misses 0.0
out 0.000947831454266
international 0.0
duty 0.0
this 0.000805732850985
week 0.0
with 0.002547875565
australia 0.0
facing 0.0
south 0.0
africa 0.0
durban 0.0
wednesday 0.0
