liverpool 0.0
winger 0.0
harry 0.0
kewell 0.0
is 0.00303389901468
struggling 0.0
to 0.00529891269401
recover 0.0
from 0.0
his 0.0
achilles 0.0
tendinitis 0.0
problem 0.0
and 0.00732085041363
may 0.0
not 0.00392287999851
until 0.0
march 0.0
claims 0.0
agent 0.0
26 0.0
had 0.0
hoped 0.0
play 0.0
against 0.0
fulham 0.0
last 0.0
weekend 0.0
be 0.00332262832181
ready 0.0
for 0.00848574717593
the 0.0138434408136
champions 0.0
league 0.0
tie 0.0
bayer 0.0
leverkusen 0.0
on 0.00144786158525
22 0.0
february 0.0
but 0.0
bernie 0.0
mandic 0.0
said 0.00612958257231
he 0.0
scans 0.0
which 0.00297938715745
don 0.0
show 0.0
anything 0.0
substantial 0.0
despite 0.00198856034659
best 0.0
efforts 0.0
at 0.00162589651883
moment 0.0
simply 0.00256144006088
can 0.0066615569854
shake 0.0
off 0.0
discomfort 0.0
get 0.00156681224236
back 0.0
park 0.0
continued 0.0
in 0.0
sydney 0.0
morning 0.0
herald 0.0
bit 0.0
club 0.0
are 0.00473146254378
doing 0.00235510695043
everything 0.0
they 0.0264144289806
him 0.0
right 0.0
was 0.000814936832468
desperate 0.0
fit 0.0
game 0.0
as 0.0
part 0.0
of 0.0119681474943
plan 0.0
himself 0.0
match 0.0
has 0.000788393057331
played 0.0
since 0.00165465967074
december 0.0
19 0.0
misses 0.0
out 0.00351775989904
international 0.0
duty 0.0
this 0.00199358560342
week 0.0
with 0.00236403171945
australia 0.0
facing 0.0
south 0.0
africa 0.0
durban 0.0
wednesday 0.0
