liverpool 0.0
winger 0.0
harry 0.0
kewell 0.0
is 0.00695988876157
struggling 0.0
to 0.0109403307283
recover 0.0
from 0.0
his 0.00213697166618
achilles 0.0
tendinitis 0.0
problem 0.0
and 0.0109926530712
may 0.0
not 0.00539954855764
until 0.0
march 0.0
claims 0.0
agent 0.0
26 0.0
had 0.00386153403731
hoped 0.0
play 0.0
against 0.00557456002561
fulham 0.0
last 0.0114378353374
weekend 0.0
be 0.00304889825323
ready 0.0
for 0.00648888400893
the 0.0193569042004
champions 0.0
league 0.0
tie 0.0
bayer 0.0
leverkusen 0.0
on 0.0
22 0.0
february 0.0
but 0.00158351321768
bernie 0.0
mandic 0.0
said 0.0
he 0.00176190983885
scans 0.0
which 0.0
don 0.0
show 0.0
anything 0.0
substantial 0.0
despite 0.00729894237927
best 0.0
efforts 0.0
at 0.00149194931724
moment 0.0
simply 0.0
can 0.00244510158699
shake 0.0
off 0.0
discomfort 0.0
get 0.0
back 0.0
park 0.0
continued 0.0
in 0.0122082327868
sydney 0.0
morning 0.0
herald 0.0
bit 0.0
club 0.0
are 0.00694666823382
doing 0.0
everything 0.0
they 0.00201985944507
him 0.0
right 0.00361106140765
was 0.0
desperate 0.0
fit 0.0
game 0.0034911805883
as 0.0
part 0.0
of 0.00732144564596
plan 0.0
himself 0.0
match 0.00422766214472
has 0.00144688480476
played 0.0
since 0.00911005714367
december 0.0
19 0.0050182488324
misses 0.0
out 0.0
international 0.0
duty 0.0
this 0.00365869370583
week 0.0
with 0.00289236571449
australia 0.0
facing 0.0
south 0.0
africa 0.0
durban 0.0
wednesday 0.0
