liverpool 0.0
winger 0.0
harry 0.0
kewell 0.0
is 0.0
struggling 0.0
to 0.0102778372494
recover 0.0
from 0.00511064156588
his 0.00760762233396
achilles 0.0
tendinitis 0.0
problem 0.0
and 0.00380468097007
may 0.00137509840938
not 0.00400466686597
until 0.0
march 0.0
claims 0.0
agent 0.0
26 0.0
had 0.00601434179478
hoped 0.0
play 0.0
against 0.00124034012781
fulham 0.0
last 0.00101796777354
weekend 0.0
be 0.0027135205876
ready 0.0
for 0.00404257643924
the 0.0161509237407
champions 0.0
league 0.0
tie 0.0
bayer 0.0
leverkusen 0.0
on 0.00236487613965
22 0.0
february 0.0
but 0.00211399103547
bernie 0.0
mandic 0.0
said 0.00563163864687
he 0.0109767029166
scans 0.0
which 0.00243320275611
don 0.0
show 0.0
anything 0.0
substantial 0.0
despite 0.0
best 0.0
efforts 0.0
at 0.0
moment 0.0
simply 0.0
can 0.0
shake 0.0
off 0.0
discomfort 0.0
get 0.0012795825668
back 0.0
park 0.0
continued 0.0
in 0.00543266587693
sydney 0.0
morning 0.0
herald 0.0
bit 0.0
club 0.0
are 0.000772817166321
doing 0.00192336625618
everything 0.0
they 0.0
him 0.002918202566
right 0.0
was 0.00199662525415
desperate 0.0
fit 0.0
game 0.0
as 0.00281166976947
part 0.00284942259438
of 0.00814511170973
plan 0.0
himself 0.0
match 0.0
has 0.00321932004574
played 0.0
since 0.0013513257118
december 0.0
19 0.0
misses 0.0
out 0.0
international 0.0
duty 0.0
this 0.00488435815331
week 0.0
with 0.00193065492711
australia 0.0
facing 0.0
south 0.0
africa 0.0
durban 0.0
wednesday 0.0
