liverpool 0.0
winger 0.0
harry 0.0
kewell 0.0
is 0.00103440206825
struggling 0.0
to 0.00541996245455
recover 0.0
from 0.00365759428299
his 0.0
achilles 0.0
tendinitis 0.0
problem 0.0
and 0.00726117803951
may 0.0
not 0.00267499686991
until 0.00292150093763
march 0.0
claims 0.0
agent 0.0
26 0.0
had 0.0
hoped 0.0
play 0.0
against 0.0
fulham 0.0
last 0.00679971817635
weekend 0.0
be 0.0
ready 0.0
for 0.00482199879151
the 0.0215766613796
champions 0.0
league 0.0
tie 0.0
bayer 0.0
leverkusen 0.0
on 0.00394916511348
22 0.0
february 0.0
but 0.00117673529246
bernie 0.0
mandic 0.0
said 0.00417973891657
he 0.00130930482068
scans 0.0
which 0.0
don 0.00268344043749
show 0.0
anything 0.0
substantial 0.0
despite 0.0
best 0.0
efforts 0.0
at 0.0
moment 0.0
simply 0.0
can 0.0
shake 0.0
off 0.0
discomfort 0.0
get 0.00213680655317
back 0.0
park 0.0
continued 0.0
in 0.00453607150808
sydney 0.0
morning 0.0
herald 0.0
bit 0.0
club 0.0
are 0.00387163945862
doing 0.0
everything 0.0
they 0.0
him 0.0
right 0.0
was 0.00444561847796
desperate 0.0
fit 0.0
game 0.0
as 0.0011738192096
part 0.0
of 0.00816103401024
plan 0.0
himself 0.0
match 0.0
has 0.0
played 0.0
since 0.00225661220414
december 0.0148584612614
19 0.0
misses 0.0
out 0.00159916468217
international 0.0
duty 0.0
this 0.0
week 0.0
with 0.0032240483789
australia 0.0
facing 0.0
south 0.0
africa 0.0
durban 0.0
wednesday 0.0
