liverpool 0.0
winger 0.0
harry 0.0
kewell 0.0
is 0.00353235656874
struggling 0.0
to 0.0041130019976
recover 0.0
from 0.00138780413319
his 0.00180763087861
achilles 0.0
tendinitis 0.0
problem 0.0
and 0.0030995043818
may 0.0
not 0.00152246453206
until 0.0
march 0.0
claims 0.0
agent 0.0
26 0.00900408470752
had 0.00163320559535
hoped 0.0
play 0.0
against 0.0
fulham 0.0
last 0.00193501717104
weekend 0.0
be 0.00128950765129
ready 0.0
for 0.00768438356157
the 0.0225138405732
champions 0.0
league 0.0
tie 0.0
bayer 0.0
leverkusen 0.0
on 0.00561913163726
22 0.0
february 0.0
but 0.00267893808258
bernie 0.0
mandic 0.0
said 0.00594720719613
he 0.00447111585114
scans 0.0
which 0.0
don 0.0
show 0.0
anything 0.0
substantial 0.0
despite 0.00308703054765
best 0.0
efforts 0.0
at 0.00126201657132
moment 0.0
simply 0.0
can 0.0
shake 0.0
off 0.0
discomfort 0.0
get 0.0
back 0.00239247191783
park 0.0
continued 0.0
in 0.00516337649858
sydney 0.0
morning 0.00460986371068
herald 0.0
bit 0.0
club 0.0
are 0.00146901947761
doing 0.0
everything 0.0
they 0.0
him 0.0
right 0.0
was 0.00379531086479
desperate 0.0
fit 0.0
game 0.0
as 0.0
part 0.0
of 0.0103218270939
plan 0.0
himself 0.0
match 0.0
has 0.00244779441138
played 0.0
since 0.0
december 0.0
19 0.0
misses 0.0
out 0.00182031727731
international 0.0
duty 0.0
this 0.0
week 0.00266357229245
with 0.00122330343927
australia 0.0
facing 0.0
south 0.0
africa 0.0
durban 0.0
wednesday 0.0
