liverpool 0.0
winger 0.0
harry 0.0
kewell 0.0
is 0.00340059701991
struggling 0.0
to 0.011136329828
recover 0.0
from 0.00150304274814
his 0.000652576834254
achilles 0.0
tendinitis 0.0
problem 0.0
and 0.0115625758585
may 0.0
not 0.00439702639008
until 0.0
march 0.00129966293283
claims 0.0
agent 0.0
26 0.0
had 0.00294803587865
hoped 0.0
play 0.0
against 0.00085116447528
fulham 0.0
last 0.0
weekend 0.0
be 0.00232764009174
ready 0.0
for 0.00435938856517
the 0.0236444262952
champions 0.0
league 0.0
tie 0.0
bayer 0.0
leverkusen 0.0
on 0.0024342902161
22 0.0
february 0.0
but 0.00145069407182
bernie 0.0
mandic 0.0
said 0.000429402893105
he 0.00215216993856
scans 0.0
which 0.000556582747137
don 0.00220545275259
show 0.0
anything 0.0
substantial 0.0
despite 0.0
best 0.00202433463096
efforts 0.0
at 0.00182241361029
moment 0.0
simply 0.0
can 0.000746671880734
shake 0.0
off 0.0
discomfort 0.0
get 0.000878093999892
back 0.000863711595467
park 0.0
continued 0.0
in 0.00596493441996
sydney 0.0
morning 0.0
herald 0.0
bit 0.00580660881137
club 0.0
are 0.00318200388641
doing 0.0
everything 0.0
they 0.00123362747682
him 0.001001285978
right 0.00220545275259
was 0.00822092157795
desperate 0.0
fit 0.0
game 0.00106611782092
as 0.00434129726456
part 0.000977686375302
of 0.0115515476737
plan 0.0
himself 0.0
match 0.0
has 0.00132552553742
played 0.0
since 0.000927326637778
december 0.0
19 0.0
misses 0.0
out 0.00328578389599
international 0.0
duty 0.0
this 0.00111727206955
week 0.0
with 0.00088325497775
australia 0.0
facing 0.0
south 0.0
africa 0.0
durban 0.0
wednesday 0.0
