liverpool 0.0
winger 0.0
harry 0.0
kewell 0.0
is 0.00642609520895
struggling 0.0
to 0.0106000817628
recover 0.0
from 0.000841568635341
his 0.00109615284702
achilles 0.0
tendinitis 0.0
problem 0.0
and 0.00438561400057
may 0.00317012169155
not 0.000923227109615
until 0.0
march 0.0
claims 0.0
agent 0.0
26 0.0
had 0.00198076165251
hoped 0.0
play 0.0
against 0.0
fulham 0.0
last 0.0
weekend 0.0
be 0.00625569080478
ready 0.0
for 0.00266276199837
the 0.0136524612042
champions 0.0
league 0.0
tie 0.0
bayer 0.0
leverkusen 0.0
on 0.0034074584667
22 0.0
february 0.0
but 0.00162451617804
bernie 0.0
mandic 0.0
said 0.00360640448059
he 0.00361506428301
scans 0.0
which 0.000934908704775
don 0.0
show 0.0
anything 0.0
substantial 0.0
despite 0.0
best 0.0
efforts 0.0
at 0.0
moment 0.0
simply 0.0
can 0.00250841422771
shake 0.0
off 0.0
discomfort 0.0
get 0.0
back 0.0
park 0.0
continued 0.0
in 0.0050097394694
sydney 0.0
morning 0.0
herald 0.0
bit 0.0
club 0.0
are 0.00356327146603
doing 0.0
everything 0.00249642279926
they 0.00518040252085
him 0.0
right 0.00185228251053
was 0.00383581336489
desperate 0.0
fit 0.0
game 0.0
as 0.00243073566541
part 0.00164224907709
of 0.00625918725405
plan 0.0
himself 0.0
match 0.0
has 0.0022265249322
played 0.0
since 0.0
december 0.0
19 0.0025740948426
misses 0.0
out 0.0
international 0.0
duty 0.0
this 0.001876715347
week 0.0
with 0.00370907457823
australia 0.0
facing 0.0
south 0.0
africa 0.0
durban 0.0
wednesday 0.0
