liverpool 0.0
winger 0.0
harry 0.0
kewell 0.0
is 0.0023235029372
struggling 0.0
to 0.0081163144514
recover 0.0
from 0.00182573130259
his 0.0
achilles 0.0
tendinitis 0.0
problem 0.0
and 0.00815513088196
may 0.0
not 0.00200288433128
until 0.0
march 0.0
claims 0.0
agent 0.0
26 0.0
had 0.00107428509099
hoped 0.0
play 0.0
against 0.0
fulham 0.0
last 0.00254561961282
weekend 0.0
be 0.000848208485469
ready 0.0
for 0.00361043630877
the 0.0201942091432
champions 0.0
league 0.0
tie 0.0
bayer 0.0
leverkusen 0.0
on 0.00369613559945
22 0.0
february 0.0
but 0.00264321581739
bernie 0.0
mandic 0.0
said 0.0023471616955
he 0.0
scans 0.0
which 0.0
don 0.0
show 0.0
anything 0.0
substantial 0.0
despite 0.00203057771918
best 0.0
efforts 0.0
at 0.00249037645537
moment 0.00541583545027
simply 0.0
can 0.00272092505773
shake 0.00371054580211
off 0.00175203661479
discomfort 0.0
get 0.00319983653998
back 0.0
park 0.0
continued 0.0
in 0.00679270069531
sydney 0.0
morning 0.0
herald 0.0
bit 0.00264496156594
club 0.0
are 0.000966287237599
doing 0.0
everything 0.00270791772513
they 0.00224771281751
him 0.0
right 0.0
was 0.000832156075819
desperate 0.0
fit 0.0
game 0.0
as 0.00175777708686
part 0.0
of 0.00678946054938
plan 0.0
himself 0.0
match 0.0
has 0.00322020577131
played 0.0
since 0.00168962187444
december 0.0
19 0.0
misses 0.0
out 0.00119736285343
international 0.0
duty 0.0
this 0.00407141831478
week 0.00350407322959
with 0.00241398263079
australia 0.0
facing 0.0
south 0.0
africa 0.0
durban 0.0
wednesday 0.0
