liverpool 0.0
winger 0.0
harry 0.0
kewell 0.0
is 0.0068489036826
struggling 0.0
to 0.00978715634698
recover 0.0
from 0.00293544035092
his 0.0
achilles 0.0
tendinitis 0.0
problem 0.0
and 0.00655597574078
may 0.00276439221351
not 0.000805067464737
until 0.0
march 0.0
claims 0.0
agent 0.0
26 0.0
had 0.00172725296433
hoped 0.0
play 0.0
against 0.0
fulham 0.0
last 0.00102322210817
weekend 0.0
be 0.00340940834325
ready 0.0
for 0.0034829507749
the 0.0167754311654
champions 0.0
league 0.0
tie 0.0
bayer 0.0
leverkusen 0.0
on 0.00297135333269
22 0.0
february 0.0
but 0.000708300865116
bernie 0.0
mandic 0.0
said 0.00314483714979
he 0.000788097155855
scans 0.0
which 0.00326101594234
don 0.0
show 0.0
anything 0.0
substantial 0.0
despite 0.0
best 0.00148257099644
efforts 0.0
at 0.00200203379482
moment 0.00217691698281
simply 0.0
can 0.00218737368279
shake 0.0
off 0.0
discomfort 0.0
get 0.0
back 0.0
park 0.0
continued 0.00226299371945
in 0.0060067777917
sydney 0.00536695459215
morning 0.0
herald 0.0
bit 0.0
club 0.0
are 0.00155361226693
doing 0.0
everything 0.0
they 0.0
him 0.0
right 0.0
was 0.00200693101971
desperate 0.0
fit 0.0
game 0.0
as 0.00494581930944
part 0.0
of 0.00709553299495
plan 0.0
himself 0.0
match 0.0
has 0.00323593686334
played 0.0
since 0.0
december 0.0
19 0.0
misses 0.0
out 0.00192513938368
international 0.00477397781987
duty 0.0
this 0.000818261536467
week 0.0
with 0.00129374678716
australia 0.0
facing 0.0
south 0.0
africa 0.0
durban 0.0
wednesday 0.0
