liverpool 0.0
winger 0.0
harry 0.0
kewell 0.0
is 0.00426901618348
struggling 0.0
to 0.00838814572538
recover 0.0
from 0.00125791908082
his 0.0
achilles 0.0
tendinitis 0.0
problem 0.0
and 0.00374589430856
may 0.0
not 0.0
until 0.0
march 0.0
claims 0.0
agent 0.0
26 0.0
had 0.00148035333817
hoped 0.0
play 0.0
against 0.0
fulham 0.0
last 0.0
weekend 0.0
be 0.00116882219949
ready 0.0
for 0.002985085516
the 0.020406762714
champions 0.0
league 0.0
tie 0.0
bayer 0.0
leverkusen 0.0
on 0.0
22 0.0
february 0.0
but 0.00242821537263
bernie 0.00571656443009
mandic 0.0
said 0.00431248487055
he 0.0
scans 0.0
which 0.00139743741529
don 0.00553732973216
show 0.0
anything 0.0
substantial 0.0
despite 0.0
best 0.0
efforts 0.0
at 0.00114390401888
moment 0.0
simply 0.0
can 0.0
shake 0.0
off 0.0
discomfort 0.0
get 0.0
back 0.0
park 0.0
continued 0.0
in 0.00468013436742
sydney 0.0
morning 0.0
herald 0.0
bit 0.0
club 0.0
are 0.00399460036207
doing 0.0
everything 0.0
they 0.0015486620826
him 0.0
right 0.0
was 0.00344010645326
desperate 0.0
fit 0.0
game 0.0
as 0.0
part 0.0
of 0.0130981253879
plan 0.0
himself 0.0
match 0.0
has 0.00221870451482
played 0.0
since 0.0
december 0.0
19 0.0
misses 0.0
out 0.00164995317532
international 0.0
duty 0.0
this 0.00140259269721
week 0.0
with 0.00110881406179
australia 0.0117017983389
facing 0.0
south 0.00330810475912
africa 0.0
durban 0.0
wednesday 0.0
