liverpool 0.0
winger 0.0
harry 0.0
kewell 0.0
is 0.00322831281145
struggling 0.0
to 0.0103371944921
recover 0.0
from 0.00190252559833
his 0.0
achilles 0.0
tendinitis 0.0
problem 0.0
and 0.00472119651107
may 0.0
not 0.0
until 0.0
march 0.00164509093436
claims 0.0
agent 0.0
26 0.0
had 0.000746314598287
hoped 0.0
play 0.0
against 0.0
fulham 0.0
last 0.000884231334249
weekend 0.0
be 0.00412480137987
ready 0.0
for 0.00451475909222
the 0.0154319896385
champions 0.0
league 0.0
tie 0.0
bayer 0.0
leverkusen 0.0
on 0.00205418839246
22 0.0
february 0.0
but 0.00306043924388
bernie 0.0
mandic 0.0
said 0.0027176538962
he 0.0
scans 0.0
which 0.00211353853773
don 0.0
show 0.0
anything 0.0
substantial 0.0
despite 0.00141065887212
best 0.0
efforts 0.0
at 0.00115338986486
moment 0.0
simply 0.0
can 0.0
shake 0.0
off 0.00121715409934
discomfort 0.0
get 0.0
back 0.0
park 0.0
continued 0.0
in 0.00613462781269
sydney 0.0
morning 0.0
herald 0.0
bit 0.0
club 0.0
are 0.00335643805173
doing 0.0
everything 0.0
they 0.00156150439258
him 0.0
right 0.0
was 0.00115621120064
desperate 0.0
fit 0.0
game 0.0
as 0.00427399718206
part 0.00123753855867
of 0.0103767257342
plan 0.0
himself 0.0
match 0.0
has 0.00111855158225
played 0.0
since 0.0
december 0.0
19 0.0
misses 0.0
out 0.000831817721811
international 0.0
duty 0.0
this 0.0
week 0.0
with 0.00167701338545
australia 0.0
facing 0.0
south 0.0
africa 0.0
durban 0.0
wednesday 0.0
