liverpool 0.0
winger 0.0
harry 0.0
kewell 0.0
is 0.00194981724856
struggling 0.0
to 0.00723666527913
recover 0.0
from 0.0
his 0.00523839721079
achilles 0.0
tendinitis 0.0
problem 0.0
and 0.00684355272522
may 0.00108211946328
not 0.00252114491883
until 0.0
march 0.0
claims 0.0
agent 0.0
26 0.0
had 0.000676132005282
hoped 0.0
play 0.00366771170601
against 0.0
fulham 0.0
last 0.00240323761533
weekend 0.0
be 0.000533844236497
ready 0.0
for 0.00499912866345
the 0.0216066639144
champions 0.0
league 0.0
tie 0.0
bayer 0.0
leverkusen 0.0
on 0.00232626850695
22 0.0
february 0.00148293379462
but 0.00277263894846
bernie 0.0
mandic 0.0
said 0.000492417750563
he 0.00246800079131
scans 0.0
which 0.00127652248622
don 0.0
show 0.0
anything 0.0
substantial 0.0
despite 0.0
best 0.00232140565741
efforts 0.0
at 0.000522463183751
moment 0.0
simply 0.0
can 0.0
shake 0.0
off 0.0
discomfort 0.0
get 0.0
back 0.000990461237696
park 0.00190844092357
continued 0.0
in 0.00726780632776
sydney 0.0
morning 0.00190844092357
herald 0.0
bit 0.0
club 0.0
are 0.000608160471665
doing 0.0
everything 0.0034086107254
they 0.000707331129953
him 0.00459289862154
right 0.0
was 0.00209496477601
desperate 0.0
fit 0.0
game 0.0
as 0.00110630721449
part 0.00112116181193
of 0.00555508318874
plan 0.0
himself 0.00168800873521
match 0.0
has 0.00101336423816
played 0.0
since 0.0031902353548
december 0.0
19 0.0
misses 0.0
out 0.000753594510368
international 0.0
duty 0.0
this 0.0
week 0.0
with 0.000506436305275
australia 0.0
facing 0.0
south 0.0
africa 0.0
durban 0.0
wednesday 0.0
