liverpool 0.0
winger 0.0
harry 0.0
kewell 0.0
is 0.00247664658019
struggling 0.0
to 0.00973267447675
recover 0.0
from 0.00072977493075
his 0.00855486232484
achilles 0.0
tendinitis 0.0
problem 0.0
and 0.00977922118035
may 0.00137450187707
not 0.000800585919783
until 0.0
march 0.0
claims 0.0
agent 0.0
26 0.0
had 0.00343527583393
hoped 0.0
play 0.00155290205796
against 0.0049592082203
fulham 0.0
last 0.0
weekend 0.00216479880422
be 0.00745894444219
ready 0.0
for 0.0034635623371
the 0.0123770032621
champions 0.0
league 0.0
tie 0.0
bayer 0.0
leverkusen 0.0
on 0.00413673790467
22 0.0
february 0.0
but 0.00563486390316
bernie 0.0
mandic 0.0
said 0.0
he 0.0148904915012
scans 0.0
which 0.000810715735631
don 0.0
show 0.0
anything 0.0
substantial 0.0
despite 0.00162331084787
best 0.0
efforts 0.0
at 0.00132725942215
moment 0.00216479880422
simply 0.0
can 0.0021751972952
shake 0.0
off 0.00420190768735
discomfort 0.0
get 0.00127902747028
back 0.0
park 0.0
continued 0.0
in 0.00434424730298
sydney 0.0
morning 0.0
herald 0.0
bit 0.00211446957269
club 0.0
are 0.0
doing 0.0
everything 0.0
they 0.00269534371802
him 0.00583387323741
right 0.00160622590254
was 0.00465677122608
desperate 0.0
fit 0.0
game 0.00776451028982
as 0.000702612509308
part 0.0
of 0.00379940319439
plan 0.0
himself 0.0
match 0.00188049431385
has 0.000643584694096
played 0.0
since 0.0
december 0.0
19 0.0
misses 0.0
out 0.00287163415187
international 0.0
duty 0.0
this 0.00081370654447
week 0.0
with 0.00192981738848
australia 0.0
facing 0.0
south 0.0
africa 0.0
durban 0.0
wednesday 0.0
