liverpool 0.0244455312472
winger 0.0
harry 0.0
kewell 0.0
is 0.00350184681311
struggling 0.0
to 0.0101936926931
recover 0.0
from 0.00137581735775
his 0.00179201796544
achilles 0.0
tendinitis 0.0
problem 0.0
and 0.0061454665351
may 0.0
not 0.00150931466456
until 0.0
march 0.0
claims 0.0
agent 0.0
26 0.0
had 0.0
hoped 0.0
play 0.0
against 0.0
fulham 0.0
last 0.00767321597561
weekend 0.0
be 0.0038351096538
ready 0.0
for 0.00761801181793
the 0.0202903486224
champions 0.0266925998709
league 0.0243108347083
tie 0.0
bayer 0.00695555846978
leverkusen 0.00695555846978
on 0.0011141195875
22 0.0
february 0.0
but 0.00265579949375
bernie 0.0
mandic 0.0
said 0.0
he 0.0132974934633
scans 0.0
which 0.00458523608151
don 0.0
show 0.0
anything 0.0
substantial 0.0
despite 0.0
best 0.0
efforts 0.0
at 0.00125111625126
moment 0.0
simply 0.0
can 0.00205040901597
shake 0.0
off 0.00264056642139
discomfort 0.0
get 0.00241130260922
back 0.0
park 0.0
continued 0.0
in 0.0112613143679
sydney 0.0
morning 0.0
herald 0.0
bit 0.00398633033004
club 0.00732650693764
are 0.00873798736219
doing 0.0
everything 0.0
they 0.00169381020371
him 0.00274959570573
right 0.00302815756485
was 0.00125417663798
desperate 0.0
fit 0.0
game 0.0
as 0.00397382718431
part 0.0
of 0.00716287261138
plan 0.0
himself 0.0
match 0.0
has 0.00485330452452
played 0.0
since 0.0
december 0.00335343846221
19 0.0
misses 0.0
out 0.00180459478888
international 0.0
duty 0.0
this 0.00767025243556
week 0.0
with 0.00363821247962
australia 0.0
facing 0.0
south 0.0
africa 0.0
durban 0.0
wednesday 0.0
