liverpool 0.0
winger 0.0
harry 0.0
kewell 0.0
is 0.00323146317415
struggling 0.0
to 0.00620836925223
recover 0.0
from 0.00228525862317
his 0.0
achilles 0.0
tendinitis 0.0
problem 0.0
and 0.00283548222638
may 0.0
not 0.00501400034363
until 0.0
march 0.0
claims 0.0
agent 0.0
26 0.0
had 0.00089645147105
hoped 0.0
play 0.0
against 0.00129412883251
fulham 0.0
last 0.00106211305816
weekend 0.0
be 0.00637018958787
ready 0.0
for 0.00241022124744
the 0.0230301457979
champions 0.0
league 0.0
tie 0.0
bayer 0.0
leverkusen 0.0
on 0.00246743157706
22 0.0
february 0.0
but 0.00514655532124
bernie 0.0
mandic 0.0
said 0.00587586080933
he 0.00245415420655
scans 0.0
which 0.00338496166919
don 0.0
show 0.0
anything 0.0
substantial 0.0
despite 0.0
best 0.0
efforts 0.0
at 0.00138541848628
moment 0.0
simply 0.0
can 0.00113525603729
shake 0.0
off 0.0
discomfort 0.0
get 0.0
back 0.0
park 0.0
continued 0.0
in 0.00963604092534
sydney 0.0
morning 0.0
herald 0.0
bit 0.0
club 0.0
are 0.0064506498163
doing 0.0
everything 0.0
they 0.000937816915946
him 0.0
right 0.0
was 0.00347201848267
desperate 0.0
fit 0.0
game 0.0
as 0.000733400225189
part 0.00148649545908
of 0.00793177781901
plan 0.0
himself 0.0
match 0.0
has 0.00335892937661
played 0.0
since 0.0
december 0.0
19 0.0
misses 0.0
out 0.0
international 0.0
duty 0.0
this 0.00169872456025
week 0.0
with 0.00134291992484
australia 0.0
facing 0.0
south 0.0
africa 0.0
durban 0.0
wednesday 0.0
