liverpool 0.0
winger 0.0
harry 0.0
kewell 0.0
is 0.00465175464668
struggling 0.0
to 0.0142180648888
recover 0.0
from 0.00456899254056
his 0.00119023308879
achilles 0.0
tendinitis 0.0
problem 0.0
and 0.00476202101954
may 0.0
not 0.00601479323244
until 0.0
march 0.0
claims 0.0
agent 0.0
26 0.0
had 0.00215076580445
hoped 0.0
play 0.0
against 0.0
fulham 0.0
last 0.0
weekend 0.0
be 0.00339630107668
ready 0.0
for 0.000722825162259
the 0.0181933610331
champions 0.0
league 0.0
tie 0.0
bayer 0.0
leverkusen 0.0
on 0.00443989521362
22 0.0
february 0.0
but 0.0035278892239
bernie 0.0
mandic 0.0
said 0.00548230726986
he 0.00588800522586
scans 0.0
which 0.00101514973796
don 0.0
show 0.0
anything 0.0
substantial 0.0
despite 0.00203265276523
best 0.0
efforts 0.0
at 0.000830973789819
moment 0.0
simply 0.0
can 0.0
shake 0.0
off 0.0
discomfort 0.0
get 0.0
back 0.0
park 0.0
continued 0.0
in 0.00679964215175
sydney 0.0
morning 0.0
herald 0.0
bit 0.0
club 0.0
are 0.0009672746859
doing 0.0
everything 0.0
they 0.00337501463066
him 0.0
right 0.0
was 0.00333202582229
desperate 0.0
fit 0.0
game 0.0
as 0.000879786679061
part 0.00178319948436
of 0.00339819934735
plan 0.00250699957282
himself 0.0
match 0.0
has 0.00241762237312
played 0.0
since 0.0
december 0.0
19 0.0
misses 0.0
out 0.0
international 0.0
duty 0.0
this 0.00509447361814
week 0.00350765403974
with 0.00241644947808
australia 0.0
facing 0.0
south 0.0
africa 0.0
durban 0.0
wednesday 0.0
