liverpool 0.0
winger 0.0
harry 0.0
kewell 0.0
is 0.00476224714718
struggling 0.0
to 0.00901072384071
recover 0.0
from 0.00280651152235
his 0.00121850453476
achilles 0.0
tendinitis 0.0
problem 0.0
and 0.00348223761594
may 0.00176198404601
not 0.00102627696743
until 0.00224169916334
march 0.0
claims 0.0
agent 0.0
26 0.0
had 0.00110092632721
hoped 0.0
play 0.0
against 0.0
fulham 0.0
last 0.00260874852898
weekend 0.0
be 0.0
ready 0.0
for 0.00443996598488
the 0.0144865042646
champions 0.0
league 0.0
tie 0.0
bayer 0.0
leverkusen 0.0
on 0.00151511848187
22 0.0
february 0.0
but 0.000902921675161
bernie 0.0
mandic 0.0
said 0.00400894841055
he 0.0
scans 0.0
which 0.00103926245272
don 0.0
show 0.0
anything 0.0
substantial 0.0
despite 0.0
best 0.00188993908321
efforts 0.0
at 0.00425355899067
moment 0.0
simply 0.0
can 0.0
shake 0.0
off 0.0
discomfort 0.0
get 0.0
back 0.00161273958952
park 0.0
continued 0.0
in 0.00835338376124
sydney 0.00342082007063
morning 0.0
herald 0.0
bit 0.0
club 0.0
are 0.0
doing 0.0
everything 0.0
they 0.0
him 0.0
right 0.0
was 0.00255837823657
desperate 0.0
fit 0.0
game 0.0
as 0.000900684133348
part 0.0
of 0.00347891631796
plan 0.0
himself 0.0
match 0.0
has 0.00412507971861
played 0.0
since 0.00173152287061
december 0.0
19 0.0
misses 0.0
out 0.0
international 0.0
duty 0.0
this 0.00104309639253
week 0.0
with 0.0
australia 0.00290084300255
facing 0.0
south 0.0
africa 0.0
durban 0.0
wednesday 0.0
