liverpool 0.0
winger 0.0
harry 0.0
kewell 0.0
is 0.00574191484699
struggling 0.0
to 0.00501432403046
recover 0.0
from 0.00084596355882
his 0.0
achilles 0.0
tendinitis 0.0
problem 0.0
and 0.00881703398092
may 0.0
not 0.000928048478105
until 0.0
march 0.00219448345289
claims 0.0
agent 0.0
26 0.0
had 0.0029866586747
hoped 0.0
play 0.0
against 0.0
fulham 0.0
last 0.0
weekend 0.0
be 0.00157208997397
ready 0.0
for 0.00468416854338
the 0.0212094448708
champions 0.0
league 0.0
tie 0.0
bayer 0.0
leverkusen 0.0
on 0.00205515194125
22 0.0
february 0.00218350708989
but 0.00163299988809
bernie 0.0
mandic 0.0
said 0.00145009528199
he 0.00272545742361
scans 0.0
which 0.00281937323416
don 0.0
show 0.0
anything 0.0
substantial 0.0
despite 0.0
best 0.0153814187689
efforts 0.0
at 0.000769287253461
moment 0.0
simply 0.0
can 0.0
shake 0.0
off 0.0
discomfort 0.0
get 0.00148266346924
back 0.0
park 0.0
continued 0.0
in 0.00503590182942
sydney 0.0
morning 0.0
herald 0.0
bit 0.0
club 0.0
are 0.00895469984223
doing 0.0
everything 0.0
they 0.00104149122689
him 0.0
right 0.0
was 0.00462701415742
desperate 0.0
fit 0.0
game 0.0
as 0.0
part 0.00165082539365
of 0.00817943698602
plan 0.0
himself 0.0
match 0.0
has 0.00149210167486
played 0.0
since 0.0
december 0.0
19 0.0
misses 0.0
out 0.00110961053168
international 0.0
duty 0.0
this 0.00471629029164
week 0.0
with 0.00149137779065
australia 0.0
facing 0.0
south 0.00444946915528
africa 0.0
durban 0.0
wednesday 0.0
