liverpool 0.0
winger 0.0
harry 0.0
kewell 0.0
is 0.00497206405855
struggling 0.00342537250223
to 0.0123024053886
recover 0.0
from 0.00586032376688
his 0.00381656962474
achilles 0.0
tendinitis 0.0
problem 0.0
and 0.0130883737552
may 0.0
not 0.00535746535844
until 0.0
march 0.00253367563352
claims 0.0
agent 0.0
26 0.0
had 0.00344829408478
hoped 0.0
play 0.0
against 0.00165933384469
fulham 0.0
last 0.00136184288613
weekend 0.0
be 0.00453770345762
ready 0.0
for 0.00540818099406
the 0.0172854356867
champions 0.0
league 0.0
tie 0.0
bayer 0.0
leverkusen 0.0
on 0.00316374430613
22 0.0
february 0.0
but 0.00471351472321
bernie 0.0
mandic 0.0
said 0.00251134571835
he 0.00944016012786
scans 0.0
which 0.0
don 0.00214975043104
show 0.0
anything 0.0
substantial 0.0
despite 0.0
best 0.0
efforts 0.0
at 0.000888192784826
moment 0.0
simply 0.00279852076008
can 0.00145562691884
shake 0.0
off 0.0
discomfort 0.0
get 0.00171183259541
back 0.00673517715568
park 0.0
continued 0.0
in 0.00799463531802
sydney 0.0
morning 0.0
herald 0.0
bit 0.0
club 0.00260061788561
are 0.00413551622199
doing 0.0
everything 0.0
they 0.00360741058306
him 0.0
right 0.0
was 0.00178073083079
desperate 0.0
fit 0.00323302681061
game 0.0
as 0.0018807336407
part 0.0
of 0.00363219174744
plan 0.0
himself 0.0
match 0.0
has 0.00172272962521
played 0.0
since 0.0
december 0.0
19 0.0
misses 0.0
out 0.00128111841678
international 0.00847181034708
duty 0.0
this 0.0
week 0.0
with 0.00258284077984
australia 0.00605729891234
facing 0.0
south 0.00256860254882
africa 0.00294854180774
durban 0.0
wednesday 0.0
