liverpool 0.0
winger 0.0
harry 0.0
kewell 0.0
is 0.00341394045931
struggling 0.00470388862084
to 0.0099378019005
recover 0.0
from 0.00268256082743
his 0.0
achilles 0.0
tendinitis 0.0
problem 0.0
and 0.00399413185198
may 0.0
not 0.0
until 0.00321404044553
march 0.0
claims 0.0
agent 0.0
26 0.0
had 0.00473536565619
hoped 0.0
play 0.0
against 0.0
fulham 0.0
last 0.0
weekend 0.0
be 0.00124627915038
ready 0.0
for 0.00318290484414
the 0.0118686017623
champions 0.0
league 0.0
tie 0.0
bayer 0.0
leverkusen 0.0
on 0.00108615200472
22 0.0
february 0.0
but 0.00129456567169
bernie 0.0
mandic 0.0
said 0.00574783742005
he 0.0
scans 0.0
which 0.00298008904245
don 0.0
show 0.0
anything 0.0
substantial 0.0
despite 0.0
best 0.0
efforts 0.0
at 0.00121970966105
moment 0.0
simply 0.0
can 0.00199893789515
shake 0.0
off 0.0
discomfort 0.0
get 0.0
back 0.0
park 0.0
continued 0.0
in 0.00698639659642
sydney 0.0
morning 0.0
herald 0.0
bit 0.0
club 0.0
are 0.00283954630997
doing 0.0
everything 0.0
they 0.00165129073128
him 0.0
right 0.0
was 0.00122269322333
desperate 0.0
fit 0.0
game 0.0
as 0.00129135759185
part 0.0
of 0.00997580579536
plan 0.0
himself 0.0
match 0.0
has 0.00236573636168
played 0.0
since 0.00248257421402
december 0.0
19 0.0
misses 0.0
out 0.00175929430703
international 0.0
duty 0.0
this 0.00299108287945
week 0.0
with 0.00236458863882
australia 0.0
facing 0.00419462773956
south 0.0
africa 0.0
durban 0.0
wednesday 0.0
