liverpool 0.0
winger 0.0
harry 0.0
kewell 0.0
is 0.00229281570787
struggling 0.0
to 0.0100113996879
recover 0.0
from 0.0
his 0.0
achilles 0.0
tendinitis 0.0
problem 0.0
and 0.00201185588003
may 0.0
not 0.0
until 0.0
march 0.0
claims 0.0
agent 0.0
26 0.0
had 0.0
hoped 0.0
play 0.00575054714671
against 0.00459110742608
fulham 0.0
last 0.00376799822873
weekend 0.0
be 0.0100440711715
ready 0.0
for 0.00213765128896
the 0.0219202477041
champions 0.0
league 0.0
tie 0.00951853883061
bayer 0.0
leverkusen 0.0
on 0.00218839174898
22 0.0
february 0.0
but 0.00260830604016
bernie 0.0
mandic 0.0
said 0.00231616199756
he 0.0
scans 0.0
which 0.0
don 0.0
show 0.0
anything 0.0
substantial 0.0
despite 0.0
best 0.00545954279519
efforts 0.0
at 0.0049149705507
moment 0.0
simply 0.0
can 0.0
shake 0.0
off 0.0
discomfort 0.0
get 0.0
back 0.0
park 0.0
continued 0.0
in 0.0120653772744
sydney 0.0
morning 0.0
herald 0.0
bit 0.0
club 0.0
are 0.0
doing 0.0
everything 0.0
they 0.00332703985796
him 0.0
right 0.0
was 0.00246349659149
desperate 0.0
fit 0.0
game 0.0
as 0.00780552709025
part 0.0
of 0.00401987401342
plan 0.0
himself 0.0
match 0.0139273061755
has 0.00476651326119
played 0.00658693837154
since 0.0
december 0.0
19 0.0
misses 0.0
out 0.0
international 0.0
duty 0.0
this 0.0
week 0.0
with 0.0
australia 0.0
facing 0.0
south 0.0
africa 0.0
durban 0.0
wednesday 0.0
