liverpool 0.0
winger 0.0
harry 0.0
kewell 0.0
is 0.00138260073551
struggling 0.0
to 0.00965922801341
recover 0.0
from 0.00488880745802
his 0.00424515203998
achilles 0.0
tendinitis 0.0
problem 0.0
and 0.00485271172894
may 0.0
not 0.0
until 0.0
march 0.0
claims 0.00426338133297
agent 0.0
26 0.0
had 0.0134243232476
hoped 0.0
play 0.0
against 0.00553700716748
fulham 0.0
last 0.00227215693985
weekend 0.0
be 0.0
ready 0.0
for 0.00644517183443
the 0.0228314770504
champions 0.0
league 0.0
tie 0.0
bayer 0.0
leverkusen 0.0
on 0.00263926318311
22 0.0
february 0.0
but 0.0047185377837
bernie 0.0
mandic 0.0
said 0.00279335776564
he 0.0105002447132
scans 0.0
which 0.0
don 0.0
show 0.0
anything 0.0
substantial 0.0
despite 0.0
best 0.0
efforts 0.0
at 0.0
moment 0.0
simply 0.0
can 0.0
shake 0.0
off 0.0
discomfort 0.0
get 0.00285609474568
back 0.0
park 0.0
continued 0.0
in 0.0036377977167
sydney 0.0
morning 0.0
herald 0.0
bit 0.0
club 0.0
are 0.0
doing 0.0
everything 0.0
they 0.0
him 0.00977036953122
right 0.0
was 0.00594209501903
desperate 0.0
fit 0.0
game 0.0
as 0.0
part 0.0
of 0.0072721249447
plan 0.0
himself 0.0
match 0.0
has 0.00431141372468
played 0.0
since 0.00301622917138
december 0.0
19 0.0
misses 0.0
out 0.0
international 0.0
duty 0.0
this 0.0
week 0.0
with 0.00287288137872
australia 0.0
facing 0.0
south 0.0
africa 0.0
durban 0.0
wednesday 0.0
