liverpool 0.0
winger 0.0
harry 0.0
kewell 0.0
is 0.00368855727921
struggling 0.0
to 0.0107371970825
recover 0.0
from 0.00289834558771
his 0.00377512853284
achilles 0.0
tendinitis 0.0
problem 0.0
and 0.0064731287609
may 0.0
not 0.00317957574372
until 0.0
march 0.00375924669961
claims 0.0
agent 0.0111430266201
26 0.0
had 0.0
hoped 0.0
play 0.0
against 0.0
fulham 0.0
last 0.0
weekend 0.0
be 0.00538611857688
ready 0.0
for 0.00573156199403
the 0.022440792804
champions 0.0
league 0.0
tie 0.0
bayer 0.0
leverkusen 0.0
on 0.00586760948396
22 0.0
february 0.0
but 0.0
bernie 0.0
mandic 0.0
said 0.00372611552102
he 0.0031125523142
scans 0.0
which 0.00160990346218
don 0.0
show 0.0
anything 0.0
substantial 0.0
despite 0.0
best 0.0
efforts 0.0
at 0.0026356458189
moment 0.0
simply 0.0
can 0.00215973213702
shake 0.0
off 0.0
discomfort 0.0
get 0.00253986775159
back 0.0
park 0.0
continued 0.0
in 0.00431336069244
sydney 0.0
morning 0.0
herald 0.0
bit 0.0
club 0.0
are 0.00153397947857
doing 0.0
everything 0.0
they 0.0
him 0.0
right 0.0
was 0.001321046469
desperate 0.0
fit 0.0
game 0.0
as 0.0
part 0.0
of 0.00970043220406
plan 0.0
himself 0.0
match 0.0
has 0.00127801790652
played 0.0
since 0.0
december 0.0
19 0.0
misses 0.0
out 0.0
international 0.0
duty 0.0
this 0.00161584255192
week 0.0
with 0.0038321936513
australia 0.0
facing 0.0
south 0.0
africa 0.0
durban 0.0
wednesday 0.0
