liverpool 0.0
winger 0.0
harry 0.0
kewell 0.0
is 0.00294797363551
struggling 0.0
to 0.00772325718978
recover 0.0
from 0.00231641960051
his 0.0045257448413
achilles 0.0
tendinitis 0.0
problem 0.0
and 0.00948468133116
may 0.0
not 0.00127059236919
until 0.0
march 0.0
claims 0.0
agent 0.0
26 0.0
had 0.0
hoped 0.0
play 0.00246457682579
against 0.0
fulham 0.0
last 0.0
weekend 0.0
be 0.00538087603108
ready 0.0
for 0.00458078657039
the 0.0264757126108
champions 0.0
league 0.0
tie 0.0
bayer 0.0
leverkusen 0.0
on 0.00468951862553
22 0.0
february 0.002989442375
but 0.00335361338172
bernie 0.0
mandic 0.0
said 0.00198532732219
he 0.00621904546062
scans 0.0
which 0.0
don 0.0
show 0.0
anything 0.0
substantial 0.0
despite 0.0
best 0.0140391468594
efforts 0.0
at 0.00105323217162
moment 0.0
simply 0.0
can 0.00345220795979
shake 0.0
off 0.00444583707313
discomfort 0.0
get 0.00202991646939
back 0.0
park 0.0
continued 0.0
in 0.00517099477082
sydney 0.0
morning 0.0
herald 0.0
bit 0.0
club 0.0
are 0.00122598911117
doing 0.0
everything 0.0
they 0.0
him 0.0
right 0.0
was 0.00211161701832
desperate 0.0
fit 0.0
game 0.0
as 0.00334530274927
part 0.0
of 0.00861421364204
plan 0.0
himself 0.0
match 0.0
has 0.00408567665776
played 0.0
since 0.0
december 0.0
19 0.0
misses 0.0
out 0.00303833842216
international 0.0
duty 0.0
this 0.0
week 0.0
with 0.00408369451615
australia 0.0
facing 0.0
south 0.0
africa 0.0
durban 0.0
wednesday 0.00299442230308
