liverpool 0.0
winger 0.0
harry 0.0
kewell 0.0
is 0.00207877417991
struggling 0.0
to 0.00847168389106
recover 0.0
from 0.00163343158751
his 0.00531890867207
achilles 0.0
tendinitis 0.0
problem 0.00210452475341
and 0.00547212849611
may 0.0
not 0.000895962765221
until 0.0
march 0.0
claims 0.0
agent 0.0
26 0.0
had 0.0105724666002
hoped 0.0
play 0.0
against 0.0027750087783
fulham 0.0
last 0.0
weekend 0.0
be 0.00151773761121
ready 0.0
for 0.0025841264607
the 0.0289075257042
champions 0.0
league 0.0
tie 0.0
bayer 0.0
leverkusen 0.0
on 0.00396819704933
22 0.0
february 0.00421603202052
but 0.0
bernie 0.0
mandic 0.0
said 0.006299823061
he 0.00263122932407
scans 0.0
which 0.000907299384556
don 0.00179758170316
show 0.0
anything 0.00232986379526
substantial 0.0
despite 0.0
best 0.0
efforts 0.0
at 0.00222807132748
moment 0.0
simply 0.0
can 0.0
shake 0.0
off 0.0
discomfort 0.0
get 0.0
back 0.00140795776195
park 0.0
continued 0.0
in 0.00729269100954
sydney 0.0
morning 0.0
herald 0.0
bit 0.0
club 0.0
are 0.0
doing 0.0
everything 0.0
they 0.00100548342205
him 0.00326444237188
right 0.0
was 0.00521155009302
desperate 0.0
fit 0.0
game 0.0
as 0.0
part 0.0
of 0.00607434363849
plan 0.0022406538508
himself 0.0
match 0.0
has 0.000720257386406
played 0.0
since 0.0
december 0.0
19 0.0
misses 0.0
out 0.0
international 0.0
duty 0.0
this 0.0
week 0.00156749897699
with 0.00431944774703
australia 0.0
facing 0.0
south 0.0
africa 0.0
durban 0.0
wednesday 0.0
