liverpool 0.0
winger 0.0
harry 0.0
kewell 0.0
is 0.00528373269928
struggling 0.0
to 0.0128172243303
recover 0.0
from 0.00138392711986
his 0.0
achilles 0.0
tendinitis 0.0
problem 0.0
and 0.00360598642687
may 0.00260657134663
not 0.0030364226544
until 0.0
march 0.0
claims 0.0
agent 0.0
26 0.0
had 0.000814321510384
hoped 0.0
play 0.0
against 0.0
fulham 0.0
last 0.000964805723065
weekend 0.0
be 0.00450066834737
ready 0.0
for 0.00273675579488
the 0.0219406964447
champions 0.0
league 0.0
tie 0.0
bayer 0.0
leverkusen 0.0
on 0.00168103015625
22 0.0
february 0.0
but 0.0013357270584
bernie 0.0
mandic 0.0
said 0.00237223715633
he 0.000743104200182
scans 0.0
which 0.0015374212593
don 0.0
show 0.00154843043382
anything 0.0
substantial 0.0
despite 0.0
best 0.00139793009826
efforts 0.00446071699669
at 0.00251698192417
moment 0.0
simply 0.0
can 0.0
shake 0.0
off 0.0
discomfort 0.0
get 0.0
back 0.0
park 0.0
continued 0.0
in 0.00978300866203
sydney 0.0
morning 0.0
herald 0.0
bit 0.0
club 0.0
are 0.0
doing 0.00182292094087
everything 0.0
they 0.000851897188101
him 0.0
right 0.0
was 0.00063078469414
desperate 0.0
fit 0.0
game 0.0
as 0.00399725092799
part 0.00270061518444
of 0.00514649585632
plan 0.0
himself 0.0
match 0.0
has 0.00244095617583
played 0.0
since 0.00128075447413
december 0.0
19 0.0
misses 0.0
out 0.000907615990822
international 0.0
duty 0.0
this 0.0
week 0.0
with 0.00182982897039
australia 0.0
facing 0.0
south 0.0
africa 0.0
durban 0.0
wednesday 0.0
