liverpool 0.0
winger 0.0
harry 0.0
kewell 0.0
is 0.00458954788682
struggling 0.0
to 0.00901795515258
recover 0.0
from 0.0
his 0.0
achilles 0.0
tendinitis 0.0
problem 0.0
and 0.00906108369721
may 0.0
not 0.0
until 0.0
march 0.0
claims 0.0
agent 0.0
26 0.0
had 0.0
hoped 0.0
play 0.0
against 0.0
fulham 0.0
last 0.0
weekend 0.0
be 0.00251316238926
ready 0.0
for 0.0
the 0.0199445174816
champions 0.0
league 0.0
tie 0.0
bayer 0.0
leverkusen 0.0
on 0.00438052159735
22 0.0
february 0.0
but 0.0
bernie 0.0
mandic 0.0
said 0.0
he 0.0
scans 0.0
which 0.00150236158887
don 0.0
show 0.00605247883161
anything 0.0
substantial 0.0
despite 0.0
best 0.0
efforts 0.0
at 0.00245958415097
moment 0.0
simply 0.0
can 0.00201546159825
shake 0.0
off 0.0
discomfort 0.0
get 0.0
back 0.00233138222764
park 0.0
continued 0.0
in 0.00704414783688
sydney 0.0
morning 0.0
herald 0.0
bit 0.0
club 0.0
are 0.0
doing 0.0
everything 0.0
they 0.0
him 0.0
right 0.0
was 0.0
desperate 0.0
fit 0.0
game 0.0
as 0.0065101613269
part 0.00263902980063
of 0.00502913410688
plan 0.0
himself 0.0
match 0.0
has 0.00477058421885
played 0.00329628205398
since 0.0
december 0.0
19 0.0
misses 0.0
out 0.0
international 0.0
duty 0.0
this 0.0
week 0.0
with 0.00476826979842
australia 0.0
facing 0.0
south 0.0
africa 0.0
durban 0.0
wednesday 0.0
