liverpool 0.0
winger 0.0
harry 0.0
kewell 0.0
is 0.00415882034633
struggling 0.0
to 0.0121061082448
recover 0.0
from 0.00245089699477
his 0.00106410719449
achilles 0.0
tendinitis 0.0
problem 0.0
and 0.00486560237648
may 0.0
not 0.00268871064512
until 0.0
march 0.0
claims 0.0
agent 0.0
26 0.0
had 0.00192285476495
hoped 0.0
play 0.00173843689183
against 0.0
fulham 0.0
last 0.00113909632632
weekend 0.0
be 0.00683190880835
ready 0.0
for 0.000646229266152
the 0.0222897017629
champions 0.0
league 0.0
tie 0.0
bayer 0.0
leverkusen 0.0
on 0.00132313703484
22 0.0
february 0.0
but 0.00236553600711
bernie 0.0
mandic 0.0
said 0.00630175046851
he 0.00438672389821
scans 0.0
which 0.0045378848472
don 0.00179813166662
show 0.0
anything 0.0
substantial 0.0
despite 0.00181725785626
best 0.0
efforts 0.0
at 0.00297167066353
moment 0.0
simply 0.0
can 0.00121754079904
shake 0.0
off 0.00156797854749
discomfort 0.0
get 0.0
back 0.00140838852141
park 0.0
continued 0.0
in 0.00607910181777
sydney 0.0
morning 0.0
herald 0.0
bit 0.0
club 0.0
are 0.0
doing 0.0
everything 0.0
they 0.00201158209196
him 0.0
right 0.0
was 0.00521314454745
desperate 0.0
fit 0.0
game 0.0
as 0.00157311596127
part 0.00159423848857
of 0.0121524041228
plan 0.0
himself 0.0
match 0.0
has 0.00288191098593
played 0.0
since 0.00151212071147
december 0.00199128472076
19 0.0
misses 0.0
out 0.0
international 0.0
duty 0.0
this 0.0
week 0.0
with 0.00072012821101
australia 0.0
facing 0.0
south 0.0
africa 0.0
durban 0.0
wednesday 0.00211217363845
