liverpool 0.0
winger 0.0
harry 0.0
kewell 0.0
is 0.00204635201903
struggling 0.0
to 0.00491437944264
recover 0.0
from 0.00482386599661
his 0.00628314105801
achilles 0.0
tendinitis 0.0
problem 0.0
and 0.00808017145724
may 0.00227138963936
not 0.00198447444192
until 0.0
march 0.0
claims 0.0
agent 0.0
26 0.0
had 0.00283842825816
hoped 0.0
play 0.0
against 0.0
fulham 0.0
last 0.0
weekend 0.0
be 0.0
ready 0.0
for 0.00381573365547
the 0.0115605188159
champions 0.0
league 0.0
tie 0.0
bayer 0.0
leverkusen 0.0
on 0.0034180177467
22 0.0
february 0.0
but 0.00116396453348
bernie 0.0
mandic 0.0
said 0.00516797181281
he 0.0058279289577
scans 0.0
which 0.000669861334167
don 0.0
show 0.0
anything 0.00172014408572
substantial 0.0
despite 0.0
best 0.0
efforts 0.0
at 0.00328998092019
moment 0.0
simply 0.0
can 0.0
shake 0.0
off 0.00231457658609
discomfort 0.0
get 0.00317042463848
back 0.00103949862739
park 0.0
continued 0.0
in 0.00493552715686
sydney 0.0
morning 0.0
herald 0.0
bit 0.0
club 0.0
are 0.000638270284051
doing 0.0
everything 0.00357736985102
they 0.00296940338787
him 0.00120507285674
right 0.00132715892731
was 0.0038477000622
desperate 0.0
fit 0.0
game 0.0
as 0.003483240294
part 0.00117667014137
of 0.00448470262752
plan 0.0
himself 0.00177158145769
match 0.0
has 0.00159530332109
played 0.0
since 0.0
december 0.0
19 0.0
misses 0.0
out 0.0
international 0.0
duty 0.0
this 0.000672332517482
week 0.0
with 0.000531509789738
australia 0.0
facing 0.0
south 0.0
africa 0.0
durban 0.0
wednesday 0.0
