liverpool 0.0
winger 0.0
harry 0.0
kewell 0.0
is 0.00323241236782
struggling 0.0
to 0.00752750650576
recover 0.0
from 0.00126996104639
his 0.00165413889984
achilles 0.0
tendinitis 0.0
problem 0.0
and 0.00189087673774
may 0.00239192080806
not 0.00557274792307
until 0.0
march 0.0
claims 0.0
agent 0.0
26 0.0
had 0.0
hoped 0.0
play 0.0
against 0.00215751493897
fulham 0.0
last 0.00177070839647
weekend 0.0
be 0.00118001124726
ready 0.0
for 0.00100455383902
the 0.0299667129191
champions 0.0
league 0.0
tie 0.0
bayer 0.0
leverkusen 0.0
on 0.00205679695662
22 0.0
february 0.0
but 0.00490292099467
bernie 0.0
mandic 0.0
said 0.00544220995833
he 0.0
scans 0.0
which 0.0
don 0.0
show 0.0
anything 0.0
substantial 0.0
despite 0.0
best 0.0
efforts 0.0
at 0.00461941810704
moment 0.0
simply 0.0
can 0.00189264916943
shake 0.0
off 0.0
discomfort 0.0
get 0.0
back 0.0
park 0.0
continued 0.0
in 0.0113398486674
sydney 0.0
morning 0.0
herald 0.0
bit 0.0
club 0.0
are 0.0013442801245
doing 0.0
everything 0.0
they 0.0
him 0.0
right 0.0
was 0.00347303833584
desperate 0.0
fit 0.0
game 0.0
as 0.00122269275078
part 0.0
of 0.00850082963503
plan 0.0
himself 0.0
match 0.0
has 0.00223994400771
played 0.0
since 0.00470113857524
december 0.0
19 0.0
misses 0.0
out 0.0
international 0.0
duty 0.0
this 0.00141601961252
week 0.0
with 0.0
australia 0.0
facing 0.0
south 0.0
africa 0.0
durban 0.0
wednesday 0.0
