liverpool 0.0
winger 0.0
harry 0.0
kewell 0.0
is 0.00266612425504
struggling 0.0
to 0.00698485328143
recover 0.0
from 0.0
his 0.0
achilles 0.0
tendinitis 0.0
problem 0.0
and 0.00584854873093
may 0.0
not 0.00172367067312
until 0.0
march 0.00407582885984
claims 0.0
agent 0.0
26 0.0
had 0.0
hoped 0.0
play 0.0
against 0.00533861610602
fulham 0.0
last 0.0
weekend 0.0
be 0.00145992663506
ready 0.0
for 0.00497139297395
the 0.0278064313736
champions 0.0
league 0.0
tie 0.0
bayer 0.0
leverkusen 0.0
on 0.00254469833815
22 0.0
february 0.0
but 0.00303298166283
bernie 0.0
mandic 0.0
said 0.00538654341829
he 0.00337467358853
scans 0.0
which 0.00174548028289
don 0.0
show 0.0
anything 0.0
substantial 0.0
despite 0.0
best 0.0
efforts 0.0
at 0.00285760476803
moment 0.00466083666953
simply 0.0
can 0.00702483710993
shake 0.0
off 0.0
discomfort 0.0
get 0.0
back 0.0
park 0.0
continued 0.0
in 0.00467660714977
sydney 0.0
morning 0.0
herald 0.0
bit 0.0
club 0.0
are 0.0
doing 0.0
everything 0.00466083666953
they 0.00193436865256
him 0.0
right 0.0
was 0.00572918965292
desperate 0.0
fit 0.0
game 0.0
as 0.0
part 0.0
of 0.00934875277817
plan 0.0
himself 0.0
match 0.0
has 0.00138564523241
played 0.0
since 0.00290815762862
december 0.00382970076892
19 0.0
misses 0.0
out 0.0
international 0.0
duty 0.0
this 0.00175191952865
week 0.0
with 0.0
australia 0.0
facing 0.0
south 0.0
africa 0.0
durban 0.0
wednesday 0.0
