liverpool 0.0
winger 0.0
harry 0.0
kewell 0.0
is 0.00123177978773
struggling 0.0
to 0.0139840211859
recover 0.0
from 0.00145183736183
his 0.0
achilles 0.0
tendinitis 0.0
problem 0.0
and 0.00972754617963
may 0.0
not 0.0
until 0.00695792461224
march 0.0
claims 0.0
agent 0.0
26 0.0
had 0.0
hoped 0.0
play 0.0
against 0.0
fulham 0.0
last 0.00202429878791
weekend 0.0
be 0.00539602193631
ready 0.00469458071094
for 0.00114842010281
the 0.0299760723819
champions 0.0
league 0.0
tie 0.0
bayer 0.0
leverkusen 0.0
on 0.00117567963041
22 0.0
february 0.0
but 0.00140127209067
bernie 0.0
mandic 0.0
said 0.00622161110444
he 0.0
scans 0.0
which 0.0
don 0.0
show 0.0
anything 0.0
substantial 0.0
despite 0.0
best 0.0
efforts 0.00467960740373
at 0.0
moment 0.0
simply 0.0
can 0.0
shake 0.0
off 0.0
discomfort 0.0
get 0.0
back 0.0
park 0.0
continued 0.00895401967326
in 0.0108032289781
sydney 0.0
morning 0.0
herald 0.0
bit 0.0
club 0.0
are 0.00307359995814
doing 0.0
everything 0.0
they 0.0
him 0.0
right 0.0
was 0.00132347545341
desperate 0.0
fit 0.0
game 0.0
as 0.00139779958028
part 0.0
of 0.00755865305566
plan 0.0
himself 0.0
match 0.0
has 0.00256073555015
played 0.0
since 0.00268720392885
december 0.0
19 0.0
misses 0.0
out 0.0
international 0.00314821107335
duty 0.0
this 0.0
week 0.0
with 0.0025594932246
australia 0.0
facing 0.0
south 0.0
africa 0.0
durban 0.0
wednesday 0.0
