liverpool 0.0
winger 0.0
harry 0.0
kewell 0.0
is 0.000931702438847
struggling 0.0
to 0.00895005213092
recover 0.0
from 0.0
his 0.0
achilles 0.0
tendinitis 0.0
problem 0.0
and 0.00408766178547
may 0.0
not 0.0
until 0.0
march 0.0
claims 0.0
agent 0.0
26 0.0
had 0.00129233411751
hoped 0.0
play 0.00233677690837
against 0.00186563009456
fulham 0.0
last 0.00153115364974
weekend 0.0
be 0.00102037045262
ready 0.0
for 0.00434325120963
the 0.0226735168278
champions 0.0
league 0.0
tie 0.0
bayer 0.0
leverkusen 0.0
on 0.00444634499555
22 0.0
february 0.0
but 0.0
bernie 0.0
mandic 0.0
said 0.00188237874896
he 0.00117931173193
scans 0.0
which 0.00609974660205
don 0.0
show 0.0
anything 0.0
substantial 0.0
despite 0.0
best 0.0
efforts 0.0
at 0.000998617122438
moment 0.0
simply 0.0
can 0.0
shake 0.0
off 0.0
discomfort 0.0
get 0.0
back 0.00189313157718
park 0.0
continued 0.0
in 0.00326856955653
sydney 0.0
morning 0.0
herald 0.0
bit 0.0
club 0.0
are 0.00116241580093
doing 0.0
everything 0.0
they 0.0
him 0.0
right 0.0
was 0.00400423945895
desperate 0.0
fit 0.0
game 0.0
as 0.0021145553628
part 0.00214294789995
of 0.0122512891332
plan 0.0
himself 0.0
match 0.0
has 0.00484226884765
played 0.0
since 0.0
december 0.0
19 0.0
misses 0.0
out 0.00144039313168
international 0.0
duty 0.0
this 0.0
week 0.00210764973974
with 0.00290395178991
australia 0.0
facing 0.0
south 0.0
africa 0.0
durban 0.0
wednesday 0.00567829480381
