liverpool 0.0
winger 0.0
harry 0.0
kewell 0.0
is 0.00487780730888
struggling 0.0
to 0.0103450160533
recover 0.0
from 0.00246395487432
his 0.0
achilles 0.0
tendinitis 0.0
problem 0.0
and 0.00733728797106
may 0.00309384026688
not 0.00450505924554
until 0.0
march 0.0
claims 0.0
agent 0.0
26 0.0
had 0.00193309934314
hoped 0.0
play 0.0
against 0.0
fulham 0.0
last 0.00114516519933
weekend 0.0
be 0.00686830782574
ready 0.0
for 0.0
the 0.0211971888175
champions 0.0
league 0.0
tie 0.0
bayer 0.0
leverkusen 0.0
on 0.000665093219613
22 0.0
february 0.0
but 0.00237813910072
bernie 0.0
mandic 0.0
said 0.00492747493026
he 0.0
scans 0.0
which 0.0
don 0.00180771174557
show 0.0
anything 0.0
substantial 0.0
despite 0.0
best 0.00165925725911
efforts 0.0
at 0.0
moment 0.0
simply 0.0
can 0.0
shake 0.0
off 0.0
discomfort 0.0
get 0.0
back 0.00424767638503
park 0.0
continued 0.0
in 0.00733378803958
sydney 0.0
morning 0.00272816984477
herald 0.0
bit 0.0
club 0.0
are 0.00173876491442
doing 0.0
everything 0.0
they 0.00101114969563
him 0.0
right 0.0
was 0.00524091911886
desperate 0.0
fit 0.0
game 0.0
as 0.000790748601211
part 0.0
of 0.00427600237912
plan 0.0
himself 0.0
match 0.0
has 0.00362158152521
played 0.0
since 0.00152017698237
december 0.0
19 0.0
misses 0.0
out 0.0
international 0.00178097313641
duty 0.0
this 0.0
week 0.0
with 0.000723964907314
australia 0.0
facing 0.0
south 0.0
africa 0.0
durban 0.0
wednesday 0.0
