liverpool 0.0
winger 0.0
harry 0.0
kewell 0.0
is 0.00878674882786
struggling 0.0
to 0.0153466594233
recover 0.00637698856759
from 0.00172608372107
his 0.00674473182197
achilles 0.0
tendinitis 0.0
problem 0.0
and 0.00642502296595
may 0.0
not 0.0
until 0.0
march 0.0
claims 0.0
agent 0.0
26 0.00559942273735
had 0.00203130220171
hoped 0.0
play 0.00367296662262
against 0.0
fulham 0.0
last 0.0
weekend 0.0
be 0.00320765461328
ready 0.0
for 0.00546140854764
the 0.0165464159654
champions 0.0
league 0.0
tie 0.0
bayer 0.0
leverkusen 0.0
on 0.00279552176381
22 0.0
february 0.0
but 0.0033319337387
bernie 0.0
mandic 0.0
said 0.00295873957471
he 0.0111219156956
scans 0.0
which 0.0019175271371
don 0.0
show 0.0
anything 0.0
substantial 0.0
despite 0.0
best 0.0
efforts 0.0
at 0.0
moment 0.0
simply 0.0
can 0.00514483641896
shake 0.0
off 0.0
discomfort 0.0
get 0.0
back 0.00297564096526
park 0.0
continued 0.0
in 0.00899074146668
sydney 0.0
morning 0.0
herald 0.0
bit 0.0
club 0.0
are 0.0
doing 0.0
everything 0.0
they 0.0
him 0.00344960932528
right 0.0
was 0.00314694950746
desperate 0.0
fit 0.011426962406
game 0.00367296662262
as 0.00332367683086
part 0.0
of 0.00256755795609
plan 0.0
himself 0.0
match 0.0
has 0.00304444840951
played 0.00420718310218
since 0.0
december 0.0
19 0.0
misses 0.0
out 0.00226402267035
international 0.0
duty 0.0
this 0.00192460108036
week 0.0
with 0.00152148570678
australia 0.0
facing 0.0
south 0.0
africa 0.0
durban 0.0
wednesday 0.0
