liverpool 0.0
winger 0.0
harry 0.0
kewell 0.0
is 0.00828920334986
struggling 0.0
to 0.0144776621243
recover 0.0
from 0.00366377636337
his 0.00954422188022
achilles 0.0
tendinitis 0.0
problem 0.0
and 0.0027275440918
may 0.0
not 0.00535903632049
until 0.0
march 0.0
claims 0.00319506871357
agent 0.00939054282563
26 0.0
had 0.00574884203869
hoped 0.0
play 0.00779621992325
against 0.0
fulham 0.0
last 0.0
weekend 0.0
be 0.00340427553153
ready 0.0
for 0.00676220853423
the 0.0144087535589
champions 0.00394899463188
league 0.0
tie 0.0
bayer 0.0
leverkusen 0.0
on 0.0
22 0.0
february 0.0
but 0.00589362107564
bernie 0.0
mandic 0.0
said 0.00209340176394
he 0.0131151781288
scans 0.0
which 0.0
don 0.0
show 0.0
anything 0.0
substantial 0.0
despite 0.0
best 0.0
efforts 0.0
at 0.00333169960631
moment 0.0
simply 0.00349917670799
can 0.00182006718785
shake 0.0
off 0.0
discomfort 0.0
get 0.00214041819209
back 0.00210536003194
park 0.00405665067031
continued 0.00376597802878
in 0.00999622446713
sydney 0.0
morning 0.0
herald 0.0
bit 0.0
club 0.0130069023057
are 0.002585455546
doing 0.0
everything 0.0
they 0.0
him 0.00244070762705
right 0.0
was 0.00445313247997
desperate 0.0
fit 0.0
game 0.00259873997442
as 0.00235160640699
part 0.0023831818736
of 0.00817482782233
plan 0.0
himself 0.0
match 0.0
has 0.0064621304205
played 0.0
since 0.00452085267809
december 0.0
19 0.0
misses 0.0
out 0.0
international 0.0
duty 0.0
this 0.00272343218777
week 0.0
with 0.00322949767827
australia 0.0
facing 0.0
south 0.0
africa 0.0
durban 0.0
wednesday 0.0
