liverpool 0.0
winger 0.0
harry 0.0
kewell 0.0
is 0.00169939596601
struggling 0.0
to 0.0111304184972
recover 0.0
from 0.00100149660701
his 0.00130446087337
achilles 0.0
tendinitis 0.0
problem 0.0
and 0.00894691995084
may 0.0
not 0.00219734619127
until 0.0
march 0.0
claims 0.0
agent 0.0
26 0.0
had 0.00353576522041
hoped 0.0
play 0.0
against 0.0
fulham 0.0
last 0.0
weekend 0.0
be 0.00372224727277
ready 0.0
for 0.00792195370246
the 0.0125544338483
champions 0.0
league 0.0
tie 0.0
bayer 0.0
leverkusen 0.0
on 0.00567699546949
22 0.0
february 0.0
but 0.00289984804331
bernie 0.00455126245224
mandic 0.0
said 0.00600844943455
he 0.00537756883622
scans 0.0
which 0.00111257460934
don 0.0
show 0.0
anything 0.0
substantial 0.0
despite 0.0
best 0.0
efforts 0.0
at 0.0
moment 0.0
simply 0.0
can 0.00298510214441
shake 0.0
off 0.0
discomfort 0.0
get 0.00526576736658
back 0.0
park 0.0
continued 0.0
in 0.00521654712542
sydney 0.0
morning 0.0
herald 0.0
bit 0.0
club 0.0
are 0.00424041977472
doing 0.00263836022999
everything 0.0
they 0.00123297264886
him 0.0
right 0.0
was 0.0045647543275
desperate 0.0
fit 0.0
game 0.0
as 0.000964220630862
part 0.0
of 0.00893838653342
plan 0.0
himself 0.00294242471937
match 0.0
has 0.000883214619059
played 0.0
since 0.0
december 0.0
19 0.0
misses 0.0
out 0.00131361590105
international 0.0
duty 0.0
this 0.00335003701436
week 0.0
with 0.000882786132764
australia 0.0
facing 0.0
south 0.0
africa 0.0
durban 0.0
wednesday 0.0
