liverpool 0.0
winger 0.0
harry 0.0
kewell 0.0
is 0.00159434305471
struggling 0.0
to 0.00974620319795
recover 0.0
from 0.0018791725903
his 0.00979057582902
achilles 0.0
tendinitis 0.0
problem 0.0
and 0.00279794702941
may 0.0
not 0.00206151109506
until 0.0
march 0.0
claims 0.0
agent 0.0
26 0.0
had 0.0
hoped 0.0
play 0.00799745472143
against 0.00319249393358
fulham 0.0
last 0.00262013287221
weekend 0.0
be 0.00174607307712
ready 0.0
for 0.00297289439727
the 0.0152425659701
champions 0.0
league 0.00553419560305
tie 0.0
bayer 0.0
leverkusen 0.0
on 0.00608692128895
22 0.0
february 0.0
but 0.00181372388779
bernie 0.0
mandic 0.0
said 0.0032211544798
he 0.00807222302203
scans 0.0
which 0.0
don 0.0
show 0.0
anything 0.0
substantial 0.0
despite 0.00418003020154
best 0.0
efforts 0.0
at 0.00683539382141
moment 0.0
simply 0.0
can 0.00560113942451
shake 0.0
off 0.0
discomfort 0.0
get 0.0
back 0.0129582195168
park 0.0
continued 0.0
in 0.0139830619573
sydney 0.0
morning 0.0
herald 0.0
bit 0.0
club 0.0
are 0.0
doing 0.0
everything 0.0
they 0.0
him 0.00375556018065
right 0.00413603641713
was 0.00171302851226
desperate 0.0
fit 0.0
game 0.00399872736071
as 0.00180922927531
part 0.0
of 0.00419291759392
plan 0.0
himself 0.0
match 0.0
has 0.0116006273442
played 0.00916064854965
since 0.0
december 0.0
19 0.0
misses 0.0
out 0.00246482212538
international 0.00407485859854
duty 0.0
this 0.00419059348434
week 0.0
with 0.00496928544394
australia 0.0
facing 0.0
south 0.0
africa 0.0
durban 0.0
wednesday 0.0
