liverpool 0.0
winger 0.0
harry 0.0
kewell 0.0
is 0.0
struggling 0.0
to 0.0156517845365
recover 0.0
from 0.0
his 0.00366871030618
achilles 0.0
tendinitis 0.0
problem 0.0
and 0.00314532789966
may 0.00265251742793
not 0.00154497286632
until 0.0
march 0.0
claims 0.00368446427551
agent 0.0
26 0.0
had 0.0016573511414
hoped 0.0
play 0.0
against 0.0023925733483
fulham 0.0
last 0.0
weekend 0.0
be 0.00130857191758
ready 0.0
for 0.00334199596783
the 0.0270006317752
champions 0.0
league 0.0
tie 0.0
bayer 0.0
leverkusen 0.0
on 0.00456176454902
22 0.0
february 0.0
but 0.00407781583182
bernie 0.0
mandic 0.0
said 0.00724215787358
he 0.019661275703
scans 0.0
which 0.00312904282451
don 0.003099699077
show 0.0
anything 0.0
substantial 0.0
despite 0.0
best 0.0
efforts 0.0
at 0.0
moment 0.0
simply 0.0
can 0.00209885080223
shake 0.0
off 0.0
discomfort 0.0
get 0.0
back 0.0
park 0.0
continued 0.0
in 0.00628765511781
sydney 0.0
morning 0.0
herald 0.0
bit 0.0
club 0.0
are 0.00298147534503
doing 0.0
everything 0.0
they 0.0
him 0.0
right 0.0
was 0.00385142128561
desperate 0.0
fit 0.0
game 0.0
as 0.0
part 0.0
of 0.00314232794034
plan 0.0
himself 0.0
match 0.0
has 0.00248398295545
played 0.0
since 0.0
december 0.0
19 0.0
misses 0.0
out 0.00184722910933
international 0.0
duty 0.0
this 0.00157029308321
week 0.0
with 0.00248277786597
australia 0.0
facing 0.0
south 0.0
africa 0.0
durban 0.0
wednesday 0.0
