liverpool 0.0
winger 0.0
harry 0.0
kewell 0.0
is 0.00163615418843
struggling 0.0
to 0.00857296649274
recover 0.0
from 0.000964226643483
his 0.00125591631632
achilles 0.0
tendinitis 0.0
problem 0.0
and 0.00646047515288
may 0.0
not 0.00317336034053
until 0.0
march 0.0
claims 0.00252261880297
agent 0.0
26 0.0
had 0.00567364050754
hoped 0.0
play 0.0
against 0.00163810802999
fulham 0.0
last 0.0
weekend 0.0
be 0.000895931640935
ready 0.0
for 0.00457628639471
the 0.0156422973592
champions 0.0
league 0.0
tie 0.0
bayer 0.0
leverkusen 0.0
on 0.00234245581561
22 0.0
february 0.0
but 0.000930644106644
bernie 0.0
mandic 0.0
said 0.00495844232972
he 0.00103548930925
scans 0.0
which 0.00321351287766
don 0.0
show 0.0
anything 0.0
substantial 0.0
despite 0.0
best 0.0
efforts 0.00310792534918
at 0.0
moment 0.0
simply 0.00276272272988
can 0.0
shake 0.0
off 0.00185061228007
discomfort 0.0
get 0.00168993522884
back 0.00166225558188
park 0.0
continued 0.00297337172958
in 0.0121972987701
sydney 0.0
morning 0.0
herald 0.0
bit 0.0
club 0.0
are 0.00102065391378
doing 0.0
everything 0.0
they 0.0
him 0.00192702426912
right 0.0
was 0.00615283246874
desperate 0.0
fit 0.0
game 0.0
as 0.0
part 0.0
of 0.0114743346906
plan 0.0
himself 0.0
match 0.0
has 0.00255103929953
played 0.0
since 0.00178468586964
december 0.0
19 0.0
misses 0.0
out 0.00126473064635
international 0.0
duty 0.0
this 0.0
week 0.0
with 0.000849933892687
australia 0.0
facing 0.0
south 0.0
africa 0.0
durban 0.0
wednesday 0.0
