liverpool 0.0
winger 0.0
harry 0.0
kewell 0.0
is 0.00993044107153
struggling 0.0
to 0.0202348957549
recover 0.0
from 0.0
his 0.00254087767894
achilles 0.0
tendinitis 0.0
problem 0.0
and 0.0101658347672
may 0.0
not 0.00428007309707
until 0.0
march 0.0
claims 0.0
agent 0.0
26 0.0
had 0.00229569858064
hoped 0.0
play 0.0
against 0.0
fulham 0.0
last 0.0
weekend 0.0
be 0.00362516622918
ready 0.0
for 0.00308613554413
the 0.010069292394
champions 0.0126156903395
league 0.0114899996276
tie 0.0
bayer 0.0
leverkusen 0.0
on 0.0
22 0.0
february 0.0
but 0.00753124330618
bernie 0.0
mandic 0.0
said 0.00167192607689
he 0.00837970376993
scans 0.0
which 0.0
don 0.00429358305174
show 0.0
anything 0.0
substantial 0.0
despite 0.0
best 0.0
efforts 0.0
at 0.00354788112382
moment 0.0
simply 0.0
can 0.0
shake 0.0
off 0.0
discomfort 0.0
get 0.0
back 0.00336295344666
park 0.0
continued 0.0
in 0.0116125549732
sydney 0.0
morning 0.0
herald 0.0
bit 0.00565216306521
club 0.0103881536354
are 0.0
doing 0.00513909673662
everything 0.0
they 0.0
him 0.00389861401477
right 0.0
was 0.0
desperate 0.0
fit 0.0
game 0.0
as 0.0
part 0.0
of 0.00725438483569
plan 0.0
himself 0.0
match 0.0
has 0.00172035846923
played 0.0
since 0.0
december 0.0
19 0.0
misses 0.0
out 0.0
international 0.0
duty 0.0
this 0.0
week 0.0
with 0.00515857154279
australia 0.0
facing 0.0
south 0.0
africa 0.0
durban 0.0
wednesday 0.0
