liverpool 0.0
winger 0.0
harry 0.0
kewell 0.0
is 0.00164176171975
struggling 0.0
to 0.00931921066569
recover 0.0
from 0.00193506260428
his 0.00882154470618
achilles 0.0
tendinitis 0.0
problem 0.0
and 0.00576232613577
may 0.0
not 0.00212282418813
until 0.0
march 0.0
claims 0.0
agent 0.0
26 0.0
had 0.0
hoped 0.0
play 0.0
against 0.00328744451529
fulham 0.0
last 0.00134903019697
weekend 0.0
be 0.0026970067039
ready 0.0
for 0.00229598526673
the 0.0171228083259
champions 0.0
league 0.0
tie 0.0
bayer 0.0
leverkusen 0.0
on 0.00391747338105
22 0.00291333015351
february 0.00249728423393
but 0.0
bernie 0.0
mandic 0.0
said 0.00165847873917
he 0.0
scans 0.0
which 0.00107484214421
don 0.0
show 0.0
anything 0.0
substantial 0.0
despite 0.0
best 0.0
efforts 0.0
at 0.0
moment 0.0
simply 0.0
can 0.0
shake 0.0
off 0.0
discomfort 0.0
get 0.0
back 0.0
park 0.0
continued 0.0
in 0.00575957747077
sydney 0.0
morning 0.0
herald 0.0
bit 0.0
club 0.0
are 0.00204830392711
doing 0.0
everything 0.0
they 0.00119115693863
him 0.00193362868882
right 0.0
was 0.00264596564833
desperate 0.0
fit 0.0
game 0.0
as 0.00186303904776
part 0.0
of 0.00935484895934
plan 0.0
himself 0.0
match 0.0
has 0.000853260794362
played 0.0
since 0.00179080245815
december 0.0
19 0.0
misses 0.0
out 0.0
international 0.0
duty 0.0
this 0.00107880734095
week 0.0
with 0.0
australia 0.0
facing 0.0
south 0.0
africa 0.0
durban 0.0
wednesday 0.0
