liverpool 0.0
winger 0.0
harry 0.0
kewell 0.0
is 0.00434565336574
struggling 0.0
to 0.0129029687681
recover 0.0
from 0.00102440094906
his 0.00333573510719
achilles 0.0
tendinitis 0.0
problem 0.00131984539249
and 0.00877022299124
may 0.0
not 0.00168569981266
until 0.0
march 0.00132868071467
claims 0.0
agent 0.0
26 0.0
had 0.000602771429294
hoped 0.0
play 0.0
against 0.0
fulham 0.0
last 0.0
weekend 0.0
be 0.00380737549401
ready 0.0
for 0.00162062593811
the 0.0245500319764
champions 0.0
league 0.00150843920811
tie 0.0
bayer 0.0
leverkusen 0.0
on 0.0033181880033
22 0.0
february 0.0
but 0.00395489053338
bernie 0.0
mandic 0.0
said 0.00307293168048
he 0.000550055445111
scans 0.0
which 0.00113801931802
don 0.00225469424838
show 0.0
anything 0.0
substantial 0.0
despite 0.0
best 0.0
efforts 0.0
at 0.00279465439497
moment 0.0
simply 0.0
can 0.000763342943046
shake 0.0
off 0.0
discomfort 0.0
get 0.0
back 0.00088299582218
park 0.0
continued 0.0
in 0.00838490738699
sydney 0.0
morning 0.0
herald 0.0
bit 0.0
club 0.0
are 0.0021686993302
doing 0.0
everything 0.00151938759207
they 0.00441409806071
him 0.0
right 0.0
was 0.00373532062523
desperate 0.0
fit 0.0
game 0.0
as 0.00246568116768
part 0.00199903067025
of 0.00723805669488
plan 0.0
himself 0.0
match 0.0
has 0.00361365535402
played 0.0
since 0.0
december 0.0
19 0.0
misses 0.0
out 0.00201548767064
international 0.0
duty 0.0
this 0.00228443516292
week 0.0
with 0.00270892665804
australia 0.0
facing 0.0
south 0.0
africa 0.0
durban 0.0
wednesday 0.00132423721872
