liverpool 0.0
winger 0.0
harry 0.0
kewell 0.0
is 0.0
struggling 0.0
to 0.00204785674417
recover 0.0
from 0.0
his 0.0
achilles 0.0
tendinitis 0.0
problem 0.0
and 0.00205765065858
may 0.0
not 0.0
until 0.0
march 0.0
claims 0.0
agent 0.0
26 0.0
had 0.0
hoped 0.0
play 0.0
against 0.0
fulham 0.0
last 0.0
weekend 0.0
be 0.00385226208286
ready 0.0
for 0.00109315473991
the 0.00713338383923
champions 0.0
league 0.0
tie 0.0
bayer 0.0
leverkusen 0.0
on 0.00223820491727
22 0.0
february 0.00356698904403
but 0.0
bernie 0.0
mandic 0.0
said 0.00118444176518
he 0.0
scans 0.0
which 0.0
don 0.0
show 0.0
anything 0.0
substantial 0.0
despite 0.0
best 0.0
efforts 0.0
at 0.0
moment 0.0
simply 0.0
can 0.00205957941743
shake 0.0
off 0.0
discomfort 0.0
get 0.00242208709798
back 0.00238241544984
park 0.0
continued 0.0
in 0.00205666914656
sydney 0.0
morning 0.0
herald 0.0
bit 0.0
club 0.0
are 0.0
doing 0.0
everything 0.0
they 0.0
him 0.0
right 0.0
was 0.0
desperate 0.0
fit 0.0
game 0.0
as 0.0
part 0.00269679733124
of 0.00411137621399
plan 0.0
himself 0.0
match 0.00356108146323
has 0.00121875270097
played 0.0
since 0.0
december 0.0
19 0.0
misses 0.0
out 0.0
international 0.0
duty 0.0
this 0.0
week 0.00265237628664
with 0.00243632286076
australia 0.0
facing 0.0
south 0.0
africa 0.0
durban 0.0
wednesday 0.0
