liverpool 0.0
winger 0.0
harry 0.0
kewell 0.0
is 0.00191774637928
struggling 0.0
to 0.0125605333894
recover 0.0
from 0.0
his 0.0
achilles 0.0
tendinitis 0.0
problem 0.0
and 0.00588961537865
may 0.0
not 0.0012398383857
until 0.0
march 0.0
claims 0.0
agent 0.0
26 0.0
had 0.0
hoped 0.0
play 0.00240492311084
against 0.0
fulham 0.0
last 0.0
weekend 0.0
be 0.00630076189386
ready 0.0
for 0.00536389340692
the 0.0150008996167
champions 0.0
league 0.0
tie 0.0
bayer 0.0
leverkusen 0.0
on 0.0036608091428
22 0.0
february 0.0
but 0.00109081367669
bernie 0.0
mandic 0.0
said 0.00193727357563
he 0.001213703383
scans 0.0
which 0.0
don 0.0
show 0.0
anything 0.0
substantial 0.0
despite 0.0
best 0.0
efforts 0.0
at 0.00102773927114
moment 0.0
simply 0.00323820429007
can 0.00505297377162
shake 0.0
off 0.00216911402645
discomfort 0.0
get 0.00198078346726
back 0.0
park 0.0
continued 0.0
in 0.0058868059959
sydney 0.0
morning 0.0
herald 0.0
bit 0.0
club 0.0
are 0.00358894417439
doing 0.0
everything 0.0
they 0.00556557478163
him 0.0
right 0.0
was 0.0
desperate 0.0
fit 0.00374097681797
game 0.0
as 0.00108811051729
part 0.0
of 0.0109274247929
plan 0.0
himself 0.0
match 0.0
has 0.0
played 0.0
since 0.0
december 0.0
19 0.0
misses 0.0
out 0.00148239856302
international 0.0
duty 0.0
this 0.00126015782141
week 0.0
with 0.00298863821672
australia 0.0
facing 0.0
south 0.0
africa 0.0
durban 0.0
wednesday 0.0
