liverpool 0.0
winger 0.0
harry 0.0
kewell 0.0
is 0.0
struggling 0.0
to 0.0123955710755
recover 0.0
from 0.0016729994084
his 0.00435820202316
achilles 0.0
tendinitis 0.0
problem 0.0
and 0.00373645594004
may 0.0
not 0.00183533266729
until 0.0
march 0.0
claims 0.0
agent 0.0
26 0.0
had 0.00196883114084
hoped 0.0
play 0.0
against 0.0
fulham 0.0
last 0.0
weekend 0.0
be 0.00466350867418
ready 0.0
for 0.00529344733266
the 0.013570229782
champions 0.0
league 0.0
tie 0.0
bayer 0.0
leverkusen 0.0
on 0.00406432162004
22 0.0
february 0.0
but 0.00161473140197
bernie 0.0
mandic 0.0
said 0.00286774592546
he 0.00898322512394
scans 0.0
which 0.0
don 0.0
show 0.0
anything 0.0143178108503
substantial 0.0
despite 0.0
best 0.0
efforts 0.0
at 0.00152136236427
moment 0.0
simply 0.0
can 0.00249330556223
shake 0.0
off 0.0
discomfort 0.0
get 0.0
back 0.0
park 0.0
continued 0.0
in 0.00995912967354
sydney 0.0
morning 0.0
herald 0.0
bit 0.0
club 0.0
are 0.0
doing 0.0
everything 0.0
they 0.0
him 0.0
right 0.0
was 0.0045752514203
desperate 0.0
fit 0.0
game 0.0
as 0.00161072991532
part 0.0
of 0.00995437912807
plan 0.0
himself 0.0
match 0.0
has 0.00442622828126
played 0.0
since 0.00619310495985
december 0.0
19 0.00511718114007
misses 0.0
out 0.00219439447917
international 0.00725557201063
duty 0.0
this 0.00186541152642
week 0.0
with 0.00147469364102
australia 0.0
facing 0.0
south 0.0
africa 0.0
durban 0.0
wednesday 0.0
