liverpool 0.0
winger 0.0
harry 0.0
kewell 0.0
is 0.0049638707644
struggling 0.0
to 0.0138715851398
recover 0.0
from 0.0
his 0.00152411217212
achilles 0.0
tendinitis 0.0
problem 0.0
and 0.00609784274032
may 0.0
not 0.0
until 0.0
march 0.0
claims 0.0
agent 0.0
26 0.0
had 0.0
hoped 0.0
play 0.0
against 0.0
fulham 0.0
last 0.00163151850222
weekend 0.0
be 0.00652352534126
ready 0.0037836782474
for 0.00555353386739
the 0.0215711895111
champions 0.0
league 0.0
tie 0.0
bayer 0.0
leverkusen 0.0
on 0.00284267779217
22 0.0
february 0.0
but 0.00225875879215
bernie 0.0
mandic 0.0
said 0.00401153177234
he 0.0
scans 0.0
which 0.00129991519033
don 0.0
show 0.0
anything 0.0
substantial 0.0
despite 0.0
best 0.0
efforts 0.0
at 0.00212814998962
moment 0.0
simply 0.0
can 0.00174387388929
shake 0.0
off 0.0
discomfort 0.0
get 0.0
back 0.0
park 0.0
continued 0.0
in 0.0104484583403
sydney 0.0
morning 0.0
herald 0.0
bit 0.0
club 0.0
are 0.00123861043391
doing 0.0
everything 0.0
they 0.0
him 0.0
right 0.0
was 0.00213335571049
desperate 0.0
fit 0.0
game 0.0
as 0.00112658066647
part 0.0
of 0.0043514476596
plan 0.0
himself 0.0
match 0.0
has 0.00103193447882
played 0.0
since 0.00216579832747
december 0.00570420216456
19 0.0
misses 0.0
out 0.00306961753344
international 0.0
duty 0.0
this 0.00391413210996
week 0.00449160611305
with 0.00309430152593
australia 0.0
facing 0.0
south 0.0
africa 0.0
durban 0.0
wednesday 0.0
