liverpool 0.0
winger 0.0
harry 0.0
kewell 0.0
is 0.00471465503101
struggling 0.0
to 0.0146390548317
recover 0.0
from 0.00246974604113
his 0.000804218170901
achilles 0.0
tendinitis 0.0
problem 0.0
and 0.00781419152184
may 0.00116291695781
not 0.00270938863841
until 0.0
march 0.0
claims 0.0
agent 0.0
26 0.0
had 0.000726616054275
hoped 0.0
play 0.0
against 0.0
fulham 0.0
last 0.000860892557418
weekend 0.0
be 0.00344222539111
ready 0.00199650842967
for 0.00634919223766
the 0.0182117226174
champions 0.0
league 0.0
tie 0.0
bayer 0.0
leverkusen 0.0
on 0.00699989245502
22 0.0
february 0.0
but 0.00178779642755
bernie 0.0
mandic 0.0
said 0.00158755379204
he 0.000663069113324
scans 0.0
which 0.00274367054031
don 0.0
show 0.00138165871562
anything 0.0
substantial 0.0
despite 0.0
best 0.0
efforts 0.0
at 0.00280736700907
moment 0.00183155896814
simply 0.0
can 0.00184035676006
shake 0.0
off 0.00118502801786
discomfort 0.0
get 0.00108213947141
back 0.0
park 0.0
continued 0.0
in 0.00459439064966
sydney 0.0
morning 0.0
herald 0.0
bit 0.0
club 0.0
are 0.00588212424425
doing 0.0
everything 0.0
they 0.00152028938343
him 0.0
right 0.0
was 0.000562846835934
desperate 0.0
fit 0.0
game 0.0
as 0.00237782142164
part 0.0
of 0.00596985883856
plan 0.0
himself 0.0
match 0.0
has 0.00108902805742
played 0.0
since 0.0
december 0.0
19 0.0
misses 0.0
out 0.000809862372095
international 0.0
duty 0.0
this 0.00137689610328
week 0.0
with 0.00272124930491
australia 0.0
facing 0.0
south 0.0
africa 0.0
durban 0.0
wednesday 0.0
