liverpool 0.0
winger 0.0
harry 0.0
kewell 0.0
is 0.00193030869173
struggling 0.0
to 0.0117999577875
recover 0.0
from 0.00455031703949
his 0.00296342019429
achilles 0.0
tendinitis 0.0
problem 0.0
and 0.00762196584436
may 0.0
not 0.00124796002126
until 0.0
march 0.0
claims 0.0
agent 0.0
26 0.0
had 0.00669367084283
hoped 0.0
play 0.00484135340725
against 0.0
fulham 0.0
last 0.0
weekend 0.0
be 0.0
ready 0.0
for 0.00629886823037
the 0.0134214790289
champions 0.0
league 0.0
tie 0.0
bayer 0.0
leverkusen 0.0
on 0.0018423947461
22 0.0
february 0.0
but 0.00658775470185
bernie 0.0
mandic 0.0
said 0.00584989140644
he 0.00610826909827
scans 0.0
which 0.0
don 0.00500759671623
show 0.0
anything 0.0
substantial 0.0
despite 0.0
best 0.00229817923749
efforts 0.0
at 0.0
moment 0.0
simply 0.0
can 0.00169535785959
shake 0.0
off 0.0
discomfort 0.0
get 0.00199375870792
back 0.00196110270063
park 0.0
continued 0.0
in 0.00169296224884
sydney 0.0
morning 0.0
herald 0.0
bit 0.00329605283791
club 0.0
are 0.00120415125601
doing 0.00299685875789
everything 0.0
they 0.00140050810309
him 0.0
right 0.0
was 0.0124440238252
desperate 0.0
fit 0.0
game 0.00726203011088
as 0.00438095300147
part 0.0
of 0.0059225414463
plan 0.0
himself 0.0
match 0.0
has 0.0
played 0.00554550649092
since 0.0
december 0.0
19 0.00347949862069
misses 0.0
out 0.0
international 0.0
duty 0.0
this 0.00253682512131
week 0.00218332293772
with 0.00200547698017
australia 0.0
facing 0.0
south 0.0
africa 0.0
durban 0.0
wednesday 0.0
