liverpool 0.0
winger 0.0
harry 0.0
kewell 0.0
is 0.00188316494369
struggling 0.0
to 0.0115117685258
recover 0.0
from 0.0
his 0.00289104486098
achilles 0.0
tendinitis 0.0
problem 0.0
and 0.00495721019187
may 0.0
not 0.00486992484309
until 0.0
march 0.0
claims 0.0
agent 0.0
26 0.0
had 0.0
hoped 0.0
play 0.0
against 0.00754165502954
fulham 0.0
last 0.0
weekend 0.0
be 0.00412476298405
ready 0.0
for 0.00175572330362
the 0.0130936875061
champions 0.0
league 0.0
tie 0.0
bayer 0.0
leverkusen 0.0
on 0.00179739811212
22 0.0
february 0.0
but 0.00214228752899
bernie 0.0
mandic 0.0
said 0.00380468003839
he 0.00476726993224
scans 0.0
which 0.0
don 0.0
show 0.0
anything 0.0
substantial 0.0
despite 0.0
best 0.0
efforts 0.0
at 0.00605524042464
moment 0.0
simply 0.0
can 0.00330790458736
shake 0.0
off 0.0
discomfort 0.0
get 0.0
back 0.0
park 0.0
continued 0.0
in 0.0
sydney 0.0
morning 0.0
herald 0.0
bit 0.0
club 0.0
are 0.00469896953153
doing 0.0
everything 0.0
they 0.00273260725024
him 0.0
right 0.0
was 0.00202335076652
desperate 0.0
fit 0.0
game 0.0188924539492
as 0.00213697869872
part 0.0
of 0.00330165472705
plan 0.0
himself 0.0
match 0.0
has 0.00195744704782
played 0.0108201382126
since 0.0
december 0.00541006910629
19 0.0
misses 0.0
out 0.00291133492585
international 0.0
duty 0.0
this 0.00494973695886
week 0.0
with 0.00586949221224
australia 0.0
facing 0.0
south 0.0
africa 0.0
durban 0.0
wednesday 0.0
