liverpool 0.0
winger 0.0
harry 0.0
kewell 0.0
is 0.0
struggling 0.0
to 0.00639076633541
recover 0.0
from 0.00107818230331
his 0.00421303462991
achilles 0.0
tendinitis 0.0
problem 0.0
and 0.00561866401145
may 0.0040614264406
not 0.00118279970251
until 0.00258359213708
march 0.0
claims 0.0
agent 0.0
26 0.0
had 0.00126883421691
hoped 0.0
play 0.0
against 0.0
fulham 0.0
last 0.00150331103684
weekend 0.0
be 0.00100181595972
ready 0.0
for 0.00426427320364
the 0.0127206970834
champions 0.0
league 0.0
tie 0.0
bayer 0.0
leverkusen 0.0
on 0.00174619692977
22 0.0162325549998
february 0.0
but 0.00416252346165
bernie 0.0
mandic 0.0
said 0.0
he 0.00463146815551
scans 0.0
which 0.0023955313408
don 0.0
show 0.0
anything 0.0
substantial 0.0
despite 0.0
best 0.0
efforts 0.0
at 0.00294137458119
moment 0.0
simply 0.0
can 0.0
shake 0.0
off 0.0
discomfort 0.0
get 0.0
back 0.0
park 0.0
continued 0.0
in 0.00320913364238
sydney 0.0
morning 0.0
herald 0.0
bit 0.0
club 0.0
are 0.0
doing 0.0
everything 0.0
they 0.00265476544036
him 0.0
right 0.0
was 0.00294856955106
desperate 0.0
fit 0.0
game 0.0
as 0.00103805206468
part 0.0
of 0.00240570215441
plan 0.0
himself 0.0
match 0.0
has 0.0
played 0.0
since 0.0
december 0.0
19 0.0
misses 0.0
out 0.00141420091486
international 0.0
duty 0.0
this 0.0
week 0.0
with 0.00380152815013
australia 0.0
facing 0.0
south 0.0
africa 0.0
durban 0.0
wednesday 0.0
