liverpool 0.0221481231184
winger 0.0
harry 0.0
kewell 0.0
is 0.00951822239913
struggling 0.0
to 0.00738854585777
recover 0.0
from 0.0
his 0.0
achilles 0.0
tendinitis 0.0
problem 0.00321204275755
and 0.0120638077966
may 0.0
not 0.0123072139482
until 0.00298696400098
march 0.0
claims 0.0
agent 0.0
26 0.0
had 0.00293387030774
hoped 0.0
play 0.00795746273476
against 0.00211768638834
fulham 0.0
last 0.0
weekend 0.0
be 0.00115822778849
ready 0.00403066844347
for 0.0029580281733
the 0.0128684132246
champions 0.00806133688693
league 0.00734202848482
tie 0.0
bayer 0.0
leverkusen 0.0
on 0.00403765539691
22 0.0
february 0.0
but 0.00721861679797
bernie 0.0
mandic 0.0
said 0.00427339574549
he 0.0013386428583
scans 0.0
which 0.0
don 0.0
show 0.0
anything 0.0
substantial 0.0
despite 0.0
best 0.00251825940693
efforts 0.0
at 0.00566767735339
moment 0.0
simply 0.0
can 0.00371542028435
shake 0.0
off 0.0
discomfort 0.0
get 0.0
back 0.00214890346378
park 0.0
continued 0.0
in 0.00927542560469
sydney 0.0
morning 0.0
herald 0.0
bit 0.0
club 0.0
are 0.00395839259838
doing 0.0
everything 0.0
they 0.00153462473577
him 0.0
right 0.0027435691984
was 0.0102267741611
desperate 0.0
fit 0.0
game 0.00265248757825
as 0.00720072825086
part 0.0
of 0.00370840047554
plan 0.0
himself 0.0
match 0.00321204275755
has 0.0
played 0.0060765599389
since 0.0
december 0.0
19 0.0
misses 0.0
out 0.00163499770812
international 0.0
duty 0.0
this 0.00138987934911
week 0.0
with 0.00109876357516
australia 0.0
facing 0.0
south 0.0
africa 0.0
durban 0.0
wednesday 0.0
