liverpool 0.0
winger 0.0
harry 0.0
kewell 0.0
is 0.00535168026556
struggling 0.0
to 0.0100147249309
recover 0.0
from 0.00270332504773
his 0.00117370401061
achilles 0.0
tendinitis 0.0
problem 0.0
and 0.00939177917647
may 0.0
not 0.00395417615052
until 0.0
march 0.0
claims 0.0
agent 0.0
26 0.0
had 0.00106044877862
hoped 0.0
play 0.00191748572201
against 0.0
fulham 0.0
last 0.0
weekend 0.00267304095375
be 0.0033491357554
ready 0.0
for 0.00213836130057
the 0.0186051756286
champions 0.0
league 0.0
tie 0.0
bayer 0.0
leverkusen 0.0
on 0.00583764963684
22 0.0
february 0.0
but 0.0017394482518
bernie 0.0
mandic 0.0
said 0.00154462086715
he 0.00290311847871
scans 0.0
which 0.00200210417612
don 0.0
show 0.0120986451276
anything 0.0
substantial 0.0
despite 0.0
best 0.00182045205289
efforts 0.0
at 0.0
moment 0.0
simply 0.0
can 0.0
shake 0.0
off 0.0
discomfort 0.0
get 0.00157931203694
back 0.00155344430019
park 0.0
continued 0.0
in 0.00536417099431
sydney 0.0
morning 0.0029932081763
herald 0.0
bit 0.0
club 0.0
are 0.00190768377873
doing 0.0023738956427
everything 0.0
they 0.00221876327988
him 0.0
right 0.0
was 0.00246431483121
desperate 0.0
fit 0.0
game 0.0
as 0.00086756885136
part 0.0
of 0.0080424183943
plan 0.0
himself 0.0
match 0.0
has 0.000794682739651
played 0.00219637539819
since 0.0
december 0.0
19 0.0
misses 0.0
out 0.00118194135442
international 0.00195399247737
duty 0.0
this 0.00502372533066
week 0.00172947116537
with 0.0023828916122
australia 0.0
facing 0.0
south 0.0
africa 0.0
durban 0.0
wednesday 0.0
