liverpool 0.0
winger 0.00468935909586
harry 0.0
kewell 0.0
is 0.00700751700204
struggling 0.0
to 0.0166102193839
recover 0.0
from 0.00235983159108
his 0.0107579774596
achilles 0.0
tendinitis 0.0
problem 0.0
and 0.0105408366814
may 0.0
not 0.00129440452479
until 0.0
march 0.0
claims 0.0
agent 0.0
26 0.0
had 0.00138855695356
hoped 0.0
play 0.00753229628718
against 0.00601361584163
fulham 0.0
last 0.0
weekend 0.0
be 0.00986709412988
ready 0.0
for 0.00466663503384
the 0.0200114049346
champions 0.0
league 0.0
tie 0.0
bayer 0.0
leverkusen 0.0
on 0.00191096193402
22 0.0
february 0.0
but 0.00341646340789
bernie 0.0
mandic 0.0
said 0.00404506863309
he 0.00886983511863
scans 0.0
which 0.0
don 0.0
show 0.0
anything 0.0
substantial 0.0
despite 0.0
best 0.00238370905566
efforts 0.0
at 0.00536485391246
moment 0.0
simply 0.0
can 0.0
shake 0.0
off 0.0
discomfort 0.0
get 0.0
back 0.00406817552812
park 0.0
continued 0.0
in 0.00877984053121
sydney 0.00862910328974
morning 0.0
herald 0.0
bit 0.0
club 0.0
are 0.0
doing 0.0
everything 0.0
they 0.0
him 0.00235808291432
right 0.010387922269
was 0.00430238161255
desperate 0.0
fit 0.0
game 0.00753229628718
as 0.00113599900866
part 0.00460500913389
of 0.00702052200918
plan 0.0
himself 0.0
match 0.00608084726084
has 0.00104056156814
played 0.0
since 0.0
december 0.0
19 0.0
misses 0.0
out 0.00464291982642
international 0.0
duty 0.0
this 0.00263123646566
week 0.00452915644976
with 0.0
australia 0.00365872413332
facing 0.0
south 0.0
africa 0.0
durban 0.0
wednesday 0.0
