liverpool 0.0
winger 0.0
harry 0.0
kewell 0.0
is 0.00200752256597
struggling 0.0
to 0.00964225855288
recover 0.0
from 0.00118308332992
his 0.00616391869133
achilles 0.0
tendinitis 0.0
problem 0.0
and 0.00528456700395
may 0.00222829010587
not 0.0025957588181
until 0.0
march 0.0
claims 0.0
agent 0.0
26 0.0
had 0.00417685378212
hoped 0.0
play 0.0
against 0.00200991988345
fulham 0.0
last 0.00494872403836
weekend 0.0
be 0.00109928697397
ready 0.0
for 0.000935832563002
the 0.0209375232066
champions 0.0
league 0.0
tie 0.0
bayer 0.0
leverkusen 0.0
on 0.00383218398599
22 0.0
february 0.0
but 0.00228375669994
bernie 0.0
mandic 0.0
said 0.00202796389635
he 0.00127052093858
scans 0.0
which 0.00262860296158
don 0.0
show 0.0
anything 0.0
substantial 0.0
despite 0.0
best 0.0
efforts 0.0
at 0.00215170243682
moment 0.0
simply 0.0
can 0.00176317351474
shake 0.0
off 0.00454131516379
discomfort 0.0
get 0.0
back 0.00203954835959
park 0.0
continued 0.0
in 0.00440170519416
sydney 0.0
morning 0.0
herald 0.0
bit 0.0
club 0.0157503977101
are 0.0
doing 0.0
everything 0.0
they 0.0029130590696
him 0.00472882657735
right 0.0
was 0.00107848288496
desperate 0.0
fit 0.0
game 0.0
as 0.00113904864655
part 0.0
of 0.00615944778796
plan 0.0
himself 0.00347593153153
match 0.0
has 0.00834684000113
played 0.0
since 0.00437953486512
december 0.00288366556809
19 0.0
misses 0.0
out 0.0
international 0.0
duty 0.0
this 0.00263830013239
week 0.0022706575819
with 0.00625709293618
australia 0.0
facing 0.0
south 0.0
africa 0.0
durban 0.0
wednesday 0.0
