liverpool 0.0
winger 0.0
harry 0.0
kewell 0.0
is 0.00602285080482
struggling 0.0
to 0.0126231863734
recover 0.0
from 0.00567906693079
his 0.0
achilles 0.0
tendinitis 0.0
problem 0.0
and 0.00951266775449
may 0.0
not 0.0
until 0.0
march 0.0
claims 0.0
agent 0.0
26 0.0
had 0.0
hoped 0.0
play 0.0
against 0.00241201723813
fulham 0.0
last 0.0
weekend 0.0
be 0.00131920637867
ready 0.0
for 0.0
the 0.0136100298301
champions 0.0
league 0.0
tie 0.0
bayer 0.0
leverkusen 0.0
on 0.00344912771525
22 0.0
february 0.0
but 0.00137031843242
bernie 0.0
mandic 0.0
said 0.0
he 0.0
scans 0.0
which 0.00157723591566
don 0.0
show 0.0
anything 0.0
substantial 0.0
despite 0.0
best 0.0
efforts 0.0
at 0.00129108215001
moment 0.0
simply 0.0
can 0.00423181535382
shake 0.0
off 0.0
discomfort 0.0
get 0.0
back 0.0
park 0.0
continued 0.0
in 0.00739521234159
sydney 0.0
morning 0.0
herald 0.0
bit 0.0
club 0.0
are 0.00601141021016
doing 0.0
everything 0.0
they 0.00524375281033
him 0.0
right 0.0
was 0.00129424029832
desperate 0.0
fit 0.0
game 0.0
as 0.00273384525738
part 0.0
of 0.00739168479514
plan 0.0
himself 0.0
match 0.0
has 0.00375625456501
played 0.0
since 0.0
december 0.0
19 0.0
misses 0.0
out 0.0
international 0.0
duty 0.0
this 0.0
week 0.0
with 0.00375443224055
australia 0.0
facing 0.00444008043343
south 0.0
africa 0.0
durban 0.0
wednesday 0.0
