liverpool 0.0
winger 0.0
harry 0.0
kewell 0.0
is 0.00364392581773
struggling 0.0
to 0.00636436634119
recover 0.0
from 0.00107372837633
his 0.00559417434167
achilles 0.0
tendinitis 0.0
problem 0.0
and 0.00959220606914
may 0.0
not 0.00471165442134
until 0.0
march 0.0
claims 0.0
agent 0.0
26 0.0
had 0.00126359271468
hoped 0.0
play 0.0
against 0.0
fulham 0.0
last 0.0
weekend 0.0
be 0.00299303249695
ready 0.0
for 0.00509598919863
the 0.0142516669548
champions 0.0
league 0.0
tie 0.0
bayer 0.0
leverkusen 0.0
on 0.00260847519255
22 0.0
february 0.0027713883156
but 0.00414532824756
bernie 0.0
mandic 0.0
said 0.000920257401411
he 0.00345925181256
scans 0.0
which 0.0
don 0.00236326332639
show 0.0
anything 0.0
substantial 0.0
despite 0.0
best 0.00216918534666
efforts 0.0
at 0.00097640796105
moment 0.00318509968923
simply 0.0
can 0.0
shake 0.0
off 0.0
discomfort 0.0
get 0.0
back 0.00370205697808
park 0.0
continued 0.0
in 0.00639175368523
sydney 0.0
morning 0.0
herald 0.0
bit 0.0
club 0.00285891086996
are 0.00227312754122
doing 0.0
everything 0.0
they 0.00396569806944
him 0.0
right 0.0
was 0.0
desperate 0.0
fit 0.010662391668
game 0.0
as 0.00310129174224
part 0.0
of 0.00479152859449
plan 0.0
himself 0.0031546436546
match 0.0027667983939
has 0.00473457719296
played 0.00261712211643
since 0.00198736248787
december 0.0
19 0.0
misses 0.0
out 0.00281671781749
international 0.00232830732492
duty 0.0
this 0.0
week 0.00412155157115
with 0.00283936814467
australia 0.0
facing 0.0
south 0.0
africa 0.0
durban 0.0
wednesday 0.0
