liverpool 0.0
winger 0.0
harry 0.0
kewell 0.0
is 0.00152752143223
struggling 0.0
to 0.00933772328595
recover 0.0
from 0.00180041327873
his 0.00469011809238
achilles 0.0
tendinitis 0.0
problem 0.0
and 0.0147437417723
may 0.0
not 0.0
until 0.0
march 0.0
claims 0.0
agent 0.0
26 0.0
had 0.00211877524388
hoped 0.0
play 0.0114934017377
against 0.0
fulham 0.0
last 0.0
weekend 0.0
be 0.0
ready 0.0
for 0.00142414767455
the 0.0199141693212
champions 0.0
league 0.0
tie 0.0
bayer 0.0
leverkusen 0.0
on 0.0
22 0.0
february 0.0
but 0.00347541528478
bernie 0.0
mandic 0.0
said 0.00462922564554
he 0.0232017073781
scans 0.0
which 0.0
don 0.0
show 0.0
anything 0.0
substantial 0.0
despite 0.0
best 0.0036372607712
efforts 0.0
at 0.00163722771726
moment 0.0
simply 0.0
can 0.00804957925202
shake 0.0
off 0.00345548107941
discomfort 0.0
get 0.00631092668255
back 0.00931133891338
park 0.0
continued 0.0
in 0.00803820486373
sydney 0.0
morning 0.0
herald 0.0
bit 0.00521656600651
club 0.0
are 0.00190577482149
doing 0.0
everything 0.0
they 0.0
him 0.00719631656316
right 0.0
was 0.00984739548534
desperate 0.0
fit 0.0
game 0.00383113391255
as 0.00346680281347
part 0.0
of 0.00669530883936
plan 0.0
himself 0.0
match 0.00463933027921
has 0.00158777505285
played 0.00877671022645
since 0.0
december 0.0
19 0.0
misses 0.0
out 0.0
international 0.0
duty 0.0
this 0.0
week 0.0
with 0.00317400950654
australia 0.0
facing 0.0
south 0.0
africa 0.0
durban 0.0
wednesday 0.0
