liverpool 0.0
winger 0.0
harry 0.0
kewell 0.0
is 0.00832609488331
struggling 0.0
to 0.00908880982343
recover 0.0
from 0.0
his 0.00319556631311
achilles 0.0
tendinitis 0.0
problem 0.0
and 0.00547936633913
may 0.0
not 0.0
until 0.0
march 0.0
claims 0.0
agent 0.0
26 0.0
had 0.0
hoped 0.0
play 0.00522061160544
against 0.0
fulham 0.0
last 0.00684152473853
weekend 0.0
be 0.00455923525066
ready 0.0
for 0.00388131662704
the 0.0199002106475
champions 0.0
league 0.00722527023869
tie 0.0
bayer 0.0
leverkusen 0.0
on 0.00397344568108
22 0.0
february 0.0
but 0.00947176151163
bernie 0.0
mandic 0.0
said 0.00210271855808
he 0.00526941916627
scans 0.0
which 0.00272549833806
don 0.00539987795415
show 0.0
anything 0.0
substantial 0.0
despite 0.0
best 0.00495642444967
efforts 0.0
at 0.0111550916994
moment 0.00727771188323
simply 0.0
can 0.0036563349843
shake 0.0
off 0.0
discomfort 0.0
get 0.0
back 0.0
park 0.0
continued 0.0
in 0.0109535052954
sydney 0.0
morning 0.0
herald 0.0
bit 0.0
club 0.0
are 0.0181787357588
doing 0.0
everything 0.0
they 0.00604088009404
him 0.0
right 0.0
was 0.0
desperate 0.0
fit 0.0
game 0.0104412232109
as 0.0
part 0.0
of 0.0127729938335
plan 0.0
himself 0.0
match 0.0
has 0.0
played 0.0
since 0.0
december 0.0
19 0.0
misses 0.0
out 0.00321799358453
international 0.0
duty 0.0
this 0.0
week 0.0
with 0.0021625804845
australia 0.0
facing 0.0
south 0.0
africa 0.0
durban 0.0
wednesday 0.0
