liverpool 0.0
winger 0.0
harry 0.0
kewell 0.0
is 0.00121626935076
struggling 0.0
to 0.0148700848302
recover 0.0
from 0.00430066795153
his 0.00560166957417
achilles 0.0
tendinitis 0.0
problem 0.0
and 0.0117395153055
may 0.0
not 0.00314531148585
until 0.0
march 0.0
claims 0.0
agent 0.0
26 0.0
had 0.0
hoped 0.0
play 0.00305049124561
against 0.0
fulham 0.0
last 0.0
weekend 0.0127574687024
be 0.0026640379078
ready 0.0
for 0.00566979660959
the 0.0264273365556
champions 0.0
league 0.00422184703174
tie 0.0
bayer 0.0
leverkusen 0.0
on 0.00116087560051
22 0.0
february 0.0
but 0.00138362742507
bernie 0.0
mandic 0.0
said 0.0
he 0.00153950516252
scans 0.0
which 0.00318510912074
don 0.0
show 0.0
anything 0.0
substantial 0.0
despite 0.0
best 0.00289612224313
efforts 0.0
at 0.00651810786643
moment 0.0
simply 0.0
can 0.00427291616522
shake 0.0
off 0.0
discomfort 0.0
get 0.00251249721834
back 0.00247134473226
park 0.0
continued 0.0
in 0.00746703712653
sydney 0.0
morning 0.0
herald 0.0
bit 0.0
club 0.0
are 0.00303489752212
doing 0.0
everything 0.0
they 0.00529468189802
him 0.0
right 0.0
was 0.0
desperate 0.0
fit 0.0
game 0.00915147373682
as 0.00138019864016
part 0.0
of 0.00213242151982
plan 0.0
himself 0.0
match 0.0
has 0.00126424552346
played 0.0
since 0.0
december 0.0
19 0.0
misses 0.0
out 0.0
international 0.00621713828457
duty 0.00511752006051
this 0.00639371859331
week 0.0
with 0.00252726436459
australia 0.0
facing 0.0
south 0.0
africa 0.0
durban 0.0
wednesday 0.0
