liverpool 0.0135379648163
winger 0.0
harry 0.0
kewell 0.0
is 0.00430961557108
struggling 0.0
to 0.0131723185098
recover 0.0
from 0.00126988219882
his 0.00496210859992
achilles 0.0
tendinitis 0.0
problem 0.0
and 0.00283613900943
may 0.0
not 0.00417930144755
until 0.0
march 0.0
claims 0.0
agent 0.0
26 0.0
had 0.00149443186033
hoped 0.0
play 0.0
against 0.00215738098619
fulham 0.0
last 0.0017705984592
weekend 0.0
be 0.00589968992181
ready 0.004106220595
for 0.00401796587874
the 0.0187280327422
champions 0.0
league 0.0
tie 0.0
bayer 0.0
leverkusen 0.0
on 0.0051416731427
22 0.0
february 0.0
but 0.00735392488342
bernie 0.0
mandic 0.0
said 0.00435349765599
he 0.0109098785002
scans 0.0
which 0.0
don 0.0
show 0.0
anything 0.0
substantial 0.0
despite 0.0
best 0.0
efforts 0.0
at 0.00461913130305
moment 0.0
simply 0.0
can 0.00189253166127
shake 0.0
off 0.00487449627586
discomfort 0.0
get 0.0
back 0.00437836640914
park 0.0
continued 0.0
in 0.0103942158968
sydney 0.0
morning 0.0
herald 0.0
bit 0.0
club 0.00338119034739
are 0.00134419666271
doing 0.0
everything 0.0
they 0.0
him 0.0
right 0.0
was 0.00347282270667
desperate 0.0
fit 0.0
game 0.0
as 0.00611308418967
part 0.00247806629364
of 0.00566686789825
plan 0.0
himself 0.0
match 0.0
has 0.00671941481156
played 0.00309523047081
since 0.0
december 0.0
19 0.0
misses 0.0
out 0.00333128926679
international 0.0
duty 0.0
this 0.00141593169667
week 0.0
with 0.00671615492761
australia 0.0
facing 0.0
south 0.0
africa 0.0
durban 0.0
wednesday 0.0
