liverpool 0.0
winger 0.0
harry 0.0
kewell 0.0
is 0.00160624108245
struggling 0.0
to 0.00841623061966
recover 0.0
from 0.00189319620182
his 0.00986363949152
achilles 0.0
tendinitis 0.0
problem 0.0
and 0.00422824070255
may 0.0
not 0.0
until 0.0
march 0.0
claims 0.0
agent 0.0
26 0.0
had 0.0
hoped 0.0
play 0.0
against 0.0
fulham 0.0
last 0.0
weekend 0.0
be 0.0
ready 0.0
for 0.0
the 0.0181483733824
champions 0.0061217341589
league 0.0
tie 0.0
bayer 0.0
leverkusen 0.0
on 0.00306617293283
22 0.0
february 0.0
but 0.0018272590784
bernie 0.0
mandic 0.0
said 0.00324519283545
he 0.00609934741134
scans 0.0
which 0.00420634879818
don 0.0
show 0.0
anything 0.0
substantial 0.0
despite 0.0
best 0.0
efforts 0.0
at 0.00516480299124
moment 0.00561596281423
simply 0.0
can 0.0
shake 0.0
off 0.00363355665739
discomfort 0.0
get 0.0
back 0.0
park 0.0
continued 0.0
in 0.00422622380573
sydney 0.0
morning 0.0
herald 0.0
bit 0.0
club 0.0
are 0.0020039874712
doing 0.0
everything 0.0
they 0.0
him 0.00378358662019
right 0.0
was 0.00517743674491
desperate 0.0
fit 0.0
game 0.0
as 0.00364546184837
part 0.0
of 0.00140806929325
plan 0.0
himself 0.0
match 0.0
has 0.00500879948216
played 0.0
since 0.0
december 0.0
19 0.0
misses 0.0
out 0.0
international 0.0123158035534
duty 0.0
this 0.00422186642613
week 0.00363355665739
with 0.00166878983101
australia 0.0
facing 0.0
south 0.0199150850342
africa 0.00571521476289
durban 0.0
wednesday 0.0
