liverpool 0.0
winger 0.0
harry 0.0
kewell 0.0
is 0.00757634586473
struggling 0.0
to 0.0110271730323
recover 0.0
from 0.0
his 0.0
achilles 0.0
tendinitis 0.0
problem 0.0
and 0.0055399553501
may 0.00140158628145
not 0.000816361374991
until 0.0
march 0.0
claims 0.0
agent 0.0
26 0.0
had 0.000875741889147
hoped 0.0
play 0.0
against 0.0
fulham 0.0
last 0.00207515281324
weekend 0.0
be 0.00207434239111
ready 0.0
for 0.00470908192281
the 0.0115234219569
champions 0.0
league 0.0
tie 0.0
bayer 0.0
leverkusen 0.0
on 0.00421825185827
22 0.0
february 0.00192073031987
but 0.0
bernie 0.0
mandic 0.0
said 0.00446453641346
he 0.0
scans 0.0
which 0.000826690797717
don 0.0
show 0.0
anything 0.0
substantial 0.0
despite 0.0
best 0.0
efforts 0.0
at 0.00135341291929
moment 0.0
simply 0.0
can 0.00110902965622
shake 0.0
off 0.00142823526806
discomfort 0.0
get 0.0
back 0.00128286841719
park 0.0
continued 0.0
in 0.00609104403306
sydney 0.0
morning 0.0
herald 0.0
bit 0.0
club 0.0
are 0.00157540715777
doing 0.0
everything 0.0
they 0.000916151720608
him 0.0
right 0.0
was 0.00135672353646
desperate 0.0
fit 0.0
game 0.0
as 0.00143291481904
part 0.0
of 0.00774854001118
plan 0.0
himself 0.0
match 0.0
has 0.00590639812082
played 0.0
since 0.00137735566162
december 0.0
19 0.0
misses 0.0
out 0.00195214625252
international 0.0
duty 0.0
this 0.0
week 0.0
with 0.00262379229647
australia 0.0
facing 0.0
south 0.0
africa 0.0
durban 0.0
wednesday 0.0
