liverpool 0.0
winger 0.0
harry 0.0
kewell 0.0
is 0.00248461237566
struggling 0.0
to 0.00596687562469
recover 0.0
from 0.00146424430429
his 0.0
achilles 0.0
tendinitis 0.0
problem 0.0
and 0.00327022490322
may 0.00413676832389
not 0.00240948268516
until 0.00175434620829
march 0.0
claims 0.0
agent 0.0
26 0.0
had 0.000861581232368
hoped 0.0
play 0.0
against 0.00124378970906
fulham 0.0
last 0.00102079890224
weekend 0.0
be 0.000680266828933
ready 0.0
for 0.000579117068718
the 0.0226741788048
champions 0.0
league 0.0
tie 0.0
bayer 0.0
leverkusen 0.0
on 0.00415004315715
22 0.00220449047713
february 0.00188967230705
but 0.0
bernie 0.0
mandic 0.0
said 0.000627477902325
he 0.000786230775444
scans 0.0
which 0.000813323292069
don 0.0
show 0.0
anything 0.0
substantial 0.00283243070185
despite 0.0
best 0.00147905995539
efforts 0.0
at 0.00266305674162
moment 0.0
simply 0.0
can 0.00218219352022
shake 0.0
off 0.0
discomfort 0.0
get 0.0
back 0.0
park 0.0
continued 0.00225763447266
in 0.00599255247402
sydney 0.0
morning 0.00243188736813
herald 0.0
bit 0.0
club 0.0
are 0.0038748324629
doing 0.0
everything 0.0
they 0.000901337640987
him 0.0
right 0.0
was 0.000667392727817
desperate 0.0
fit 0.0
game 0.0
as 0.00211461709945
part 0.0
of 0.0087122821848
plan 0.0
himself 0.0
match 0.0
has 0.00516523757093
played 0.0
since 0.00135508396144
december 0.0
19 0.0
misses 0.0
out 0.00192058024728
international 0.00158755734425
duty 0.0
this 0.00244897116131
week 0.00140514084985
with 0.00322670730424
australia 0.0
facing 0.0
south 0.00192535180735
africa 0.0
durban 0.0
wednesday 0.0
