liverpool 0.0
winger 0.0
harry 0.0
kewell 0.0
is 0.00225083971114
struggling 0.0
to 0.00982811479537
recover 0.0
from 0.00132647621786
his 0.0
achilles 0.0
tendinitis 0.0
problem 0.0
and 0.00493755897207
may 0.0
not 0.00436555767345
until 0.0
march 0.0
claims 0.0
agent 0.0
26 0.0
had 0.00468309971693
hoped 0.0
play 0.0
against 0.00225352758996
fulham 0.0
last 0.00184950757613
weekend 0.0
be 0.0
ready 0.0
for 0.0
the 0.00978133643536
champions 0.0
league 0.0
tie 0.0
bayer 0.0
leverkusen 0.0
on 0.00107416375316
22 0.0
february 0.0
but 0.00128027708329
bernie 0.00602811967794
mandic 0.0
said 0.00568439646463
he 0.00284902300065
scans 0.0
which 0.0
don 0.0
show 0.0
anything 0.00378406899792
substantial 0.0
despite 0.0
best 0.0
efforts 0.0
at 0.00482498914179
moment 0.0
simply 0.0
can 0.0
shake 0.0
off 0.0
discomfort 0.0
get 0.0
back 0.0
park 0.0
continued 0.0
in 0.00493520372607
sydney 0.0
morning 0.0
herald 0.0
bit 0.0
club 0.0
are 0.0
doing 0.0
everything 0.0
they 0.0
him 0.00530197310248
right 0.0
was 0.00120919791708
desperate 0.0
fit 0.0
game 0.0
as 0.00255420882438
part 0.0
of 0.00887912930478
plan 0.0
himself 0.00389722380061
match 0.0
has 0.0023396248759
played 0.0
since 0.0
december 0.0
19 0.0
misses 0.0
out 0.0
international 0.0
duty 0.0
this 0.0
week 0.00254586740013
with 0.0
australia 0.0
facing 0.00414833011978
south 0.0
africa 0.0
durban 0.0
wednesday 0.00342945636479
