liverpool 0.0
winger 0.0
harry 0.0
kewell 0.0
is 0.0
struggling 0.0
to 0.00512100520195
recover 0.0
from 0.00230389779842
his 0.00300085343599
achilles 0.0
tendinitis 0.0
problem 0.0
and 0.0102909930164
may 0.0
not 0.00252744792993
until 0.0
march 0.0
claims 0.0
agent 0.0
26 0.0
had 0.0
hoped 0.0
play 0.004902508269
against 0.0039140522712
fulham 0.0
last 0.00321232780161
weekend 0.0
be 0.0
ready 0.0
for 0.00182240973824
the 0.0271820321247
champions 0.0
league 0.0
tie 0.0
bayer 0.0
leverkusen 0.0
on 0.00186566745241
22 0.0
february 0.0
but 0.00444731313515
bernie 0.0
mandic 0.0
said 0.00592378588802
he 0.0222675384506
scans 0.0
which 0.0
don 0.0
show 0.0
anything 0.0
substantial 0.0
despite 0.0
best 0.0
efforts 0.0
at 0.00419015498037
moment 0.0
simply 0.0
can 0.0
shake 0.0
off 0.0
discomfort 0.0
get 0.0
back 0.0
park 0.0
continued 0.0
in 0.0102860841494
sydney 0.0
morning 0.0
herald 0.0
bit 0.00667537563719
club 0.00613436191534
are 0.0
doing 0.0
everything 0.00683426490677
they 0.0028363979981
him 0.00460438113917
right 0.0
was 0.00630060693477
desperate 0.0
fit 0.0
game 0.0
as 0.0
part 0.0
of 0.015421766468
plan 0.0
himself 0.0
match 0.0
has 0.00203179541712
played 0.0
since 0.0
december 0.0
19 0.0
misses 0.0
out 0.00302191416449
international 0.0
duty 0.0
this 0.00256886971225
week 0.0
with 0.00203080970371
australia 0.0
facing 0.0
south 0.0
africa 0.0
durban 0.0
wednesday 0.0
