liverpool 0.0
winger 0.0
harry 0.0
kewell 0.0
is 0.00605614051695
struggling 0.0
to 0.0126929576917
recover 0.0
from 0.0
his 0.0
achilles 0.0
tendinitis 0.0
problem 0.0
and 0.00637683100348
may 0.0
not 0.00313227465873
until 0.0
march 0.0074066442332
claims 0.0
agent 0.0
26 0.0
had 0.0
hoped 0.0
play 0.0
against 0.0
fulham 0.0
last 0.0
weekend 0.0
be 0.00265299588485
ready 0.0
for 0.00564629618411
the 0.0231596634316
champions 0.0
league 0.0
tie 0.0
bayer 0.0
leverkusen 0.0
on 0.0080924476614
22 0.0
february 0.0
but 0.0013778925045
bernie 0.0
mandic 0.0
said 0.0036706838153
he 0.00919874491777
scans 0.0
which 0.00634381467723
don 0.0
show 0.0
anything 0.0
substantial 0.0
despite 0.0
best 0.0
efforts 0.0
at 0.00259643652907
moment 0.0
simply 0.0
can 0.0
shake 0.0
off 0.0
discomfort 0.0
get 0.0
back 0.0
park 0.0
continued 0.0
in 0.00956068382381
sydney 0.0
morning 0.0
herald 0.0
bit 0.0
club 0.0
are 0.0
doing 0.0
everything 0.0
they 0.0017575787549
him 0.0
right 0.0
was 0.00260278773735
desperate 0.0
fit 0.0
game 0.0
as 0.00137447793137
part 0.00557173323218
of 0.00955612333864
plan 0.0
himself 0.0
match 0.0
has 0.00125900542231
played 0.0
since 0.0
december 0.0
19 0.0
misses 0.0
out 0.00187253415713
international 0.0
duty 0.0
this 0.0
week 0.0
with 0.00251678924671
australia 0.0
facing 0.0
south 0.00375437269946
africa 0.00430970718739
durban 0.0
wednesday 0.0
