liverpool 0.0257115534434
winger 0.0
harry 0.0
kewell 0.0
is 0.00818490168797
struggling 0.0
to 0.00982815083167
recover 0.0
from 0.0048235675694
his 0.00471206426484
achilles 0.0
tendinitis 0.0
problem 0.0
and 0.0134661192992
may 0.00227124912043
not 0.0
until 0.0
march 0.0
claims 0.0
agent 0.0
26 0.0
had 0.00141912632977
hoped 0.0
play 0.0
against 0.00204866895715
fulham 0.0
last 0.0
weekend 0.0
be 0.0
ready 0.00779861018341
for 0.00190774879805
the 0.0160058819457
champions 0.0
league 0.00355137236613
tie 0.0
bayer 0.0
leverkusen 0.0
on 0.00195303216682
22 0.0
february 0.0
but 0.00116389252511
bernie 0.0
mandic 0.0
said 0.00310059125855
he 0.0155401824384
scans 0.0
which 0.0
don 0.0
show 0.0
anything 0.0
substantial 0.0
despite 0.0
best 0.0
efforts 0.0
at 0.00877273969702
moment 0.0
simply 0.0
can 0.00359433117256
shake 0.0
off 0.0
discomfort 0.0
get 0.0
back 0.00207886863815
park 0.0
continued 0.0
in 0.00717850446801
sydney 0.0
morning 0.0
herald 0.0
bit 0.0
club 0.00321080965637
are 0.00638230797626
doing 0.00635364551049
everything 0.0
they 0.00593843937301
him 0.0048199932209
right 0.00796246093779
was 0.00109927486435
desperate 0.0
fit 0.0
game 0.00769812138952
as 0.00232201653616
part 0.0
of 0.00538131021908
plan 0.0
himself 0.0
match 0.0
has 0.00957122776839
played 0.0
since 0.00669595131539
december 0.0
19 0.0
misses 0.0
out 0.00158171156413
international 0.0
duty 0.0
this 0.0
week 0.0
with 0.00744067671233
australia 0.0
facing 0.0
south 0.0
africa 0.0
durban 0.0
wednesday 0.0
