liverpool 0.0
winger 0.0
harry 0.0
kewell 0.0
is 0.00178398317917
struggling 0.0
to 0.0109054713881
recover 0.0
from 0.00210269194071
his 0.0
achilles 0.0
tendinitis 0.0
problem 0.0
and 0.00939225172763
may 0.0
not 0.00461343762424
until 0.00503857125835
march 0.0054545170679
claims 0.0
agent 0.0
26 0.0
had 0.00494900996579
hoped 0.0
play 0.0
against 0.0
fulham 0.0
last 0.0
weekend 0.0
be 0.0019537608233
ready 0.0
for 0.00166325358351
the 0.0201566210684
champions 0.0
league 0.0
tie 0.0
bayer 0.0
leverkusen 0.0
on 0.00340546696031
22 0.0
february 0.00542723467522
but 0.00202945840165
bernie 0.0
mandic 0.0
said 0.0018021483496
he 0.0
scans 0.0
which 0.0
don 0.0
show 0.0
anything 0.0
substantial 0.0
despite 0.0
best 0.0
efforts 0.0
at 0.00191210849578
moment 0.0
simply 0.0
can 0.0
shake 0.0
off 0.0
discomfort 0.0
get 0.0110557405046
back 0.0
park 0.0
continued 0.0
in 0.0109524001601
sydney 0.0
morning 0.0
herald 0.0
bit 0.0
club 0.0
are 0.0
doing 0.0
everything 0.0
they 0.0
him 0.0
right 0.0
was 0.00766714300863
desperate 0.0
fit 0.0
game 0.0
as 0.0
part 0.0
of 0.00781941130039
plan 0.0
himself 0.0
match 0.0
has 0.00185435302368
played 0.0
since 0.00778373968433
december 0.0
19 0.0
misses 0.0
out 0.00551600384664
international 0.00455954518435
duty 0.0
this 0.002344523114
week 0.0
with 0.00185345339539
australia 0.0
facing 0.0
south 0.0
africa 0.0
durban 0.0
wednesday 0.0
