liverpool 0.0
winger 0.0
harry 0.0
kewell 0.0
is 0.00276889790639
struggling 0.0
to 0.00967214016919
recover 0.0
from 0.0
his 0.00283388455152
achilles 0.0
tendinitis 0.0
problem 0.0
and 0.00485919868314
may 0.0
not 0.00596704887139
until 0.0
march 0.0
claims 0.0
agent 0.0
26 0.0
had 0.0
hoped 0.0
play 0.0
against 0.00184813628885
fulham 0.0
last 0.0
weekend 0.0
be 0.00303240765742
ready 0.0
for 0.00430252502654
the 0.0248674358329
champions 0.0
league 0.0
tie 0.0
bayer 0.0
leverkusen 0.0
on 0.0035237216908
22 0.0
february 0.0
but 0.00209993127926
bernie 0.0
mandic 0.0
said 0.00279709183948
he 0.00700952074261
scans 0.0
which 0.0
don 0.0
show 0.00243432779272
anything 0.0
substantial 0.0
despite 0.0
best 0.0
efforts 0.0
at 0.000989253200849
moment 0.0
simply 0.0
can 0.0
shake 0.0
off 0.0
discomfort 0.0
get 0.0
back 0.0
park 0.0
continued 0.0
in 0.00647584108732
sydney 0.0
morning 0.0
herald 0.0
bit 0.0
club 0.0
are 0.00230303191473
doing 0.0
everything 0.0
they 0.00133928974544
him 0.00217409561278
right 0.0
was 0.000991673037826
desperate 0.0
fit 0.0
game 0.0
as 0.00104736370628
part 0.0
of 0.0145636921906
plan 0.0
himself 0.0
match 0.0
has 0.00575623611806
played 0.0
since 0.0
december 0.0
19 0.0
misses 0.0
out 0.0
international 0.0
duty 0.0
this 0.0
week 0.0
with 0.00383562900967
australia 0.0
facing 0.0
south 0.0
africa 0.0
durban 0.0
wednesday 0.00281252503277
