liverpool 0.0
winger 0.0
harry 0.0
kewell 0.0
is 0.0
struggling 0.0
to 0.0102597063499
recover 0.0
from 0.00197818150984
his 0.00772981264824
achilles 0.0
tendinitis 0.0
problem 0.0
and 0.00736340970974
may 0.0
not 0.0065103809277
until 0.0
march 0.0
claims 0.0
agent 0.0
26 0.0
had 0.00931191090507
hoped 0.0
play 0.012628231013
against 0.0134427939238
fulham 0.0
last 0.002758181142
weekend 0.0
be 0.0
ready 0.0
for 0.00156476439624
the 0.00729348126168
champions 0.0
league 0.0
tie 0.0
bayer 0.0
leverkusen 0.0
on 0.0
22 0.0
february 0.0
but 0.00763713791337
bernie 0.0
mandic 0.0
said 0.0101726072398
he 0.00637314624847
scans 0.0
which 0.0021975855985
don 0.0
show 0.0
anything 0.0
substantial 0.0
despite 0.0
best 0.0
efforts 0.0
at 0.00899441710395
moment 0.0
simply 0.0
can 0.0
shake 0.0
off 0.0
discomfort 0.0
get 0.0
back 0.00341023895049
park 0.0
continued 0.0
in 0.00441593839081
sydney 0.0
morning 0.0
herald 0.0
bit 0.0
club 0.0
are 0.0
doing 0.0
everything 0.0
they 0.00730619658334
him 0.0
right 0.0
was 0.00540985114344
desperate 0.0
fit 0.0
game 0.0
as 0.00190455305593
part 0.0
of 0.0029425546468
plan 0.00542712661064
himself 0.0
match 0.0
has 0.0
played 0.00482165014342
since 0.00366141364383
december 0.0
19 0.0
misses 0.0
out 0.0
international 0.0
duty 0.0
this 0.0
week 0.00379666649855
with 0.00174370156899
australia 0.0
facing 0.0
south 0.0
africa 0.0
durban 0.0
wednesday 0.0
