liverpool 0.0
winger 0.0
harry 0.0
kewell 0.0
is 0.0063824051307
struggling 0.0
to 0.00867012865153
recover 0.0
from 0.00250754080109
his 0.00217740052937
achilles 0.0
tendinitis 0.0
problem 0.00107691107205
and 0.0105783637898
may 0.0015742842497
not 0.00137542533598
until 0.00100144825187
march 0.0
claims 0.0
agent 0.0
26 0.0
had 0.000491823686181
hoped 0.0
play 0.0
against 0.0
fulham 0.0
last 0.000582711252393
weekend 0.0
be 0.00194161227533
ready 0.0
for 0.00264465827033
the 0.0144841610416
champions 0.0
league 0.0
tie 0.0
bayer 0.0
leverkusen 0.0
on 0.00270743332532
22 0.0
february 0.0
but 0.00201683916369
bernie 0.0
mandic 0.0
said 0.00035818850658
he 0.00852740422978
scans 0.0
which 0.00232138099424
don 0.000919844556788
show 0.00374080632302
anything 0.00238443963505
substantial 0.0
despite 0.0
best 0.0
efforts 0.0
at 0.001140131366
moment 0.0
simply 0.00119744322459
can 0.00311419985938
shake 0.0
off 0.0
discomfort 0.0
get 0.0
back 0.000720469217753
park 0.0
continued 0.0
in 0.00590861879583
sydney 0.0
morning 0.00277642958049
herald 0.0
bit 0.00121090272785
club 0.0
are 0.00221190331642
doing 0.00220196982475
everything 0.0
they 0.00360162720706
him 0.0008352275564
right 0.000919844556788
was 0.0015238936931
desperate 0.0
fit 0.0
game 0.0
as 0.00120710472518
part 0.000815541833313
of 0.00652746355641
plan 0.0
himself 0.00122787069976
match 0.0
has 0.0014742580773
played 0.0
since 0.0
december 0.0
19 0.0
misses 0.0
out 0.000548170515638
international 0.0
duty 0.0
this 0.00139796687608
week 0.0
with 0.0022103142747
australia 0.00129591169117
facing 0.0
south 0.0
africa 0.0
durban 0.0
wednesday 0.0
