liverpool 0.0
winger 0.0
harry 0.0
kewell 0.0
is 0.00218270471863
struggling 0.0
to 0.0133428521836
recover 0.0
from 0.00257264512042
his 0.0
achilles 0.0
tendinitis 0.0
problem 0.0
and 0.00670333231589
may 0.0
not 0.00141113607307
until 0.0
march 0.0
claims 0.0
agent 0.0
26 0.0
had 0.00151377932413
hoped 0.0
play 0.0
against 0.0
fulham 0.0
last 0.0
weekend 0.0
be 0.00478085557968
ready 0.0
for 0.00406998394088
the 0.0246616405532
champions 0.0
league 0.0
tie 0.0
bayer 0.0
leverkusen 0.0
on 0.00208329565273
22 0.0
february 0.0
but 0.00372456574809
bernie 0.0
mandic 0.0
said 0.00330739472682
he 0.0
scans 0.0
which 0.00285798236338
don 0.00283118058483
show 0.0
anything 0.0
substantial 0.0
despite 0.00286129500737
best 0.0
efforts 0.0
at 0.0011697330684
moment 0.0
simply 0.0
can 0.00383406614263
shake 0.0
off 0.0
discomfort 0.0
get 0.0
back 0.0
park 0.0
continued 0.0
in 0.00478581056082
sydney 0.0
morning 0.0
herald 0.0
bit 0.0
club 0.0
are 0.0054463965058
doing 0.00338871071759
everything 0.0
they 0.00158363046191
him 0.0
right 0.0
was 0.00469037752675
desperate 0.0
fit 0.0
game 0.0
as 0.0
part 0.0
of 0.00765364433546
plan 0.0
himself 0.0
match 0.0
has 0.00113440113731
played 0.0
since 0.0
december 0.0
19 0.0
misses 0.0
out 0.00168720868064
international 0.0
duty 0.0
this 0.00430278860553
week 0.0
with 0.00226770157875
australia 0.0
facing 0.0
south 0.0
africa 0.0
durban 0.0
wednesday 0.0
