liverpool 0.0
winger 0.0
harry 0.0
kewell 0.0
is 0.00146317988043
struggling 0.0
to 0.0114999480274
recover 0.0
from 0.0017245771027
his 0.00449256310572
achilles 0.0
tendinitis 0.0
problem 0.0
and 0.0115549467509
may 0.0
not 0.00378383002163
until 0.0
march 0.0
claims 0.0
agent 0.0
26 0.0
had 0.0
hoped 0.0
play 0.00366976066052
against 0.00585970864706
fulham 0.0
last 0.00480916035149
weekend 0.0
be 0.0
ready 0.0
for 0.0013641603844
the 0.0165319733668
champions 0.0
league 0.0
tie 0.0
bayer 0.0
leverkusen 0.0
on 0.0013965408413
22 0.0
february 0.0
but 0.00166451272419
bernie 0.0
mandic 0.0
said 0.00295615702825
he 0.00370406929717
scans 0.0
which 0.0
don 0.0
show 0.0
anything 0.0
substantial 0.0
despite 0.0
best 0.0
efforts 0.0
at 0.00156826516803
moment 0.0
simply 0.0
can 0.0
shake 0.0
off 0.0
discomfort 0.0
get 0.0
back 0.0
park 0.0
continued 0.0
in 0.00898289386572
sydney 0.0
morning 0.0
herald 0.0
bit 0.0
club 0.0
are 0.00182550065525
doing 0.0
everything 0.0
they 0.0
him 0.0
right 0.0
was 0.00157210134065
desperate 0.0
fit 0.0
game 0.00733952132104
as 0.0016603878738
part 0.0
of 0.00384797528087
plan 0.0
himself 0.0
match 0.00444391455334
has 0.00152089552589
played 0.0
since 0.0
december 0.0
19 0.00527494115073
misses 0.0
out 0.00226204651003
international 0.0
duty 0.0
this 0.0
week 0.0066198618048
with 0.00152015767252
australia 0.0
facing 0.0
south 0.0
africa 0.0
durban 0.0
wednesday 0.0
