liverpool 0.0
winger 0.0
harry 0.0
kewell 0.0
is 0.00297466165332
struggling 0.0
to 0.0116897638047
recover 0.0
from 0.00525912785317
his 0.0
achilles 0.0
tendinitis 0.0
problem 0.0
and 0.00848298412421
may 0.00165089280757
not 0.000961571285469
until 0.0
march 0.0
claims 0.0
agent 0.0
26 0.0
had 0.00103151408173
hoped 0.0
play 0.0
against 0.0
fulham 0.0
last 0.00122213484083
weekend 0.0
be 0.00488663021212
ready 0.0
for 0.00208001540277
the 0.0148658259443
champions 0.0
league 0.0
tie 0.0
bayer 0.0
leverkusen 0.0
on 0.005678367429
22 0.0
february 0.0
but 0.00169198682893
bernie 0.0
mandic 0.0
said 0.00525866380947
he 0.000941301975826
scans 0.0
which 0.00194747609918
don 0.0
show 0.0
anything 0.0
substantial 0.0
despite 0.0
best 0.0
efforts 0.0
at 0.000797075315199
moment 0.0
simply 0.0
can 0.0
shake 0.0
off 0.0
discomfort 0.0
get 0.0
back 0.0
park 0.0
continued 0.0
in 0.00782671171257
sydney 0.0
morning 0.0
herald 0.0
bit 0.0
club 0.0
are 0.00371126398736
doing 0.00461824622441
everything 0.0
they 0.00215822358739
him 0.0
right 0.0019292129273
was 0.0
desperate 0.0
fit 0.0
game 0.0
as 0.00253169084192
part 0.00513136867301
of 0.00977872292395
plan 0.0
himself 0.0
match 0.0
has 0.000772999557347
played 0.0
since 0.0
december 0.0
19 0.0
misses 0.0
out 0.00114969169229
international 0.0
duty 0.0
this 0.00097733026353
week 0.0
with 0.0
australia 0.0027179479063
facing 0.0
south 0.00230509605707
africa 0.0
durban 0.0
wednesday 0.00226614811565
