liverpool 0.0
winger 0.0
harry 0.0
kewell 0.0
is 0.00710723057739
struggling 0.0
to 0.0144821432204
recover 0.0
from 0.00279231266123
his 0.00909254856006
achilles 0.0
tendinitis 0.0
problem 0.0
and 0.00727570217497
may 0.0
not 0.0
until 0.0
march 0.0
claims 0.0
agent 0.0
26 0.0
had 0.0
hoped 0.0
play 0.0
against 0.0
fulham 0.0
last 0.0
weekend 0.0
be 0.00778360963624
ready 0.00902906723782
for 0.00331312729423
the 0.0113246676137
champions 0.0
league 0.0
tie 0.0
bayer 0.0
leverkusen 0.0
on 0.00113058983185
22 0.0
february 0.0
but 0.00539012137788
bernie 0.0
mandic 0.0
said 0.00358979950171
he 0.00449802428972
scans 0.0
which 0.00155100683641
don 0.0
show 0.0
anything 0.0
substantial 0.0
despite 0.0
best 0.0
efforts 0.0
at 0.00634805871827
moment 0.0
simply 0.0
can 0.00208072060718
shake 0.0
off 0.0
discomfort 0.0
get 0.0
back 0.0
park 0.0
continued 0.0
in 0.00727223162028
sydney 0.0
morning 0.0
herald 0.0
bit 0.0
club 0.0
are 0.0
doing 0.0
everything 0.0
they 0.0
him 0.00279024350838
right 0.0
was 0.00254543474534
desperate 0.0
fit 0.0
game 0.00297090780691
as 0.00806514607318
part 0.0
of 0.00311518402977
plan 0.0
himself 0.0
match 0.0
has 0.00246252592981
played 0.00340301298857
since 0.0025841439789
december 0.0
19 0.0
misses 0.0
out 0.00183127246105
international 0.0
duty 0.0
this 0.00467018595236
week 0.0
with 0.00492266250015
australia 0.0
facing 0.0
south 0.0
africa 0.0
durban 0.0
wednesday 0.0
