liverpool 0.0
winger 0.0
harry 0.0
kewell 0.0
is 0.00148783080183
struggling 0.0
to 0.0116936933889
recover 0.0
from 0.0
his 0.00913650311522
achilles 0.0
tendinitis 0.0
problem 0.0
and 0.00456929616239
may 0.0
not 0.000961894523419
until 0.0
march 0.0
claims 0.0
agent 0.0
26 0.0
had 0.00412744332549
hoped 0.0
play 0.0
against 0.0
fulham 0.0
last 0.00122254566878
weekend 0.0
be 0.000814712147025
ready 0.0
for 0.00277428614989
the 0.0174570532992
champions 0.0
league 0.0
tie 0.0
bayer 0.0
leverkusen 0.0
on 0.00213010359234
22 0.0
february 0.0
but 0.00338511120089
bernie 0.0
mandic 0.0
said 0.00375745110059
he 0.0160075128021
scans 0.0
which 0.00292219613242
don 0.0
show 0.0039241618805
anything 0.0
substantial 0.0
despite 0.0
best 0.0
efforts 0.0
at 0.00159468651369
moment 0.0
simply 0.0
can 0.00130673692474
shake 0.0
off 0.0
discomfort 0.0
get 0.00307347278679
back 0.0015115660081
park 0.0
continued 0.0
in 0.00587200703146
sydney 0.0
morning 0.0
herald 0.0
bit 0.0
club 0.0
are 0.0
doing 0.00230989933778
everything 0.0
they 0.00107947454359
him 0.00525699732413
right 0.00192986144379
was 0.00639434926488
desperate 0.0
fit 0.0
game 0.0
as 0.00337672251329
part 0.0
of 0.00652134006684
plan 0.0
himself 0.0
match 0.0
has 0.00231977821734
played 0.0
since 0.0
december 0.0
19 0.0
misses 0.0
out 0.0
international 0.0
duty 0.0
this 0.0
week 0.0
with 0.0023186527908
australia 0.0
facing 0.0
south 0.0
africa 0.0
durban 0.0
wednesday 0.0
