liverpool 0.0
winger 0.0
harry 0.0
kewell 0.0
is 0.00757442637606
struggling 0.0
to 0.00826828445008
recover 0.0
from 0.00446379917771
his 0.0
achilles 0.0
tendinitis 0.0
problem 0.0
and 0.00332313107204
may 0.0
not 0.0
until 0.0
march 0.0
claims 0.0
agent 0.0
26 0.0
had 0.00262656005238
hoped 0.0
play 0.0
against 0.0
fulham 0.0
last 0.0
weekend 0.0
be 0.00207381685059
ready 0.0
for 0.00882729161921
the 0.0296241491965
champions 0.0
league 0.0
tie 0.0
bayer 0.0
leverkusen 0.0
on 0.00722945683239
22 0.0
february 0.0
but 0.00215416594535
bernie 0.0
mandic 0.0
said 0.00191288799023
he 0.0
scans 0.0
which 0.00247944405979
don 0.0
show 0.0
anything 0.0
substantial 0.0
despite 0.0
best 0.0
efforts 0.0
at 0.00202960504245
moment 0.0
simply 0.0
can 0.00332624604126
shake 0.0
off 0.0
discomfort 0.0
get 0.0
back 0.0
park 0.0
continued 0.0
in 0.00332154591808
sydney 0.0
morning 0.0
herald 0.0
bit 0.0
club 0.0
are 0.00236251203587
doing 0.0
everything 0.0
they 0.00274775883293
him 0.0
right 0.0
was 0.0
desperate 0.0
fit 0.0
game 0.0
as 0.0
part 0.0
of 0.0132798461085
plan 0.0
himself 0.0
match 0.0
has 0.00196830057271
played 0.0
since 0.0
december 0.0
19 0.0
misses 0.0
out 0.0
international 0.0
duty 0.0
this 0.0
week 0.0
with 0.00983672831726
australia 0.0
facing 0.0
south 0.0
africa 0.00673769864279
durban 0.0
wednesday 0.0
