liverpool 0.0
winger 0.0
harry 0.0
kewell 0.0
is 0.00432629851937
struggling 0.0
to 0.00917535786068
recover 0.0
from 0.00364228010988
his 0.00759057891549
achilles 0.0
tendinitis 0.0
problem 0.00187709573116
and 0.0108461637492
may 0.0
not 0.00479483421369
until 0.0
march 0.00377932280821
claims 0.00190579348807
agent 0.00560126775696
26 0.0
had 0.00342906732327
hoped 0.0
play 0.0
against 0.00123756138368
fulham 0.0
last 0.00203137442403
weekend 0.0
be 0.00338430183157
ready 0.0
for 0.00230486846984
the 0.0161147406943
champions 0.0
league 0.0
tie 0.0
bayer 0.0
leverkusen 0.0
on 0.00294947261039
22 0.0
february 0.0
but 0.00351542507347
bernie 0.0
mandic 0.0
said 0.00998937251697
he 0.019557342356
scans 0.0
which 0.0
don 0.0
show 0.0
anything 0.0
substantial 0.0
despite 0.0
best 0.0
efforts 0.0
at 0.000662430345338
moment 0.00216088640326
simply 0.0
can 0.0
shake 0.0
off 0.0
discomfort 0.0
get 0.0
back 0.0
park 0.0
continued 0.0
in 0.00921484155301
sydney 0.0
morning 0.0
herald 0.0
bit 0.0
club 0.0
are 0.000771085817709
doing 0.0
everything 0.0
they 0.00179364831535
him 0.0101908271253
right 0.0
was 0.0099607609914
desperate 0.0
fit 0.0
game 0.0
as 0.00140268538136
part 0.0
of 0.00487611848965
plan 0.0
himself 0.0
match 0.0
has 0.0012848431107
played 0.00177554995098
since 0.0
december 0.0
19 0.0
misses 0.0
out 0.0
international 0.0
duty 0.0
this 0.000812235947638
week 0.0
with 0.00321054944184
australia 0.0
facing 0.0
south 0.0
africa 0.0
durban 0.0
wednesday 0.0
