liverpool 0.0
winger 0.0
harry 0.0
kewell 0.0
is 0.00437251775563
struggling 0.0
to 0.0178194382977
recover 0.0
from 0.0
his 0.00447514171264
achilles 0.0
tendinitis 0.0
problem 0.0
and 0.00511561717297
may 0.0
not 0.0
until 0.0
march 0.0
claims 0.013483075843
agent 0.0
26 0.0
had 0.0
hoped 0.0
play 0.00365552995491
against 0.0
fulham 0.0
last 0.00239525562416
weekend 0.0
be 0.00159621346021
ready 0.0
for 0.00135887040322
the 0.0202681417787
champions 0.0
league 0.0
tie 0.0
bayer 0.0
leverkusen 0.0
on 0.00417337588271
22 0.0
february 0.0
but 0.00331611605578
bernie 0.0
mandic 0.0
said 0.00736173388939
he 0.0
scans 0.0
which 0.00190842406404
don 0.0
show 0.0
anything 0.0
substantial 0.0
despite 0.0
best 0.0
efforts 0.0
at 0.00156218370332
moment 0.0
simply 0.0
can 0.0
shake 0.0
off 0.0
discomfort 0.0
get 0.0
back 0.00296151471036
park 0.0
continued 0.0
in 0.00511317699212
sydney 0.0
morning 0.0
herald 0.0
bit 0.0
club 0.0
are 0.00545526502567
doing 0.0
everything 0.0
they 0.0126896730537
him 0.0
right 0.0
was 0.00469801499976
desperate 0.0
fit 0.0
game 0.0
as 0.00496184751891
part 0.0
of 0.00255536899292
plan 0.0
himself 0.0
match 0.0
has 0.0075749887629
played 0.0
since 0.0
december 0.0
19 0.0
misses 0.0
out 0.0
international 0.0
duty 0.0
this 0.0
week 0.00329709555519
with 0.00151426276047
australia 0.0
facing 0.0
south 0.0
africa 0.0
durban 0.0
wednesday 0.0
