liverpool 0.0
winger 0.0
harry 0.0
kewell 0.0
is 0.00155293146761
struggling 0.0
to 0.00949305457892
recover 0.00676224602016
from 0.00732145127724
his 0.00715220600394
achilles 0.0
tendinitis 0.0
problem 0.0
and 0.0
may 0.0
not 0.00200796524996
until 0.0
march 0.0
claims 0.0
agent 0.0
26 0.0
had 0.0
hoped 0.0
play 0.0
against 0.00310957185468
fulham 0.0
last 0.00510415468563
weekend 0.00542957434624
be 0.00850360221476
ready 0.0
for 0.00289567621334
the 0.0161963502641
champions 0.0
league 0.0
tie 0.0
bayer 0.0
leverkusen 0.0
on 0.0
22 0.0
february 0.0
but 0.0035332281727
bernie 0.0
mandic 0.0
said 0.00156874398485
he 0.00393127724535
scans 0.0
which 0.0
don 0.0
show 0.0
anything 0.0
substantial 0.0
despite 0.0
best 0.0
efforts 0.0
at 0.00166446269632
moment 0.0
simply 0.0
can 0.0
shake 0.0
off 0.0
discomfort 0.0
get 0.0
back 0.0
park 0.0
continued 0.0
in 0.00544794593937
sydney 0.0
morning 0.0
herald 0.0
bit 0.0
club 0.0
are 0.0
doing 0.0
everything 0.0
they 0.0
him 0.0
right 0.0040286066944
was 0.00500560254035
desperate 0.0
fit 0.0
game 0.0038948641138
as 0.0
part 0.0
of 0.00272267362347
plan 0.0
himself 0.0
match 0.0
has 0.00161418739602
played 0.0
since 0.0
december 0.0
19 0.0
misses 0.0
out 0.00480160129812
international 0.0
duty 0.0
this 0.0
week 0.0
with 0.0
australia 0.0
facing 0.0
south 0.00481353057267
africa 0.00552553221707
durban 0.0
wednesday 0.0
