liverpool 0.0
winger 0.0
harry 0.0
kewell 0.0
is 0.00658357989992
struggling 0.0
to 0.00646800401097
recover 0.0
from 0.0
his 0.0
achilles 0.0
tendinitis 0.0
problem 0.0
and 0.00902630189588
may 0.0
not 0.00266021069165
until 0.0
march 0.0
claims 0.0
agent 0.0
26 0.0
had 0.000570741832723
hoped 0.0
play 0.00206401164727
against 0.0
fulham 0.0
last 0.0
weekend 0.0
be 0.00180253107705
ready 0.00156821594224
for 0.00191813798133
the 0.0128744371863
champions 0.0
league 0.0
tie 0.0
bayer 0.0
leverkusen 0.0
on 0.0031418687255
22 0.0
february 0.0
but 0.00140427699552
bernie 0.0
mandic 0.0
said 0.00041566352018
he 0.0
scans 0.0
which 0.00107754813794
don 0.0
show 0.0
anything 0.0
substantial 0.0
despite 0.0
best 0.0
efforts 0.0
at 0.0013230771182
moment 0.00143865156305
simply 0.0
can 0.00289112409207
shake 0.0
off 0.0
discomfort 0.0
get 0.00254999429839
back 0.000836075881082
park 0.0
continued 0.0
in 0.00360879851774
sydney 0.0
morning 0.0
herald 0.0
bit 0.00140520446974
club 0.0
are 0.00410692136418
doing 0.0
everything 0.00143865156305
they 0.000597077881683
him 0.000969248370249
right 0.0010674430348
was 0.000884209020138
desperate 0.0
fit 0.0
game 0.00619203494181
as 0.00326852642349
part 0.00378561548527
of 0.0133461852927
plan 0.0
himself 0.0
match 0.0
has 0.00128311341125
played 0.0
since 0.0
december 0.0
19 0.0
misses 0.0
out 0.00127226017588
international 0.0
duty 0.0103877901881
this 0.00324456995204
week 0.0
with 0.00299247880504
australia 0.0
facing 0.0
south 0.0
africa 0.00146407711799
durban 0.0
wednesday 0.0
