liverpool 0.0
winger 0.0
harry 0.0
kewell 0.0
is 0.00744510044671
struggling 0.0
to 0.00731440041488
recover 0.0
from 0.00329068812627
his 0.00428615921125
achilles 0.0
tendinitis 0.0
problem 0.00282649716114
and 0.00979917556811
may 0.0
not 0.0
until 0.0
march 0.0
claims 0.0
agent 0.0
26 0.0
had 0.0
hoped 0.0
play 0.0
against 0.0
fulham 0.0
last 0.0
weekend 0.0
be 0.00203840845421
ready 0.0
for 0.00954423166401
the 0.0177945446524
champions 0.0
league 0.00323037771222
tie 0.0
bayer 0.0
leverkusen 0.0
on 0.00177650523023
22 0.0
february 0.0
but 0.00211738566668
bernie 0.0
mandic 0.0
said 0.00188022729689
he 0.00824574691886
scans 0.0
which 0.00121855498758
don 0.0
show 0.0
anything 0.0
substantial 0.0
despite 0.0
best 0.00443197902516
efforts 0.00353554948691
at 0.000997475759744
moment 0.0
simply 0.0
can 0.0016347268201
shake 0.0
off 0.0021052408157
discomfort 0.0
get 0.0
back 0.00378193567047
park 0.0
continued 0.0
in 0.00489725065055
sydney 0.0
morning 0.0
herald 0.0
bit 0.00317817618512
club 0.0
are 0.00232217445128
doing 0.0
everything 0.0
they 0.00135042176786
him 0.00219216644561
right 0.00724276524567
was 0.000999915710128
desperate 0.0
fit 0.0
game 0.00233410610499
as 0.00211213854603
part 0.0
of 0.00326327642801
plan 0.0
himself 0.0032227108971
match 0.00282649716114
has 0.00193469376367
played 0.0
since 0.0
december 0.0
19 0.0
misses 0.0
out 0.0
international 0.00237854484036
duty 0.0
this 0.0
week 0.0
with 0.00290063273783
australia 0.0
facing 0.0
south 0.0
africa 0.0
durban 0.0
wednesday 0.0
