liverpool 0.0
winger 0.0
harry 0.0
kewell 0.0
is 0.00322094933086
struggling 0.0
to 0.00803658414162
recover 0.0
from 0.00162701666982
his 0.000706402654868
achilles 0.0
tendinitis 0.0
problem 0.0
and 0.00807501926044
may 0.00102147359524
not 0.00237985088685
until 0.0
march 0.0
claims 0.0
agent 0.0
26 0.0
had 0.000638239135078
hoped 0.0
play 0.0
against 0.0
fulham 0.0
last 0.0
weekend 0.0
be 0.00352747979351
ready 0.00175367693272
for 0.00471895950699
the 0.0191959988055
champions 0.0
league 0.0
tie 0.0
bayer 0.0
leverkusen 0.0
on 0.00175671684019
22 0.00163303475349
february 0.0
but 0.00104690011449
bernie 0.0
mandic 0.0
said 0.0116205222043
he 0.00990116187664
scans 0.0
which 0.00180747236001
don 0.00119368141638
show 0.00121361021194
anything 0.0
substantial 0.0
despite 0.0
best 0.0
efforts 0.0
at 0.00345227727029
moment 0.0
simply 0.0
can 0.000808258845825
shake 0.0
off 0.0
discomfort 0.0
get 0.000950520919819
back 0.000934952226395
park 0.0
continued 0.0
in 0.00443914208462
sydney 0.0
morning 0.0
herald 0.0
bit 0.0
club 0.0
are 0.00229630788303
doing 0.00142874708549
everything 0.0
they 0.00267075899421
him 0.0
right 0.00119368141638
was 0.00197755541257
desperate 0.0
fit 0.00359037399576
game 0.0
as 0.00313291733355
part 0.0
of 0.00605048808511
plan 0.0
himself 0.0
match 0.0
has 0.00286971498092
played 0.0
since 0.0010038143625
december 0.0
19 0.0
misses 0.0
out 0.0
international 0.0
duty 0.0
this 0.000604713433512
week 0.0
with 0.00286832275584
australia 0.0
facing 0.0
south 0.0
africa 0.0
durban 0.0
wednesday 0.0
