liverpool 0.0
winger 0.0
harry 0.0
kewell 0.0
is 0.00374607184117
struggling 0.0
to 0.0163569284408
recover 0.0
from 0.00294353861693
his 0.0
achilles 0.0
tendinitis 0.0
problem 0.0
and 0.00657406230673
may 0.00277201859348
not 0.0
until 0.0
march 0.0
claims 0.0
agent 0.0
26 0.0
had 0.0
hoped 0.0
play 0.0
against 0.0
fulham 0.0
last 0.00205208992794
weekend 0.0
be 0.00273505135026
ready 0.0
for 0.00116418650255
the 0.0141085318665
champions 0.0
league 0.0
tie 0.0
bayer 0.0
leverkusen 0.0
on 0.00357546081012
22 0.0
february 0.0
but 0.00142050983814
bernie 0.0
mandic 0.0
said 0.00252281047822
he 0.00158054270217
scans 0.0
which 0.00163500620166
don 0.0
show 0.0
anything 0.0
substantial 0.0
despite 0.0
best 0.0
efforts 0.0
at 0.0013383713249
moment 0.0
simply 0.0
can 0.0
shake 0.0
off 0.0
discomfort 0.0
get 0.00257947114395
back 0.0025372216841
park 0.0
continued 0.0
in 0.00438061762572
sydney 0.0
morning 0.0
herald 0.0
bit 0.0
club 0.0
are 0.00155789835825
doing 0.0
everything 0.0
they 0.0
him 0.0
right 0.0
was 0.00134164514844
desperate 0.0
fit 0.0
game 0.0
as 0.0070849482722
part 0.00287203168822
of 0.00437852805325
plan 0.0121133652381
himself 0.0
match 0.0
has 0.0025958913091
played 0.0
since 0.0
december 0.0
19 0.0
misses 0.0
out 0.00193045044062
international 0.0
duty 0.0
this 0.00164103789783
week 0.0
with 0.00129731596397
australia 0.0
facing 0.0
south 0.0
africa 0.0
durban 0.0
wednesday 0.0
