liverpool 0.0
winger 0.0
harry 0.0
kewell 0.0
is 0.00363471415353
struggling 0.0
to 0.0119030203836
recover 0.0
from 0.0
his 0.00139500813642
achilles 0.0
tendinitis 0.0
problem 0.0
and 0.010365287234
may 0.0
not 0.00117493589801
until 0.0
march 0.0
claims 0.0
agent 0.0
26 0.0
had 0.00504159365925
hoped 0.0
play 0.0
against 0.0054585819146
fulham 0.0
last 0.0
weekend 0.0
be 0.000995155419623
ready 0.0
for 0.00169436893001
the 0.0126361239518
champions 0.0
league 0.0
tie 0.0
bayer 0.0
leverkusen 0.0
on 0.00260188109631
22 0.0
february 0.0
but 0.00206742453141
bernie 0.0
mandic 0.0
said 0.00550758621736
he 0.0184027039739
scans 0.0
which 0.0
don 0.0
show 0.0
anything 0.0
substantial 0.0
despite 0.0
best 0.0
efforts 0.0
at 0.00292181895008
moment 0.0
simply 0.0
can 0.00319230868822
shake 0.0
off 0.0
discomfort 0.0
get 0.0037541886567
back 0.00369269836118
park 0.0
continued 0.0
in 0.00478169673609
sydney 0.0
morning 0.0
herald 0.0
bit 0.0
club 0.0
are 0.00113369059363
doing 0.0
everything 0.0
they 0.0013185576603
him 0.0021404408077
right 0.00235728911361
was 0.00781057622516
desperate 0.0
fit 0.0
game 0.00683709391677
as 0.00206230122009
part 0.0
of 0.00637255446299
plan 0.0
himself 0.0
match 0.00275980406444
has 0.0
played 0.00261050616119
since 0.00396467706764
december 0.0
19 0.0
misses 0.0
out 0.0014047986471
international 0.0
duty 0.0
this 0.00477676664513
week 0.00616669873902
with 0.00283219036247
australia 0.0
facing 0.00334941535935
south 0.0
africa 0.0
durban 0.0
wednesday 0.0
