liverpool 0.0
winger 0.0
harry 0.0
kewell 0.0
is 0.00313447985745
struggling 0.0
to 0.0123178140759
recover 0.0
from 0.00554168246501
his 0.0
achilles 0.0
tendinitis 0.0
problem 0.00475996179347
and 0.00893874529857
may 0.0
not 0.00202646631925
until 0.0
march 0.0
claims 0.0
agent 0.0
26 0.0
had 0.0
hoped 0.0
play 0.0
against 0.00156911147515
fulham 0.0
last 0.00128779588677
weekend 0.0
be 0.00343278121589
ready 0.0
for 0.00511412389051
the 0.0217941077786
champions 0.0
league 0.0
tie 0.0
bayer 0.0
leverkusen 0.0
on 0.00299172316112
22 0.0
february 0.0
but 0.000891445692395
bernie 0.0
mandic 0.0
said 0.00633279255985
he 0.0
scans 0.0
which 0.0
don 0.00406572562941
show 0.0
anything 0.0
substantial 0.0
despite 0.0
best 0.0
efforts 0.00297702058718
at 0.00167979878826
moment 0.0
simply 0.0
can 0.00275296126719
shake 0.0
off 0.0
discomfort 0.0
get 0.00161875572995
back 0.0
park 0.0
continued 0.0
in 0.00481087463343
sydney 0.0
morning 0.0
herald 0.0
bit 0.0
club 0.0
are 0.00586598590183
doing 0.0
everything 0.0
they 0.00454835483895
him 0.0
right 0.0
was 0.000841953893028
desperate 0.0
fit 0.0
game 0.00196537538308
as 0.00177847317872
part 0.00180235307644
of 0.00824327970277
plan 0.00253392760168
himself 0.0
match 0.0
has 0.00244359038913
played 0.0
since 0.0
december 0.0
19 0.0
misses 0.0
out 0.0
international 0.0
duty 0.0
this 0.0
week 0.00177266511826
with 0.005698944757
australia 0.0
facing 0.0
south 0.0
africa 0.0
durban 0.0
wednesday 0.0
