liverpool 0.0
winger 0.0
harry 0.0
kewell 0.0
is 0.00293979107411
struggling 0.0
to 0.0102690934438
recover 0.0
from 0.00173249251201
his 0.0
achilles 0.0
tendinitis 0.0
problem 0.0
and 0.0116079812791
may 0.00326308031342
not 0.00190059846235
until 0.0
march 0.0
claims 0.0
agent 0.0
26 0.0
had 0.00815537696375
hoped 0.0
play 0.00368660401165
against 0.0
fulham 0.0
last 0.00724684992479
weekend 0.0
be 0.0016097821707
ready 0.0
for 0.00548168625791
the 0.0255505404523
champions 0.0
league 0.0
tie 0.0
bayer 0.0
leverkusen 0.0
on 0.00701475320089
22 0.0
february 0.0
but 0.00501645735575
bernie 0.0
mandic 0.0
said 0.00593945020811
he 0.00558160517549
scans 0.0
which 0.0
don 0.0
show 0.0
anything 0.0
substantial 0.0
despite 0.0
best 0.00700008950697
efforts 0.0
at 0.00315092628354
moment 0.0
simply 0.0
can 0.0
shake 0.0
off 0.0
discomfort 0.0
get 0.0
back 0.0
park 0.0
continued 0.0
in 0.00644580233369
sydney 0.0
morning 0.0
herald 0.0
bit 0.0
club 0.0
are 0.00183387928028
doing 0.0
everything 0.0
they 0.0042658474661
him 0.0034624174091
right 0.0
was 0.0047379507646
desperate 0.0
fit 0.0
game 0.0
as 0.00333601733885
part 0.00338081067833
of 0.00644272765969
plan 0.0
himself 0.0
match 0.0
has 0.00458362825187
played 0.0
since 0.00320666818981
december 0.0
19 0.0
misses 0.0
out 0.0
international 0.0
duty 0.0
this 0.00579524084425
week 0.0
with 0.00458140453201
australia 0.0
facing 0.0
south 0.0
africa 0.0
durban 0.0
wednesday 0.0
