liverpool 0.0
winger 0.0
harry 0.0
kewell 0.0
is 0.0
struggling 0.0
to 0.0124124607767
recover 0.0
from 0.00372284215418
his 0.00727356722011
achilles 0.0
tendinitis 0.0
problem 0.0
and 0.00692879089446
may 0.0
not 0.00408407425993
until 0.0
march 0.0
claims 0.0
agent 0.0
26 0.0
had 0.00219057087791
hoped 0.0
play 0.0
against 0.0
fulham 0.00845915582407
last 0.0051907638269
weekend 0.0
be 0.00345915776408
ready 0.0
for 0.00736202773444
the 0.0164711757885
champions 0.00601898787923
league 0.00548191709129
tie 0.0
bayer 0.0
leverkusen 0.0
on 0.00753677685084
22 0.0
february 0.0
but 0.00538977189778
bernie 0.0
mandic 0.0
said 0.00159536299971
he 0.00599697686753
scans 0.0
which 0.0
don 0.00409696554867
show 0.0
anything 0.0
substantial 0.0
despite 0.0
best 0.0
efforts 0.0
at 0.00507811770259
moment 0.0
simply 0.0
can 0.0
shake 0.0
off 0.0
discomfort 0.0
get 0.0
back 0.0
park 0.0
continued 0.0
in 0.00831058298231
sydney 0.0
morning 0.0
herald 0.0
bit 0.0
club 0.0
are 0.0
doing 0.0
everything 0.0
they 0.0
him 0.0
right 0.0
was 0.00339369294214
desperate 0.0
fit 0.0
game 0.0
as 0.0
part 0.0
of 0.00276887293344
plan 0.0
himself 0.00546890658646
match 0.0
has 0.0114910425777
played 0.0
since 0.0
december 0.0
19 0.0
misses 0.0
out 0.00244153830209
international 0.00403636564338
duty 0.0
this 0.00207550362259
week 0.00714514316096
with 0.00328156221916
australia 0.0
facing 0.0
south 0.0
africa 0.0
durban 0.0
wednesday 0.0
