liverpool 0.0
winger 0.0
harry 0.0
kewell 0.0
is 0.00415985384185
struggling 0.0
to 0.00999002127428
recover 0.0
from 0.00122575302978
his 0.00478967234608
achilles 0.0
tendinitis 0.0
problem 0.0
and 0.0100377987439
may 0.0
not 0.0
until 0.0
march 0.0
claims 0.0
agent 0.0
26 0.0
had 0.00144249945571
hoped 0.0
play 0.0
against 0.0
fulham 0.0
last 0.0
weekend 0.0
be 0.00227786886159
ready 0.0
for 0.0029087543636
the 0.0162695001216
champions 0.0
league 0.0
tie 0.0
bayer 0.0
leverkusen 0.0
on 0.000992599382631
22 0.0
february 0.0
but 0.00354918578866
bernie 0.0
mandic 0.0
said 0.00105055274949
he 0.0039490326264
scans 0.0
which 0.0
don 0.00269786777209
show 0.0
anything 0.0
substantial 0.0
despite 0.0
best 0.0
efforts 0.0
at 0.00222930685813
moment 0.0
simply 0.0
can 0.0
shake 0.0
off 0.0
discomfort 0.0
get 0.0
back 0.0021131077735
park 0.0
continued 0.0
in 0.00547255126482
sydney 0.0
morning 0.0
herald 0.0
bit 0.0
club 0.0
are 0.00389245506427
doing 0.0
everything 0.00727212892998
they 0.00452718446393
him 0.0
right 0.0
was 0.00446952004269
desperate 0.0
fit 0.0
game 0.0104332134322
as 0.0
part 0.0
of 0.00820491125332
plan 0.0
himself 0.0
match 0.0
has 0.00108098518525
played 0.0
since 0.00226874472584
december 0.0
19 0.00374919456329
misses 0.0
out 0.00643104992834
international 0.0
duty 0.0
this 0.00546690887949
week 0.0
with 0.0021609215035
australia 0.0
facing 0.0
south 0.00322351373244
africa 0.0
durban 0.0
wednesday 0.0
