liverpool 0.0
winger 0.0
harry 0.0
kewell 0.0
is 0.0
struggling 0.0
to 0.00398066966167
recover 0.0
from 0.0
his 0.0
achilles 0.0
tendinitis 0.0
problem 0.0
and 0.00599956093678
may 0.0
not 0.0
until 0.0
march 0.0
claims 0.0
agent 0.0
26 0.0
had 0.0
hoped 0.0
play 0.0
against 0.0
fulham 0.0
last 0.00187275964175
weekend 0.00796863601032
be 0.0
ready 0.0
for 0.00106244929512
the 0.0207990461599
champions 0.0
league 0.0
tie 0.0
bayer 0.0
leverkusen 0.0
on 0.00108766817261
22 0.0
february 0.0
but 0.0
bernie 0.0
mandic 0.0
said 0.00115117217405
he 0.0
scans 0.0
which 0.00298424897154
don 0.0
show 0.0
anything 0.0
substantial 0.0
despite 0.0
best 0.0
efforts 0.0
at 0.00122141226309
moment 0.0
simply 0.0
can 0.0
shake 0.0
off 0.0025778741227
discomfort 0.0
get 0.0
back 0.0
park 0.0
continued 0.0
in 0.00699614896087
sydney 0.0
morning 0.0
herald 0.0
bit 0.0
club 0.0
are 0.0
doing 0.0
everything 0.0
they 0.00165359578064
him 0.0
right 0.0
was 0.00367319997046
desperate 0.0
fit 0.0
game 0.0
as 0.00129316020779
part 0.0
of 0.00299691932969
plan 0.0
himself 0.0
match 0.0
has 0.00118451935558
played 0.0
since 0.0
december 0.00327382116342
19 0.00410828343315
misses 0.0
out 0.00176175011941
international 0.0
duty 0.0
this 0.0
week 0.0025778741227
with 0.00355183407928
australia 0.0
facing 0.0
south 0.0
africa 0.0
durban 0.0
wednesday 0.0
