liverpool 0.0
winger 0.0
harry 0.0
kewell 0.0
is 0.00768581375949
struggling 0.0
to 0.00969496726195
recover 0.0
from 0.00301962836843
his 0.0104882686735
achilles 0.0
tendinitis 0.0
problem 0.0
and 0.00824266691775
may 0.00189578306296
not 0.0033126267468
until 0.0
march 0.0
claims 0.0
agent 0.0
26 0.0
had 0.0
hoped 0.0
play 0.0
against 0.0
fulham 0.0
last 0.00140342396628
weekend 0.0
be 0.00187050117136
ready 0.00325470089726
for 0.00557330871156
the 0.0148443425188
champions 0.0
league 0.0
tie 0.0
bayer 0.0
leverkusen 0.0
on 0.00163017137572
22 0.0
february 0.0
but 0.0
bernie 0.0
mandic 0.0
said 0.000862674836832
he 0.00648559737392
scans 0.0
which 0.00111818047405
don 0.0
show 0.0
anything 0.0
substantial 0.0
despite 0.0
best 0.0
efforts 0.0
at 0.000915311930324
moment 0.00298580087537
simply 0.0
can 0.00450021450639
shake 0.0
off 0.00193182843392
discomfort 0.0
get 0.0017640998937
back 0.0
park 0.0
continued 0.0
in 0.0104856628735
sydney 0.0
morning 0.0
herald 0.0
bit 0.0
club 0.0
are 0.0
doing 0.0
everything 0.0
they 0.0
him 0.0
right 0.0
was 0.00183510179542
desperate 0.0
fit 0.0
game 0.0
as 0.00775263194436
part 0.0
of 0.00449171192983
plan 0.0
himself 0.0
match 0.0
has 0.00355065928392
played 0.0
since 0.0
december 0.0
19 0.0
misses 0.0
out 0.0
international 0.00218261992627
duty 0.0
this 0.0
week 0.0
with 0.00354893670279
australia 0.0
facing 0.0
south 0.0
africa 0.0
durban 0.0
wednesday 0.0
