liverpool 0.0
winger 0.0
harry 0.0
kewell 0.0
is 0.00210099432998
struggling 0.0
to 0.0134549458397
recover 0.0
from 0.00330178288428
his 0.0
achilles 0.0
tendinitis 0.0
problem 0.0
and 0.00491610704652
may 0.0
not 0.00090553976848
until 0.0
march 0.0
claims 0.0
agent 0.0
26 0.0
had 0.0
hoped 0.0
play 0.0
against 0.0
fulham 0.0
last 0.00230184016004
weekend 0.0
be 0.00153396080554
ready 0.0
for 0.00391762253038
the 0.015216937549
champions 0.0
league 0.0
tie 0.0
bayer 0.0
leverkusen 0.0
on 0.00668435560201
22 0.0
february 0.0
but 0.000796696711152
bernie 0.0
mandic 0.0
said 0.00636716227232
he 0.00443225783746
scans 0.0
which 0.0
don 0.0
show 0.0
anything 0.0
substantial 0.0
despite 0.0
best 0.0
efforts 0.0
at 0.0
moment 0.0
simply 0.00236508467308
can 0.00615089400906
shake 0.0
off 0.0
discomfort 0.0
get 0.00578681293638
back 0.00142300751246
park 0.0
continued 0.0
in 0.00307110127076
sydney 0.0
morning 0.0
herald 0.0
bit 0.0
club 0.0
are 0.0052425085628
doing 0.0
everything 0.00244859590899
they 0.00406492439445
him 0.0
right 0.0
was 0.0037623262036
desperate 0.0
fit 0.0
game 0.0
as 0.00158944481358
part 0.0
of 0.00920890902879
plan 0.0
himself 0.0
match 0.0
has 0.00436773758185
played 0.0
since 0.00152781643663
december 0.0
19 0.0
misses 0.0
out 0.00324809475259
international 0.0
duty 0.0
this 0.00184076091693
week 0.0
with 0.00145520620002
australia 0.0
facing 0.0
south 0.0
africa 0.0
durban 0.0
wednesday 0.0
