liverpool 0.0
winger 0.0
harry 0.0
kewell 0.0
is 0.00608328331107
struggling 0.0
to 0.00752595064194
recover 0.0
from 0.000597505203552
his 0.000778257414167
achilles 0.0
tendinitis 0.0
problem 0.0
and 0.0106756851476
may 0.0
not 0.00196644567855
until 0.0
march 0.0
claims 0.0
agent 0.0
26 0.00193830935407
had 0.0
hoped 0.0
play 0.00381432831334
against 0.0
fulham 0.0
last 0.0
weekend 0.0
be 0.00333110781228
ready 0.0
for 0.00378106807463
the 0.0185050264938
champions 0.0
league 0.0
tie 0.0
bayer 0.0
leverkusen 0.0
on 0.00145155659033
22 0.0
february 0.0
but 0.00230678005066
bernie 0.0
mandic 0.0
said 0.00153630638271
he 0.000641664752453
scans 0.0
which 0.00265510282818
don 0.0
show 0.0053482310059
anything 0.0
substantial 0.0
despite 0.0
best 0.0
efforts 0.0
at 0.00326009175343
moment 0.0035448697829
simply 0.0
can 0.00534284605241
shake 0.0
off 0.00114677443791
discomfort 0.0
get 0.0
back 0.0
park 0.0
continued 0.0
in 0.00533529639004
sydney 0.0
morning 0.0
herald 0.0
bit 0.0
club 0.0
are 0.00569224492778
doing 0.0
everything 0.00177243489145
they 0.00882727991339
him 0.0
right 0.0
was 0.0
desperate 0.0
fit 0.0
game 0.0
as 0.00115053179468
part 0.0
of 0.0111098988165
plan 0.0
himself 0.0
match 0.0
has 0.00158081014069
played 0.0
since 0.0
december 0.0
19 0.0
misses 0.0
out 0.00156743883275
international 0.0
duty 0.0
this 0.00199867331967
week 0.0
with 0.00526681073364
australia 0.0
facing 0.0
south 0.0
africa 0.0
durban 0.0
wednesday 0.0
