liverpool 0.0
winger 0.0
harry 0.0
kewell 0.0
is 0.00549139772913
struggling 0.0
to 0.0130787764556
recover 0.0
from 0.00176520993987
his 0.0
achilles 0.0
tendinitis 0.0
problem 0.0
and 0.0109511049638
may 0.00221646818633
not 0.00710046518069
until 0.00140996023491
march 0.0
claims 0.0
agent 0.0
26 0.0
had 0.00276979599817
hoped 0.0
play 0.0
against 0.0
fulham 0.0
last 0.0
weekend 0.0
be 0.00273363710478
ready 0.0
for 0.00279260285475
the 0.0173553681235
champions 0.0
league 0.0
tie 0.0
bayer 0.0
leverkusen 0.0
on 0.00428833440497
22 0.0
february 0.0
but 0.00454328101838
bernie 0.0
mandic 0.0
said 0.0
he 0.0
scans 0.0
which 0.00130732861567
don 0.0
show 0.00263338028306
anything 0.0
substantial 0.0
despite 0.0
best 0.0
efforts 0.0
at 0.00321043026563
moment 0.0
simply 0.0
can 0.00438454803539
shake 0.0
off 0.00112930544346
discomfort 0.0
get 0.00206250987694
back 0.0010143638931
park 0.0
continued 0.0
in 0.00569185823406
sydney 0.0
morning 0.0
herald 0.0
bit 0.0
club 0.0
are 0.00498269695119
doing 0.00155010001044
everything 0.0
they 0.00507080733671
him 0.0
right 0.0
was 0.00268190281611
desperate 0.0
fit 0.0
game 0.0
as 0.000566502781909
part 0.0045928745803
of 0.00919015439107
plan 0.0
himself 0.0
match 0.0
has 0.000518909804151
played 0.0
since 0.0
december 0.0
19 0.0
misses 0.0
out 0.000771780895873
international 0.0
duty 0.0
this 0.0013121514775
week 0.00112930544346
with 0.0025932902908
australia 0.0
facing 0.0
south 0.00154739667333
africa 0.0
durban 0.0
wednesday 0.00152125116204
