liverpool 0.0
winger 0.0
harry 0.0
kewell 0.0
is 0.00281106588729
struggling 0.0
to 0.00981943871024
recover 0.0
from 0.0
his 0.0
achilles 0.0
tendinitis 0.0
problem 0.0
and 0.00493320018273
may 0.0
not 0.00181737659862
until 0.00396969992498
march 0.00429740791288
claims 0.0
agent 0.0
26 0.0
had 0.00389913796641
hoped 0.0
play 0.0
against 0.0
fulham 0.0
last 0.0
weekend 0.0
be 0.0
ready 0.0
for 0.00262082931337
the 0.014659052468
champions 0.0
league 0.0
tie 0.0
bayer 0.0
leverkusen 0.0
on 0.00402455812682
22 0.0
february 0.0
but 0.00159893359679
bernie 0.0
mandic 0.0
said 0.00425953378532
he 0.0
scans 0.0
which 0.00736148747892
don 0.0
show 0.0
anything 0.0
substantial 0.0
despite 0.0
best 0.0
efforts 0.0
at 0.0
moment 0.0
simply 0.0
can 0.00246891218294
shake 0.0
off 0.0
discomfort 0.0
get 0.0
back 0.0028559105219
park 0.0
continued 0.0
in 0.00862898227783
sydney 0.0
morning 0.0
herald 0.0
bit 0.0
club 0.0
are 0.0
doing 0.0
everything 0.0
they 0.0
him 0.0
right 0.0
was 0.0015101630733
desperate 0.0
fit 0.0
game 0.0
as 0.00159497125888
part 0.0
of 0.00739274247265
plan 0.0
himself 0.0
match 0.0
has 0.00438292405617
played 0.0
since 0.0
december 0.0
19 0.0
misses 0.0
out 0.0
international 0.0
duty 0.0
this 0.0
week 0.0
with 0.0
australia 0.0
facing 0.0
south 0.0
africa 0.0
durban 0.0
wednesday 0.0
