liverpool 0.0
winger 0.0
harry 0.0
kewell 0.0
is 0.0
struggling 0.0
to 0.00694774222779
recover 0.0
from 0.0
his 0.0061069522431
achilles 0.0
tendinitis 0.0
problem 0.0
and 0.0139619398783
may 0.0
not 0.0
until 0.0
march 0.0
claims 0.0
agent 0.0
26 0.0
had 0.0
hoped 0.0
play 0.00498847819608
against 0.00398268872623
fulham 0.0
last 0.0032686588819
weekend 0.0
be 0.00217825490169
ready 0.0
for 0.00185436734519
the 0.0259300253448
champions 0.0
league 0.0
tie 0.00825713140048
bayer 0.0
leverkusen 0.0
on 0.00379676724519
22 0.0
february 0.0
but 0.00226265040144
bernie 0.0
mandic 0.0
said 0.00200922161468
he 0.00755267330831
scans 0.0
which 0.0
don 0.00515977350388
show 0.0
anything 0.0066876345355
substantial 0.0
despite 0.0
best 0.0
efforts 0.0
at 0.00213181657336
moment 0.0
simply 0.0
can 0.0
shake 0.0
off 0.0
discomfort 0.0
get 0.00410869482398
back 0.00404139803045
park 0.0
continued 0.0
in 0.0104664599603
sydney 0.0
morning 0.0
herald 0.0
bit 0.0
club 0.0
are 0.0
doing 0.0
everything 0.0
they 0.0
him 0.0
right 0.00515977350388
was 0.00427406252631
desperate 0.0
fit 0.0
game 0.0
as 0.0
part 0.0
of 0.00871788951353
plan 0.0
himself 0.0
match 0.0
has 0.0
played 0.0
since 0.0
december 0.0
19 0.0
misses 0.0
out 0.0
international 0.0
duty 0.0
this 0.0
week 0.00449934468882
with 0.00206642179299
australia 0.0
facing 0.0
south 0.0
africa 0.0
durban 0.0
wednesday 0.0
