liverpool 0.0
winger 0.0
harry 0.0
kewell 0.0
is 0.00370016850545
struggling 0.0
to 0.00581633824717
recover 0.0
from 0.00087224079089
his 0.0
achilles 0.0
tendinitis 0.0
problem 0.0
and 0.00649350555237
may 0.00164283062328
not 0.0038275016936
until 0.0
march 0.0
claims 0.00228196455127
agent 0.0
26 0.0
had 0.00923828986738
hoped 0.0
play 0.0
against 0.00296366970007
fulham 0.0
last 0.0
weekend 0.0
be 0.00243138310382
ready 0.0
for 0.000689952528493
the 0.0167227797492
champions 0.0
league 0.00513752826606
tie 0.0
bayer 0.0
leverkusen 0.0
on 0.00353164809512
22 0.0
february 0.0
but 0.0042093099019
bernie 0.0
mandic 0.0
said 0.00747568995403
he 0.00374682039814
scans 0.0
which 0.000968982770767
don 0.0
show 0.00195184293572
anything 0.0
substantial 0.0
despite 0.0
best 0.0
efforts 0.0
at 0.00158636554822
moment 0.0
simply 0.0
can 0.00259983692117
shake 0.0
off 0.0
discomfort 0.0
get 0.0
back 0.0
park 0.0
continued 0.0
in 0.00324520405514
sydney 0.0
morning 0.0
herald 0.0
bit 0.0
club 0.0
are 0.000923284979729
doing 0.0
everything 0.0
they 0.00536920959523
him 0.0
right 0.0
was 0.00556586098821
desperate 0.0
fit 0.0
game 0.0
as 0.00167955150276
part 0.0
of 0.00778477459097
plan 0.0
himself 0.0
match 0.0
has 0.00153844918188
played 0.0
since 0.0
december 0.0
19 0.0
misses 0.0
out 0.00457630855438
international 0.0
duty 0.0
this 0.00194511488404
week 0.0
with 0.00384425703113
australia 0.0
facing 0.0
south 0.0
africa 0.0
durban 0.0
wednesday 0.0
