liverpool 0.0
winger 0.0
harry 0.0
kewell 0.0
is 0.00615105703564
struggling 0.0
to 0.0118175672476
recover 0.0
from 0.0
his 0.0
achilles 0.0
tendinitis 0.0
problem 0.0
and 0.0107946227192
may 0.0
not 0.00318136609004
until 0.0
march 0.0
claims 0.0
agent 0.0
26 0.0
had 0.00227518158429
hoped 0.0
play 0.00102848630948
against 0.0
fulham 0.0
last 0.0
weekend 0.0
be 0.00359276758464
ready 0.0
for 0.00382319287026
the 0.0117613197956
champions 0.0
league 0.0
tie 0.0
bayer 0.0
leverkusen 0.0
on 0.00117418268011
22 0.0
february 0.0
but 0.00326547177052
bernie 0.0
mandic 0.0
said 0.0
he 0.00207620328077
scans 0.0
which 0.00053693665399
don 0.0
show 0.0
anything 0.00275761075511
substantial 0.0
despite 0.0
best 0.0
efforts 0.0
at 0.000879043296911
moment 0.0
simply 0.0
can 0.0
shake 0.0
off 0.0
discomfort 0.0
get 0.0
back 0.000833224559093
park 0.0
continued 0.0
in 0.00719298241186
sydney 0.0
morning 0.0
herald 0.0
bit 0.0
club 0.0
are 0.0040929152728
doing 0.0
everything 0.0
they 0.00238016651821
him 0.0
right 0.0010638026669
was 0.00220298386672
desperate 0.0
fit 0.0
game 0.0
as 0.00325737956294
part 0.0028295288726
of 0.00790850646291
plan 0.0
himself 0.0
match 0.0
has 0.0017049833722
played 0.0
since 0.0
december 0.0
19 0.0
misses 0.0
out 0.00253584261449
international 0.0
duty 0.0
this 0.00323350479174
week 0.00092764050121
with 0.00085207810485
australia 0.0
facing 0.0
south 0.0
africa 0.0
durban 0.0
wednesday 0.0
