liverpool 0.0
winger 0.0
harry 0.0
kewell 0.0
is 0.0
struggling 0.0
to 0.00523890253296
recover 0.0
from 0.00101011664166
his 0.0
achilles 0.0
tendinitis 0.0
problem 0.0
and 0.00526395768547
may 0.0
not 0.0
until 0.0
march 0.0
claims 0.0
agent 0.0
26 0.0
had 0.00237746539537
hoped 0.0
play 0.0
against 0.00171606975715
fulham 0.0
last 0.0
weekend 0.0
be 0.00563142783749
ready 0.0
for 0.000799013917098
the 0.0193661639031
champions 0.0
league 0.0
tie 0.0
bayer 0.0
leverkusen 0.0
on 0.00327191899357
22 0.0
february 0.0
but 0.0
bernie 0.0
mandic 0.0
said 0.00606016507884
he 0.00216954175784
scans 0.0
which 0.00336645212807
don 0.0
show 0.0
anything 0.0
substantial 0.0
despite 0.0
best 0.0
efforts 0.0
at 0.00275568556884
moment 0.0
simply 0.0
can 0.00451619306347
shake 0.0
off 0.0
discomfort 0.0
get 0.0
back 0.0
park 0.0
continued 0.0
in 0.00676471724393
sydney 0.0
morning 0.0
herald 0.0
bit 0.0
club 0.0
are 0.00641537657551
doing 0.0
everything 0.0
they 0.0087050952327
him 0.0
right 0.00222325465846
was 0.00276242632017
desperate 0.0
fit 0.0
game 0.0
as 0.000972519825473
part 0.0
of 0.0120204274599
plan 0.0
himself 0.0
match 0.0
has 0.00178163316505
played 0.0
since 0.0
december 0.0
19 0.0
misses 0.0
out 0.00132492239425
international 0.0
duty 0.0
this 0.00112629043197
week 0.0
with 0.00267115322454
australia 0.0
facing 0.0
south 0.0
africa 0.0
durban 0.0
wednesday 0.0
