liverpool 0.0
winger 0.0
harry 0.0
kewell 0.0
is 0.0
struggling 0.0
to 0.0114356184434
recover 0.0
from 0.0
his 0.00753879174858
achilles 0.0
tendinitis 0.0
problem 0.0
and 0.00430886606602
may 0.0
not 0.00846599320515
until 0.0
march 0.0
claims 0.0
agent 0.0
26 0.0
had 0.00454089641555
hoped 0.0
play 0.00410538642578
against 0.0
fulham 0.0
last 0.0
weekend 0.0
be 0.00179264652541
ready 0.0
for 0.0061043823211
the 0.0156491347829
champions 0.0
league 0.0
tie 0.0
bayer 0.0
leverkusen 0.0
on 0.0031246396391
22 0.0
february 0.0
but 0.00186210180324
bernie 0.0
mandic 0.0
said 0.00661414629396
he 0.0124313031989
scans 0.0
which 0.0
don 0.0
show 0.0
anything 0.0
substantial 0.0
despite 0.0
best 0.0
efforts 0.0
at 0.0017544290019
moment 0.0
simply 0.0
can 0.00287527001568
shake 0.0
off 0.0
discomfort 0.0
get 0.0
back 0.0
park 0.00640853596742
continued 0.0
in 0.0114848285611
sydney 0.0
morning 0.0
herald 0.0
bit 0.0
club 0.00513694720258
are 0.00408440021222
doing 0.0
everything 0.0
they 0.0
him 0.00385573318609
right 0.0
was 0.00351744110904
desperate 0.0
fit 0.0
game 0.0
as 0.00371497460964
part 0.0
of 0.00717459390689
plan 0.0
himself 0.0
match 0.0
has 0.00340287251656
played 0.0
since 0.0
december 0.0
19 0.0
misses 0.0
out 0.0025305669486
international 0.00418354833134
duty 0.0
this 0.00430237024299
week 0.00370284240691
with 0.00510183244994
australia 0.0
facing 0.0
south 0.0
africa 0.0
durban 0.0
wednesday 0.0
