liverpool 0.0
winger 0.0
harry 0.0
kewell 0.0
is 0.00596542829856
struggling 0.0
to 0.0187542533388
recover 0.0
from 0.00140623052423
his 0.0
achilles 0.0
tendinitis 0.0
problem 0.0
and 0.00732820119012
may 0.0
not 0.00154267885923
until 0.0
march 0.0
claims 0.0
agent 0.0
26 0.0
had 0.00165489027276
hoped 0.0
play 0.0
against 0.0
fulham 0.0
last 0.00196070911285
weekend 0.0
be 0.00261325784683
ready 0.0
for 0.00111234456811
the 0.0165911019623
champions 0.0
league 0.0
tie 0.0
bayer 0.0
leverkusen 0.0
on 0.00227749557418
22 0.0
february 0.0
but 0.0
bernie 0.0
mandic 0.0
said 0.00241046819016
he 0.00151016017242
scans 0.0
which 0.0
don 0.0
show 0.00314676995547
anything 0.0
substantial 0.0
despite 0.0
best 0.0
efforts 0.0
at 0.00255754566833
moment 0.0
simply 0.0
can 0.00209573438593
shake 0.0
off 0.00269893753126
discomfort 0.0
get 0.00246460572192
back 0.0
park 0.0
continued 0.0
in 0.00418554605319
sydney 0.0
morning 0.0
herald 0.0
bit 0.00407445025909
club 0.0
are 0.00595409677976
doing 0.0
everything 0.0
they 0.00346250553867
him 0.0
right 0.0
was 0.0
desperate 0.0
fit 0.0
game 0.0
as 0.0067694512079
part 0.0
of 0.00836709906131
plan 0.0
himself 0.0
match 0.0
has 0.00496058937422
played 0.0
since 0.0
december 0.00342756798356
19 0.0
misses 0.0
out 0.0
international 0.00304931573222
duty 0.0
this 0.0
week 0.0
with 0.00123954569348
australia 0.0
facing 0.0
south 0.0
africa 0.0
durban 0.0
wednesday 0.0
