liverpool 0.0
winger 0.0
harry 0.0
kewell 0.0
is 0.0107726168671
struggling 0.0
to 0.00981658129285
recover 0.0
from 0.0
his 0.000719051254115
achilles 0.0
tendinitis 0.0
problem 0.00142252974864
and 0.00945254889565
may 0.00103976374472
not 0.00121123183287
until 0.0
march 0.0
claims 0.0
agent 0.0
26 0.0
had 0.0
hoped 0.0
play 0.0
against 0.0
fulham 0.0
last 0.00153944761625
weekend 0.0
be 0.00256474401058
ready 0.0
for 0.0034934222167
the 0.0232034123421
champions 0.0
league 0.0
tie 0.0
bayer 0.0
leverkusen 0.0
on 0.00223521499805
22 0.0
february 0.0
but 0.00106564554234
bernie 0.0
mandic 0.0
said 0.000946287617338
he 0.00177854975709
scans 0.0
which 0.00122655755259
don 0.00121505505896
show 0.0
anything 0.0
substantial 0.0
despite 0.0
best 0.0
efforts 0.0
at 0.00251006610106
moment 0.0
simply 0.0
can 0.00246819373937
shake 0.0
off 0.0
discomfort 0.0
get 0.000967540615467
back 0.0
park 0.0
continued 0.0
in 0.00246470607957
sydney 0.0
morning 0.0
herald 0.0
bit 0.00319904808815
club 0.0
are 0.00525920573263
doing 0.0
everything 0.0
they 0.00135929033604
him 0.0
right 0.0
was 0.00150972362189
desperate 0.0
fit 0.0
game 0.0
as 0.00265751188104
part 0.00107727791946
of 0.00821176801573
plan 0.0
himself 0.0
match 0.0
has 0.002434249246
played 0.0
since 0.0
december 0.0
19 0.0
misses 0.0
out 0.000724097732911
international 0.00119708267901
duty 0.00197071203616
this 0.00123108244215
week 0.0
with 0.00486613656905
australia 0.0
facing 0.0
south 0.0
africa 0.0
durban 0.0
wednesday 0.0
