liverpool 0.0
winger 0.0
harry 0.0
kewell 0.0
is 0.00260854377728
struggling 0.0
to 0.013668001803
recover 0.0
from 0.00153728018333
his 0.0
achilles 0.0
tendinitis 0.0
problem 0.0
and 0.00915557952369
may 0.0
not 0.0
until 0.0
march 0.0
claims 0.0
agent 0.0
26 0.0
had 0.0
hoped 0.0
play 0.0
against 0.0
fulham 0.0
last 0.0
weekend 0.0
be 0.00428518948279
ready 0.0
for 0.00364801908109
the 0.0158701047577
champions 0.0
league 0.0
tie 0.0
bayer 0.0
leverkusen 0.0
on 0.00248974030466
22 0.0
february 0.00396785670548
but 0.0
bernie 0.0
mandic 0.0
said 0.0
he 0.0
scans 0.0
which 0.0
don 0.0
show 0.0
anything 0.0
substantial 0.0
despite 0.0
best 0.0
efforts 0.0
at 0.0
moment 0.0
simply 0.0
can 0.00687312119637
shake 0.00624861777068
off 0.0
discomfort 0.0
get 0.0
back 0.0
park 0.0
continued 0.0
in 0.00571950765997
sydney 0.0
morning 0.0
herald 0.0
bit 0.0
club 0.0
are 0.00325448595784
doing 0.0
everything 0.0
they 0.0
him 0.0
right 0.0
was 0.00280272796546
desperate 0.0
fit 0.0
game 0.0032712079571
as 0.00148006219672
part 0.0
of 0.00457342354519
plan 0.0
himself 0.0
match 0.0
has 0.00135571935242
played 0.0
since 0.0
december 0.0
19 0.0
misses 0.0
out 0.0
international 0.0
duty 0.0
this 0.0
week 0.0
with 0.00135506163328
australia 0.0
facing 0.0
south 0.00404277506249
africa 0.0
durban 0.0
wednesday 0.0
