liverpool 0.0
winger 0.0
harry 0.0
kewell 0.0
is 0.00413950868236
struggling 0.0
to 0.00831442617154
recover 0.0
from 0.0014637096885
his 0.00444849705823
achilles 0.0
tendinitis 0.0
problem 0.0
and 0.0072645131089
may 0.000918946207271
not 0.00160573529987
until 0.0
march 0.0
claims 0.0
agent 0.0
26 0.0
had 0.0
hoped 0.0
play 0.0
against 0.0
fulham 0.0
last 0.0
weekend 0.0
be 0.000906691272176
ready 0.0
for 0.00115781125018
the 0.0223061239566
champions 0.0
league 0.0
tie 0.0
bayer 0.0
leverkusen 0.0
on 0.00434607686769
22 0.0
february 0.0
but 0.00235455153731
bernie 0.0
mandic 0.0
said 0.000836331735319
he 0.00733547464295
scans 0.0
which 0.000542017557679
don 0.0032216075346
show 0.00327539303972
anything 0.00139185268449
substantial 0.0
despite 0.0
best 0.0
efforts 0.0
at 0.00266208442288
moment 0.0
simply 0.00139795073205
can 0.00145426451418
shake 0.0
off 0.00187283708472
discomfort 0.00261251183258
get 0.000855115196584
back 0.00084110916467
park 0.0
continued 0.0
in 0.00435662873488
sydney 0.0
morning 0.0
herald 0.0
bit 0.00141366398012
club 0.0
are 0.00206582277767
doing 0.0
everything 0.0
they 0.00300336183394
him 0.00487541684615
right 0.0
was 0.00266859621411
desperate 0.0
fit 0.0
game 0.0010382186305
as 0.00234871669287
part 0.000952101343498
of 0.010886376513
plan 0.0
himself 0.00143347317713
match 0.00125723590949
has 0.00215139652977
played 0.0
since 0.0
december 0.0
19 0.0
misses 0.0
out 0.000639959672314
international 0.00105798513678
duty 0.0
this 0.000544017112925
week 0.0
with 0.00516084670224
australia 0.0
facing 0.0
south 0.0
africa 0.0
durban 0.0
wednesday 0.00126141940073
