liverpool 0.0
winger 0.0
harry 0.0
kewell 0.0
is 0.00917134126002
struggling 0.0
to 0.00731874097858
recover 0.0
from 0.00335476621009
his 0.0
achilles 0.0
tendinitis 0.0
problem 0.0
and 0.00776999260231
may 0.0
not 0.00286244267491
until 0.0
march 0.0
claims 0.0
agent 0.0
26 0.0
had 0.000877328886271
hoped 0.0
play 0.000793185699701
against 0.000633261612026
fulham 0.0
last 0.000259864169032
weekend 0.0
be 0.00294397707046
ready 0.0
for 0.00294850975063
the 0.0134683551431
champions 0.0
league 0.0
tie 0.0
bayer 0.0
leverkusen 0.0
on 0.00135832373574
22 0.0
february 0.0
but 0.00179884713464
bernie 0.0
mandic 0.0
said 0.000319473352323
he 0.000200150300592
scans 0.0
which 0.00103523613213
don 0.00410211130139
show 0.0
anything 0.00159503636276
substantial 0.0
despite 0.0
best 0.00150609365042
efforts 0.0
at 0.00152534873214
moment 0.0
simply 0.00267004101297
can 0.00222207882298
shake 0.0
off 0.000357705869899
discomfort 0.0
get 0.000979945541721
back 0.0
park 0.0
continued 0.0
in 0.00443787786746
sydney 0.0
morning 0.0
herald 0.0
bit 0.0
club 0.0
are 0.00236739310569
doing 0.00196396776754
everything 0.000552864053927
they 0.00298288882904
him 0.0
right 0.0
was 0.00203877323439
desperate 0.0
fit 0.000616919788735
game 0.0
as 0.00394765665453
part 0.000363696599224
of 0.00734672912581
plan 0.0
himself 0.0
match 0.0
has 0.00230109504524
played 0.000454275496559
since 0.000344962917608
december 0.0
19 0.0
misses 0.0
out 0.00122230242637
international 0.0
duty 0.0
this 0.00207811043689
week 0.0
with 0.00197141029948
australia 0.0
facing 0.0
south 0.0
africa 0.0
durban 0.0
wednesday 0.0
