liverpool 0.0
winger 0.0
harry 0.0
kewell 0.0
is 0.00985470528182
struggling 0.0
to 0.0135236503369
recover 0.0
from 0.0
his 0.00216128515507
achilles 0.0
tendinitis 0.0
problem 0.0
and 0.00864711747185
may 0.0
not 0.00364065477217
until 0.0
march 0.0
claims 0.0
agent 0.0
26 0.0
had 0.00390546881024
hoped 0.0
play 0.00353090164861
against 0.00281899241344
fulham 0.0
last 0.00694078188649
weekend 0.0
be 0.00770896806716
ready 0.0
for 0.00262508462857
the 0.0293657073407
champions 0.0160964680499
league 0.0146601895672
tie 0.00584449159217
bayer 0.0
leverkusen 0.0
on 0.0026873950729
22 0.0
february 0.0
but 0.00320305941758
bernie 0.0
mandic 0.0
said 0.00142214992886
he 0.00356391209069
scans 0.0
which 0.0
don 0.00365214641724
show 0.0
anything 0.0
substantial 0.0
despite 0.0
best 0.0
efforts 0.0
at 0.00301784807212
moment 0.00492219816924
simply 0.0
can 0.0
shake 0.0
off 0.0
discomfort 0.0
get 0.0
back 0.0
park 0.0
continued 0.0
in 0.00493885299636
sydney 0.0
morning 0.0
herald 0.0
bit 0.0
club 0.00441811158933
are 0.0105385563846
doing 0.0
everything 0.0
they 0.0122570429071
him 0.0
right 0.0
was 0.0
desperate 0.0
fit 0.0
game 0.00706180329722
as 0.0
part 0.0
of 0.0123412428584
plan 0.0
himself 0.0
match 0.0128272876688
has 0.0
played 0.0
since 0.0
december 0.0
19 0.0
misses 0.0
out 0.0
international 0.0
duty 0.0
this 0.0
week 0.0
with 0.00292527373231
australia 0.0
facing 0.0
south 0.0
africa 0.0
durban 0.0
wednesday 0.0
