liverpool 0.0
winger 0.0
harry 0.0
kewell 0.0
is 0.00491406504671
struggling 0.0
to 0.0123973078822
recover 0.0
from 0.00128710293915
his 0.0
achilles 0.0
tendinitis 0.0
problem 0.0
and 0.00574919919071
may 0.0
not 0.000705996086584
until 0.0
march 0.0
claims 0.0
agent 0.0
26 0.0
had 0.000757348847625
hoped 0.0
play 0.0
against 0.0
fulham 0.0
last 0.0
weekend 0.0
be 0.00179390850084
ready 0.0
for 0.00458150973282
the 0.0156601513572
champions 0.0
league 0.0
tie 0.0
bayer 0.0
leverkusen 0.0
on 0.00208455953482
22 0.0
february 0.0
but 0.000621137557781
bernie 0.0
mandic 0.0
said 0.00386096811152
he 0.00414668483514
scans 0.0
which 0.00214478717103
don 0.0
show 0.00144009704978
anything 0.0
substantial 0.0
despite 0.0
best 0.0
efforts 0.0
at 0.00117044271547
moment 0.0
simply 0.0
can 0.0
shake 0.0
off 0.0
discomfort 0.0
get 0.00225581881055
back 0.0
park 0.0
continued 0.0
in 0.00574645678734
sydney 0.0
morning 0.0
herald 0.0
bit 0.0
club 0.0
are 0.00817455104249
doing 0.0
everything 0.00190902618476
they 0.00237688681489
him 0.0
right 0.0
was 0.0023466115293
desperate 0.0
fit 0.0
game 0.0
as 0.00309799154406
part 0.00125583554636
of 0.00861557355602
plan 0.0
himself 0.0
match 0.0
has 0.00170263402412
played 0.0
since 0.0
december 0.00156860228454
19 0.0
misses 0.0
out 0.00422058066728
international 0.0
duty 0.0
this 0.00502296549663
week 0.00123514970313
with 0.000567269333798
australia 0.0
facing 0.0
south 0.0
africa 0.0
durban 0.0
wednesday 0.0
