liverpool 0.0
winger 0.0
harry 0.0
kewell 0.0
is 0.0020882319822
struggling 0.0
to 0.00729448073583
recover 0.0
from 0.00246129482081
his 0.00320586487174
achilles 0.0
tendinitis 0.0
problem 0.0
and 0.0109940500962
may 0.0
not 0.0
until 0.0
march 0.0
claims 0.0
agent 0.0
26 0.0
had 0.00144825929575
hoped 0.0
play 0.0
against 0.0
fulham 0.0
last 0.0
weekend 0.0
be 0.00228696429677
ready 0.0
for 0.00292036889822
the 0.0181494039508
champions 0.0
league 0.0
tie 0.0
bayer 0.0
leverkusen 0.0
on 0.0
22 0.0
february 0.0
but 0.0
bernie 0.0
mandic 0.0
said 0.00105474756272
he 0.00264320063243
scans 0.0
which 0.00273428197816
don 0.0
show 0.00275386163942
anything 0.0
substantial 0.0
despite 0.0
best 0.0
efforts 0.0
at 0.0
moment 0.0
simply 0.0
can 0.0
shake 0.0
off 0.0
discomfort 0.0
get 0.00215687299991
back 0.0
park 0.0
continued 0.0
in 0.00641013675555
sydney 0.0
morning 0.0
herald 0.0
bit 0.0
club 0.00327672373783
are 0.0
doing 0.0
everything 0.0
they 0.0
him 0.00491894191602
right 0.0
was 0.00336552498708
desperate 0.0
fit 0.0
game 0.0
as 0.00592421189511
part 0.0
of 0.00823767312109
plan 0.00337627223594
himself 0.0
match 0.0
has 0.00325590454177
played 0.0
since 0.0
december 0.0
19 0.0263491545836
misses 0.0
out 0.0
international 0.0
duty 0.0
this 0.00137218450455
week 0.0
with 0.00216954997276
australia 0.0
facing 0.0
south 0.0
africa 0.0
durban 0.0
wednesday 0.0
