liverpool 0.0
winger 0.0
harry 0.0
kewell 0.0
is 0.00287247361881
struggling 0.0
to 0.00627121521196
recover 0.0
from 0.0
his 0.00146994560439
achilles 0.0
tendinitis 0.0
problem 0.0
and 0.00420080494653
may 0.0
not 0.00247610291816
until 0.0
march 0.0
claims 0.0
agent 0.0
26 0.0
had 0.00531241950857
hoped 0.0
play 0.00120072849844
against 0.0
fulham 0.0
last 0.0
weekend 0.0
be 0.00104861347871
ready 0.0
for 0.00267808132712
the 0.0170597349345
champions 0.0
league 0.0
tie 0.0
bayer 0.0
leverkusen 0.0
on 0.00137082486504
22 0.0
february 0.0
but 0.00326772459925
bernie 0.0
mandic 0.0
said 0.00386896293034
he 0.00121195412365
scans 0.0
which 0.0012537165276
don 0.0
show 0.0
anything 0.0
substantial 0.0
despite 0.0012551696914
best 0.00341989820555
efforts 0.0
at 0.00359190311901
moment 0.00167385676662
simply 0.0
can 0.0
shake 0.0
off 0.00324898166124
discomfort 0.0
get 0.000988964323916
back 0.0
park 0.0
continued 0.0
in 0.00797772215979
sydney 0.0
morning 0.0
herald 0.0
bit 0.0
club 0.0
are 0.000597295263494
doing 0.0
everything 0.00167385676662
they 0.00138938833853
him 0.00112771082641
right 0.0
was 0.00720137872599
desperate 0.0
fit 0.0
game 0.0
as 0.00543271134816
part 0.0011011314794
of 0.00671487726635
plan 0.0
himself 0.0
match 0.0
has 0.00298577935189
played 0.0013753690594
since 0.00208882639329
december 0.0
19 0.0
misses 0.0
out 0.0
international 0.0
duty 0.0
this 0.00125834160925
week 0.00108299388708
with 0.00298433081888
australia 0.0
facing 0.0
south 0.0
africa 0.0
durban 0.0
wednesday 0.0
