liverpool 0.0
winger 0.0
harry 0.0
kewell 0.0
is 0.00269034684352
struggling 0.0
to 0.0140966257988
recover 0.0
from 0.0
his 0.00413023481679
achilles 0.0
tendinitis 0.0
problem 0.0
and 0.00944269545587
may 0.0
not 0.0
until 0.0
march 0.0
claims 0.0
agent 0.0
26 0.0
had 0.00186584625565
hoped 0.0
play 0.00674758390374
against 0.0
fulham 0.0
last 0.00442129827803
weekend 0.0
be 0.0
ready 0.0
for 0.00250827983168
the 0.0257208065251
champions 0.0
league 0.0
tie 0.0
bayer 0.0
leverkusen 0.0
on 0.00256781773347
22 0.0
february 0.0
but 0.00765134316942
bernie 0.0
mandic 0.0
said 0.00407661141134
he 0.00510800036025
scans 0.0
which 0.0
don 0.0
show 0.0
anything 0.0
substantial 0.0
despite 0.0
best 0.0
efforts 0.0
at 0.0
moment 0.0
simply 0.0
can 0.0
shake 0.0
off 0.0
discomfort 0.0
get 0.0
back 0.00273326566008
park 0.0
continued 0.0
in 0.00943819123206
sydney 0.0115951888192
morning 0.0
herald 0.0
bit 0.00459383796309
club 0.0
are 0.0
doing 0.0
everything 0.0
they 0.0
him 0.0
right 0.0
was 0.0101171720416
desperate 0.0
fit 0.0
game 0.0
as 0.00305295291101
part 0.0
of 0.00589605573522
plan 0.0
himself 0.00465820986655
match 0.0081710196069
has 0.00139823426091
played 0.00772898964165
since 0.0
december 0.0
19 0.0
misses 0.0
out 0.00623883273295
international 0.00343802512765
duty 0.0
this 0.00530350882756
week 0.00608596541998
with 0.00139755591592
australia 0.0
facing 0.0
south 0.0
africa 0.0
durban 0.0
wednesday 0.0
