liverpool 0.0
winger 0.0
harry 0.0
kewell 0.0
is 0.00161247547601
struggling 0.0
to 0.00844889700736
recover 0.0
from 0.00253405916048
his 0.0
achilles 0.0
tendinitis 0.0
problem 0.0
and 0.00660279201588
may 0.0
not 0.0020849566061
until 0.0
march 0.0
claims 0.00165740734538
agent 0.0
26 0.0
had 0.00223661223198
hoped 0.0
play 0.0
against 0.0
fulham 0.0
last 0.0
weekend 0.0
be 0.0105955867197
ready 0.0
for 0.00250558753871
the 0.0191531118189
champions 0.0
league 0.0
tie 0.0
bayer 0.0
leverkusen 0.0
on 0.00359108614867
22 0.0
february 0.0
but 0.00244580176199
bernie 0.0
mandic 0.0
said 0.00380075334837
he 0.00476234978362
scans 0.0
which 0.00140755837852
don 0.0
show 0.0
anything 0.0
substantial 0.0
despite 0.0
best 0.0
efforts 0.0
at 0.0
moment 0.0
simply 0.0
can 0.00377656068981
shake 0.0
off 0.0
discomfort 0.0
get 0.0
back 0.00218426550065
park 0.0
continued 0.0
in 0.00707104547516
sydney 0.0
morning 0.00210434366875
herald 0.0
bit 0.0
club 0.0
are 0.00268235421348
doing 0.0
everything 0.0
they 0.00155987829295
him 0.0
right 0.0
was 0.00173251074013
desperate 0.0
fit 0.0
game 0.0
as 0.0012198703946
part 0.00123624982646
of 0.00989474158068
plan 0.00173804322737
himself 0.0
match 0.0
has 0.00167608013879
played 0.0
since 0.0
december 0.0
19 0.0
misses 0.0
out 0.00166190298805
international 0.00137373395246
duty 0.0
this 0.000706375498827
week 0.0
with 0.000558422332842
australia 0.0
facing 0.0
south 0.0
africa 0.0
durban 0.0
wednesday 0.00327576371129
