liverpool 0.0
winger 0.0
harry 0.0
kewell 0.0
is 0.00114972990391
struggling 0.0
to 0.0110444516912
recover 0.0
from 0.0027102585172
his 0.00353014295571
achilles 0.0
tendinitis 0.0
problem 0.0
and 0.00706190036026
may 0.0
not 0.00148661917285
until 0.0
march 0.0
claims 0.0
agent 0.0
26 0.0
had 0.0
hoped 0.0
play 0.0
against 0.00230220574716
fulham 0.0
last 0.0
weekend 0.0120595353785
be 0.00503658839357
ready 0.0
for 0.00428769150982
the 0.0139896705411
champions 0.0
league 0.0
tie 0.0
bayer 0.0
leverkusen 0.0
on 0.00329209987524
22 0.0
february 0.0
but 0.00523172873009
bernie 0.0
mandic 0.0
said 0.00232287375017
he 0.00145528218849
scans 0.0
which 0.0
don 0.00298262330581
show 0.0
anything 0.0
substantial 0.0
despite 0.0
best 0.0
efforts 0.0
at 0.00246460655323
moment 0.0
simply 0.0
can 0.0
shake 0.0
off 0.0
discomfort 0.0
get 0.0
back 0.0
park 0.0
continued 0.0
in 0.00302508505301
sydney 0.0
morning 0.0
herald 0.0
bit 0.00392638807342
club 0.0
are 0.0
doing 0.0
everything 0.0
they 0.00667336184598
him 0.0
right 0.0
was 0.00370595293337
desperate 0.0
fit 0.0
game 0.0144180275713
as 0.00260938195792
part 0.0
of 0.0060472841502
plan 0.0
himself 0.0
match 0.00349191614832
has 0.0
played 0.0
since 0.0
december 0.00330301297003
19 0.0
misses 0.0
out 0.0017774591842
international 0.0
duty 0.0
this 0.00302196608807
week 0.0
with 0.0023890032362
australia 0.0
facing 0.0
south 0.0
africa 0.0
durban 0.0
wednesday 0.0
