liverpool 0.0
winger 0.0
harry 0.0
kewell 0.0
is 0.00221436082386
struggling 0.0
to 0.00837965491955
recover 0.0
from 0.000869985530604
his 0.0
achilles 0.0
tendinitis 0.0
problem 0.0
and 0.00777205918245
may 0.0
not 0.00190880266468
until 0.0
march 0.0
claims 0.0
agent 0.0
26 0.0
had 0.00102382260038
hoped 0.0
play 0.0
against 0.00295600685439
fulham 0.0
last 0.00242604399282
weekend 0.0
be 0.0
ready 0.0
for 0.00344084295794
the 0.0243777913286
champions 0.0
league 0.0
tie 0.0
bayer 0.0
leverkusen 0.0
on 0.00281801335047
22 0.0
february 0.0
but 0.0
bernie 0.0
mandic 0.0
said 0.00521945260007
he 0.000934283160739
scans 0.0
which 0.00289943212508
don 0.0
show 0.0
anything 0.0
substantial 0.00336579588506
despite 0.0
best 0.0
efforts 0.0
at 0.000791131925733
moment 0.0
simply 0.0
can 0.0
shake 0.0
off 0.0
discomfort 0.0
get 0.0
back 0.0
park 0.0
continued 0.0
in 0.00582626389682
sydney 0.0
morning 0.0
herald 0.0
bit 0.0
club 0.0
are 0.00644628417937
doing 0.0
everything 0.0
they 0.00214213080031
him 0.0
right 0.0
was 0.00158613426661
desperate 0.0
fit 0.0
game 0.0
as 0.0
part 0.0
of 0.00711759246633
plan 0.0
himself 0.0
match 0.0
has 0.00153447137738
played 0.0
since 0.00161025511352
december 0.0
19 0.0
misses 0.0
out 0.00114111901996
international 0.00377300950246
duty 0.0
this 0.0
week 0.00166973804064
with 0.0
australia 0.0
facing 0.0
south 0.0
africa 0.0
durban 0.0
wednesday 0.0
