liverpool 0.0
winger 0.0
harry 0.0
kewell 0.0
is 0.00445020017744
struggling 0.0
to 0.014767901629
recover 0.0
from 0.00209809154187
his 0.0
achilles 0.0
tendinitis 0.0
problem 0.00270319590889
and 0.00859072754948
may 0.0
not 0.00115083601537
until 0.0
march 0.0
claims 0.0
agent 0.0
26 0.0
had 0.0
hoped 0.0
play 0.00223228459617
against 0.0
fulham 0.0
last 0.0
weekend 0.0
be 0.00194948626513
ready 0.0
for 0.00331922922991
the 0.0232067551988
champions 0.0
league 0.0
tie 0.0
bayer 0.0
leverkusen 0.0
on 0.00424752033764
22 0.0
february 0.0
but 0.00101250911383
bernie 0.0
mandic 0.0
said 0.000899102749265
he 0.0
scans 0.0
which 0.00233079509328
don 0.0
show 0.0
anything 0.0
substantial 0.0
despite 0.0
best 0.0
efforts 0.0
at 0.0
moment 0.0
simply 0.0
can 0.0
shake 0.0
off 0.0
discomfort 0.0
get 0.0
back 0.0
park 0.0
continued 0.0
in 0.0101478351232
sydney 0.0
morning 0.0
herald 0.0
bit 0.0
club 0.0
are 0.00111043672053
doing 0.0
everything 0.0
they 0.0
him 0.0
right 0.00230893720684
was 0.000956296045161
desperate 0.0
fit 0.0
game 0.0
as 0.00101000000197
part 0.0
of 0.00702207315999
plan 0.00575609891296
himself 0.0
match 0.0
has 0.00185029595601
played 0.0
since 0.0
december 0.0
19 0.0
misses 0.0
out 0.0
international 0.0
duty 0.00374489230812
this 0.00233939362204
week 0.0
with 0.00369879659196
australia 0.0
facing 0.0
south 0.0
africa 0.0
durban 0.0
wednesday 0.0
