liverpool 0.0
winger 0.0
harry 0.0
kewell 0.0
is 0.00433411775145
struggling 0.0
to 0.00756983388681
recover 0.0
from 0.0
his 0.0
achilles 0.0
tendinitis 0.0
problem 0.0
and 0.000950754595441
may 0.0
not 0.0
until 0.00306025322825
march 0.0
claims 0.0
agent 0.0
26 0.0
had 0.0
hoped 0.0
play 0.0
against 0.0
fulham 0.0
last 0.0
weekend 0.0
be 0.0
ready 0.0
for 0.00505101236774
the 0.019776235887
champions 0.0
league 0.0
tie 0.0
bayer 0.0
leverkusen 0.0
on 0.00517090595956
22 0.0
february 0.0
but 0.00123262256437
bernie 0.0
mandic 0.0
said 0.00656737398981
he 0.00137148828283
scans 0.0
which 0.00283749606366
don 0.0
show 0.0
anything 0.0
substantial 0.0
despite 0.0
best 0.0
efforts 0.0
at 0.00348404491885
moment 0.0
simply 0.0
can 0.00761316635603
shake 0.0
off 0.0
discomfort 0.0
get 0.0044765819297
back 0.0
park 0.0
continued 0.0
in 0.00380120431861
sydney 0.0
morning 0.0
herald 0.0
bit 0.0
club 0.0
are 0.00811103429695
doing 0.0
everything 0.0
they 0.00786139421208
him 0.0
right 0.0
was 0.0011641891094
desperate 0.0
fit 0.0
game 0.0
as 0.00122956798654
part 0.00249215525965
of 0.00664893447513
plan 0.0
himself 0.0
match 0.0
has 0.0
played 0.0
since 0.0
december 0.0
19 0.0
misses 0.0
out 0.00167511460225
international 0.0
duty 0.0
this 0.00142398193068
week 0.0
with 0.00450289293994
australia 0.0
facing 0.0
south 0.0
africa 0.0
durban 0.0
wednesday 0.0
