liverpool 0.0
winger 0.0
harry 0.0
kewell 0.0
is 0.0
struggling 0.0
to 0.013982363335
recover 0.0
from 0.00171560437669
his 0.0
achilles 0.0
tendinitis 0.0
problem 0.0
and 0.0102176249146
may 0.0
not 0.0
until 0.0
march 0.0
claims 0.0
agent 0.0
26 0.00556542770079
had 0.0
hoped 0.0
play 0.00365066742492
against 0.00291461071392
fulham 0.0
last 0.0
weekend 0.0
be 0.0015940902015
ready 0.0
for 0.00814237712763
the 0.0151808860551
champions 0.0
league 0.0
tie 0.0
bayer 0.0
leverkusen 0.0
on 0.00277854968133
22 0.0
february 0.0
but 0.00496755751344
bernie 0.0
mandic 0.0
said 0.00147038828473
he 0.0
scans 0.0
which 0.0
don 0.0
show 0.0
anything 0.0
substantial 0.0
despite 0.0
best 0.0
efforts 0.0
at 0.00312021142095
moment 0.0
simply 0.0
can 0.00255680062617
shake 0.0
off 0.0
discomfort 0.0
get 0.0
back 0.0
park 0.0
continued 0.0
in 0.0114893449253
sydney 0.0
morning 0.0
herald 0.0
bit 0.0
club 0.0
are 0.00181600283855
doing 0.0
everything 0.0
they 0.00211213224081
him 0.0
right 0.0
was 0.0
desperate 0.0
fit 0.0
game 0.0
as 0.0016517491151
part 0.0
of 0.0012759849401
plan 0.0
himself 0.0
match 0.0
has 0.0
played 0.0
since 0.0
december 0.0
19 0.010494992785
misses 0.0
out 0.00225027740819
international 0.0
duty 0.0
this 0.0
week 0.0
with 0.00151224851133
australia 0.00531980600644
facing 0.0
south 0.00451173616
africa 0.00517909736536
durban 0.0
wednesday 0.0
