liverpool 0.0374940329487
winger 0.0
harry 0.0
kewell 0.0
is 0.0
struggling 0.0
to 0.0247552073728
recover 0.0
from 0.0
his 0.0114523284374
achilles 0.0
tendinitis 0.0
problem 0.0
and 0.00785482093578
may 0.0
not 0.00192912879082
until 0.0
march 0.0
claims 0.0
agent 0.0
26 0.0
had 0.00413889961832
hoped 0.0
play 0.0074838889751
against 0.0
fulham 0.0
last 0.00245187802853
weekend 0.0
be 0.00163394698773
ready 0.0
for 0.00417297985025
the 0.0129670427984
champions 0.0
league 0.0
tie 0.0
bayer 0.0
leverkusen 0.0
on 0.00284802132137
22 0.0
february 0.0
but 0.00509176057154
bernie 0.0
mandic 0.0
said 0.00301430434284
he 0.0
scans 0.0
which 0.0
don 0.0
show 0.0
anything 0.0
substantial 0.0
despite 0.0
best 0.00355258474468
efforts 0.0
at 0.00159911278783
moment 0.0
simply 0.0
can 0.0
shake 0.0
off 0.0
discomfort 0.0
get 0.0
back 0.0
park 0.0
continued 0.0
in 0.00392553706894
sydney 0.0
morning 0.0
herald 0.0
bit 0.0
club 0.00468218317936
are 0.00744563228596
doing 0.0
everything 0.0
they 0.0129896493033
him 0.00351439256742
right 0.0
was 0.0
desperate 0.0
fit 0.0
game 0.0
as 0.0
part 0.0
of 0.00392366457175
plan 0.0
himself 0.0
match 0.0
has 0.00155081138955
played 0.0042861934874
since 0.0
december 0.0
19 0.0
misses 0.0
out 0.0046130814796
international 0.00381318687044
duty 0.0
this 0.00196074485377
week 0.00337503691389
with 0.0
australia 0.0
facing 0.0
south 0.0
africa 0.0
durban 0.0
wednesday 0.0
