liverpool 0.0
winger 0.0
harry 0.0
kewell 0.0
is 0.00303180413163
struggling 0.0
to 0.00595716056672
recover 0.0
from 0.00268007716713
his 0.0
achilles 0.0
tendinitis 0.0
problem 0.0
and 0.00598565080215
may 0.00336521205986
not 0.00196008564059
until 0.0
march 0.0
claims 0.0
agent 0.0
26 0.0
had 0.0
hoped 0.0
play 0.0
against 0.00151771230625
fulham 0.0
last 0.0
weekend 0.0
be 0.00166016703674
ready 0.0
for 0.00353328659801
the 0.0243739826212
champions 0.0
league 0.0
tie 0.0
bayer 0.0
leverkusen 0.0
on 0.00289372369677
22 0.00806997107737
february 0.0
but 0.00344897891355
bernie 0.0
mandic 0.0
said 0.00459401260835
he 0.0
scans 0.0
which 0.0029773299144
don 0.0
show 0.0
anything 0.0
substantial 0.0
despite 0.0
best 0.0
efforts 0.0
at 0.000812386925129
moment 0.0
simply 0.0
can 0.0
shake 0.0
off 0.0
discomfort 0.0
get 0.0
back 0.0
park 0.0
continued 0.0
in 0.0106360810843
sydney 0.0
morning 0.0
herald 0.0
bit 0.0
club 0.0
are 0.00472819550666
doing 0.0
everything 0.0
they 0.00439936500471
him 0.0
right 0.0
was 0.00814374125089
desperate 0.0
fit 0.0
game 0.0
as 0.00172021597728
part 0.0
of 0.00730881774578
plan 0.0
himself 0.0
match 0.0
has 0.00315139471287
played 0.0
since 0.0
december 0.0
19 0.0
misses 0.0
out 0.0
international 0.00387437731747
duty 0.0
this 0.000996104524234
week 0.0
with 0.00157493291628
australia 0.0
facing 0.0
south 0.00234937635406
africa 0.0
durban 0.0
wednesday 0.0
