liverpool 0.0
winger 0.0
harry 0.00572916945419
kewell 0.0
is 0.00404691197767
struggling 0.0
to 0.00589017442193
recover 0.0
from 0.00158996439345
his 0.0
achilles 0.0
tendinitis 0.0
problem 0.00409704262935
and 0.0106530197307
may 0.0
not 0.00872120329653
until 0.0
march 0.0
claims 0.0
agent 0.0
26 0.0
had 0.0
hoped 0.0
play 0.00338331569728
against 0.00540232622262
fulham 0.0
last 0.00443377898809
weekend 0.0
be 0.00295469829149
ready 0.0
for 0.00125768017838
the 0.0257934127843
champions 0.00514122061385
league 0.0
tie 0.0
bayer 0.0
leverkusen 0.0
on 0.00515013265153
22 0.0
february 0.0
but 0.00153458836939
bernie 0.0
mandic 0.0
said 0.0
he 0.00341494635652
scans 0.0
which 0.00529893162351
don 0.0034994926316
show 0.0
anything 0.00453572773343
substantial 0.0
despite 0.0
best 0.0
efforts 0.0
at 0.00144585346329
moment 0.0
simply 0.0
can 0.00473911352991
shake 0.0
off 0.0
discomfort 0.0
get 0.0
back 0.00274098128886
park 0.0
continued 0.0
in 0.00709862544983
sydney 0.0
morning 0.0
herald 0.0
bit 0.0
club 0.0
are 0.00841505154374
doing 0.0
everything 0.0
they 0.0
him 0.00317757240368
right 0.0
was 0.0
desperate 0.0
fit 0.0
game 0.0
as 0.00153078548622
part 0.0
of 0.0106428590648
plan 0.0
himself 0.0
match 0.0
has 0.00280436256349
played 0.0
since 0.00294286307623
december 0.0
19 0.0
misses 0.0
out 0.0
international 0.00344773019438
duty 0.0
this 0.00177282663176
week 0.0
with 0.00280300204375
australia 0.0
facing 0.0
south 0.0
africa 0.0
durban 0.0
wednesday 0.0
