liverpool 0.0
winger 0.0
harry 0.0
kewell 0.0
is 0.00324115723139
struggling 0.0
to 0.0127370326123
recover 0.0
from 0.000955047568357
his 0.00248792093035
achilles 0.0
tendinitis 0.0
problem 0.00246098001737
and 0.00497697966762
may 0.0
not 0.00628630228636
until 0.0
march 0.0
claims 0.0
agent 0.0
26 0.0
had 0.0011239259166
hoped 0.0
play 0.0
against 0.00162251385742
fulham 0.0
last 0.00399487233045
weekend 0.0
be 0.00354961083422
ready 0.0
for 0.00377726822398
the 0.0288740423339
champions 0.0
league 0.0
tie 0.0
bayer 0.0
leverkusen 0.0
on 0.00386692752823
22 0.0
february 0.0
but 0.00368713889857
bernie 0.0
mandic 0.0
said 0.00654831976395
he 0.00512815920169
scans 0.0
which 0.00106097381442
don 0.0
show 0.0
anything 0.0
substantial 0.0
despite 0.00212440714612
best 0.0
efforts 0.0
at 0.000868484124553
moment 0.0
simply 0.00273642264819
can 0.0
shake 0.0
off 0.0
discomfort 0.0
get 0.0
back 0.0
park 0.0
continued 0.0
in 0.0106598691808
sydney 0.0
morning 0.0
herald 0.0
bit 0.0
club 0.0
are 0.00101093767226
doing 0.00251599406775
everything 0.0
they 0.00235157567565
him 0.0
right 0.00210204828614
was 0.00261182563582
desperate 0.0
fit 0.0
game 0.0
as 0.00367800175225
part 0.00186369349076
of 0.00994446542108
plan 0.0
himself 0.0
match 0.0
has 0.000842251454838
played 0.0
since 0.0
december 0.0
19 0.0
misses 0.0
out 0.00250538177219
international 0.0
duty 0.00340933674366
this 0.00212977569907
week 0.00366599029387
with 0.00168368568315
australia 0.0
facing 0.0
south 0.0
africa 0.0
durban 0.0
wednesday 0.0
