liverpool 0.0
winger 0.0
harry 0.0
kewell 0.0
is 0.00304817159086
struggling 0.0
to 0.00621114751497
recover 0.0
from 0.00119757591006
his 0.0
achilles 0.0
tendinitis 0.0
problem 0.0
and 0.00980705384667
may 0.0
not 0.0
until 0.0
march 0.0
claims 0.0
agent 0.0
26 0.0
had 0.00281867971192
hoped 0.0
play 0.0
against 0.0
fulham 0.0
last 0.00333956340692
weekend 0.0
be 0.00222550612452
ready 0.0
for 0.00473648180548
the 0.010597002246
champions 0.0
league 0.0
tie 0.0
bayer 0.0
leverkusen 0.0
on 0.0038791276223
22 0.0
february 0.0
but 0.0
bernie 0.0
mandic 0.0
said 0.00205280612729
he 0.0
scans 0.0
which 0.00266080292428
don 0.0
show 0.0
anything 0.0
substantial 0.0
despite 0.00266388702056
best 0.0
efforts 0.0
at 0.00217806044494
moment 0.0
simply 0.0
can 0.0
shake 0.0
off 0.0
discomfort 0.0
get 0.00209891080412
back 0.0
park 0.0
continued 0.0
in 0.00623787552288
sydney 0.0
morning 0.0
herald 0.0
bit 0.0
club 0.0
are 0.00126765895541
doing 0.0
everything 0.0
they 0.00147437178689
him 0.0
right 0.0
was 0.00218338825303
desperate 0.0
fit 0.0
game 0.0
as 0.00230600361784
part 0.0
of 0.00623490003082
plan 0.0
himself 0.0
match 0.0
has 0.00422454372306
played 0.0
since 0.00443318346149
december 0.0
19 0.0
misses 0.0
out 0.0
international 0.0
duty 0.0
this 0.00133530944194
week 0.00229847277138
with 0.00211124710546
australia 0.0
facing 0.0
south 0.0
africa 0.0
durban 0.0
wednesday 0.00309619899083
