liverpool 0.0
winger 0.0
harry 0.0
kewell 0.0
is 0.00385753347754
struggling 0.0
to 0.0109483509984
recover 0.0
from 0.00113667054838
his 0.0
achilles 0.0
tendinitis 0.0
problem 0.0
and 0.00676966873751
may 0.0
not 0.00374088940899
until 0.0
march 0.0
claims 0.0
agent 0.0
26 0.0
had 0.00133766477219
hoped 0.0
play 0.00483748607803
against 0.0
fulham 0.0
last 0.0
weekend 0.0
be 0.0010561615534
ready 0.0
for 0.00179823903469
the 0.0117344130714
champions 0.0
league 0.0
tie 0.0
bayer 0.0
leverkusen 0.0
on 0.00460230754957
22 0.0
february 0.0
but 0.00109708205451
bernie 0.0
mandic 0.0
said 0.000974203074229
he 0.0
scans 0.0
which 0.00378822289298
don 0.0
show 0.00254356641338
anything 0.0
substantial 0.0
despite 0.0
best 0.0
efforts 0.0
at 0.00413458076359
moment 0.0
simply 0.0
can 0.00677601435232
shake 0.0
off 0.00218157887405
discomfort 0.0
get 0.0
back 0.0
park 0.0
continued 0.0
in 0.00338321978194
sydney 0.0
morning 0.0
herald 0.0
bit 0.0
club 0.0
are 0.00360956809809
doing 0.0
everything 0.0
they 0.00419816808296
him 0.0
right 0.0
was 0.00103617361623
desperate 0.0
fit 0.0
game 0.0
as 0.00437745344544
part 0.00221811517283
of 0.0076086134377
plan 0.0
himself 0.0
match 0.0
has 0.0
played 0.0
since 0.0
december 0.0
19 0.0
misses 0.0
out 0.00298183437898
international 0.0
duty 0.0
this 0.001267399338
week 0.0
with 0.00500968745478
australia 0.0
facing 0.0
south 0.0
africa 0.0
durban 0.0
wednesday 0.0
