liverpool 0.0
winger 0.0
harry 0.0
kewell 0.0
is 0.00327205294193
struggling 0.0
to 0.0125727026932
recover 0.0
from 0.00308528440443
his 0.0110512008645
achilles 0.0
tendinitis 0.0
problem 0.0
and 0.00574219631209
may 0.00145275242629
not 0.000846163367855
until 0.0
march 0.0
claims 0.0
agent 0.0
26 0.0
had 0.00453855810057
hoped 0.0
play 0.0
against 0.0
fulham 0.0
last 0.00107545404955
weekend 0.0
be 0.00286675745573
ready 0.0
for 0.00427086722707
the 0.0182005251823
champions 0.0
league 0.0
tie 0.0
bayer 0.0
leverkusen 0.0
on 0.0037476367433
22 0.0
february 0.0
but 0.00148891433757
bernie 0.0
mandic 0.0
said 0.000661074036792
he 0.0091115946189
scans 0.0
which 0.00342747950111
don 0.0
show 0.00172601150748
anything 0.0
substantial 0.0
despite 0.0
best 0.00311650221225
efforts 0.0
at 0.00210423067952
moment 0.0
simply 0.0
can 0.0
shake 0.0
off 0.0
discomfort 0.0
get 0.0
back 0.0
park 0.0
continued 0.0
in 0.00631340297405
sydney 0.0
morning 0.0
herald 0.0
bit 0.0
club 0.0
are 0.00163291878719
doing 0.0
everything 0.00228804104799
they 0.00379838659262
him 0.00308299815436
right 0.0
was 0.00351562981795
desperate 0.0
fit 0.0
game 0.0
as 0.00816873551895
part 0.0
of 0.00516304755416
plan 0.0
himself 0.00226616271946
match 0.0
has 0.0
played 0.0
since 0.0
december 0.0
19 0.0
misses 0.0
out 0.0030351166129
international 0.0
duty 0.0
this 0.000860030951207
week 0.0
with 0.00339947018892
australia 0.0
facing 0.0
south 0.0
africa 0.0
durban 0.0
wednesday 0.0
