liverpool 0.0
winger 0.0
harry 0.0
kewell 0.0
is 0.00312069693478
struggling 0.0
to 0.00545051121406
recover 0.0
from 0.00490427964477
his 0.0
achilles 0.0
tendinitis 0.0
problem 0.0
and 0.00912763064863
may 0.0
not 0.0
until 0.0
march 0.0
claims 0.0
agent 0.0
26 0.0
had 0.00144287237036
hoped 0.0
play 0.0
against 0.00208294904567
fulham 0.0
last 0.0
weekend 0.0
be 0.0
ready 0.0
for 0.00193967088944
the 0.0226023695962
champions 0.0
league 0.0
tie 0.0
bayer 0.0
leverkusen 0.0
on 0.00297856796763
22 0.0
february 0.0
but 0.00118336777447
bernie 0.0
mandic 0.0
said 0.00420329735264
he 0.00395005352946
scans 0.0
which 0.0
don 0.0
show 0.0
anything 0.0
substantial 0.0
despite 0.0
best 0.0
efforts 0.0
at 0.00111494158903
moment 0.0
simply 0.0
can 0.0
shake 0.0
off 0.0
discomfort 0.0
get 0.0
back 0.0
park 0.0
continued 0.0
in 0.0027369830138
sydney 0.0
morning 0.0
herald 0.0
bit 0.0
club 0.0
are 0.0
doing 0.0
everything 0.0
they 0.00452835483069
him 0.0
right 0.0
was 0.00111766887551
desperate 0.0
fit 0.0
game 0.0
as 0.00590217627786
part 0.0
of 0.00729513989798
plan 0.0
himself 0.0
match 0.0
has 0.0
played 0.0
since 0.0
december 0.00298844172475
19 0.0
misses 0.0
out 0.0
international 0.0
duty 0.00437683455465
this 0.0
week 0.0
with 0.0
australia 0.0
facing 0.0
south 0.00644869414904
africa 0.00370128191154
durban 0.0
wednesday 0.00316986705379
