liverpool 0.0
winger 0.0
harry 0.0
kewell 0.0
is 0.00273228639333
struggling 0.0
to 0.00954425113242
recover 0.0
from 0.00214693974175
his 0.00279641375816
achilles 0.0
tendinitis 0.0
problem 0.00276613227341
and 0.0143848450466
may 0.0
not 0.00588815008383
until 0.0
march 0.0
claims 0.0
agent 0.0
26 0.0
had 0.0
hoped 0.0
play 0.0
against 0.00182369946663
fulham 0.0
last 0.0
weekend 0.0
be 0.00199487460631
ready 0.0
for 0.00169825410461
the 0.0261217656242
champions 0.0
league 0.0
tie 0.0
bayer 0.0
leverkusen 0.0
on 0.00782354156747
22 0.0
february 0.0
but 0.00207216511956
bernie 0.0
mandic 0.0
said 0.00736028675886
he 0.00576403163409
scans 0.0
which 0.00119253057261
don 0.00472538871793
show 0.0
anything 0.0
substantial 0.0
despite 0.0
best 0.0
efforts 0.0
at 0.00292851865791
moment 0.0
simply 0.0
can 0.00159981431344
shake 0.0
off 0.0
discomfort 0.0
get 0.00188139849085
back 0.00185058284471
park 0.0
continued 0.0
in 0.00319510741934
sydney 0.0
morning 0.0
herald 0.0
bit 0.0
club 0.0
are 0.00454516054888
doing 0.0
everything 0.0
they 0.00132158110262
him 0.0
right 0.0
was 0.00684992508803
desperate 0.0
fit 0.0
game 0.0
as 0.00413406012107
part 0.0
of 0.00798395835019
plan 0.0
himself 0.00946165247527
match 0.0
has 0.00189337492796
played 0.0
since 0.0
december 0.0
19 0.0
misses 0.0
out 0.0
international 0.0
duty 0.0
this 0.0023938598667
week 0.0
with 0.00189245636843
australia 0.0
facing 0.0
south 0.0
africa 0.0
durban 0.0
wednesday 0.00277533666381
