liverpool 0.0
winger 0.0
harry 0.0
kewell 0.0
is 0.000699868271413
struggling 0.0
to 0.00488947173202
recover 0.0
from 0.000824899803451
his 0.00107444150137
achilles 0.0
tendinitis 0.0
problem 0.0
and 0.00798339055309
may 0.0
not 0.0
until 0.0
march 0.0
claims 0.0
agent 0.0
26 0.0
had 0.00194152898435
hoped 0.0
play 0.0
against 0.0
fulham 0.0
last 0.0
weekend 0.0
be 0.000766473151834
ready 0.0
for 0.00326252630632
the 0.0145985987133
champions 0.0
league 0.0
tie 0.0
bayer 0.0
leverkusen 0.0
on 0.00133598696596
22 0.0
february 0.0
but 0.000796169807008
bernie 0.0
mandic 0.0
said 0.00141398917321
he 0.0
scans 0.0
which 0.000916391099225
don 0.0
show 0.0
anything 0.0
substantial 0.0
despite 0.0
best 0.0
efforts 0.0
at 0.000750132671273
moment 0.0
simply 0.0
can 0.0
shake 0.0
off 0.00316641261971
discomfort 0.0
get 0.00144574644098
back 0.00142206639077
park 0.0
continued 0.0
in 0.0147315367877
sydney 0.0
morning 0.0
herald 0.0
bit 0.0
club 0.00219637951898
are 0.0
doing 0.0
everything 0.0
they 0.0
him 0.0
right 0.0
was 0.00827164348501
desperate 0.0
fit 0.0
game 0.0
as 0.00317678723349
part 0.00160972128002
of 0.00797577613334
plan 0.0
himself 0.0
match 0.0
has 0.000727474821749
played 0.00201062351247
since 0.0
december 0.0
19 0.0
misses 0.0
out 0.0
international 0.00178873940285
duty 0.0
this 0.0
week 0.0
with 0.00290848756675
australia 0.0
facing 0.0
south 0.0
africa 0.0
durban 0.0
wednesday 0.0
