liverpool 0.0
winger 0.0
harry 0.0
kewell 0.0
is 0.00751903468314
struggling 0.0
to 0.00738703672295
recover 0.0
from 0.00110778886642
his 0.0
achilles 0.0
tendinitis 0.0
problem 0.0
and 0.00989648715826
may 0.0
not 0.00121527902807
until 0.0
march 0.0
claims 0.0
agent 0.0
26 0.0
had 0.0
hoped 0.0
play 0.0
against 0.0
fulham 0.0
last 0.0
weekend 0.0
be 0.00411730210366
ready 0.0
for 0.00262882132115
the 0.0163375045191
champions 0.0
league 0.0
tie 0.0
bayer 0.0
leverkusen 0.0
on 0.00538244092333
22 0.0
february 0.0
but 0.00213841255458
bernie 0.0
mandic 0.0
said 0.00379779812474
he 0.00237932344193
scans 0.0
which 0.00123065595696
don 0.0
show 0.0
anything 0.0
substantial 0.0
despite 0.0
best 0.0
efforts 0.0
at 0.00100738128207
moment 0.0
simply 0.0
can 0.00330192124224
shake 0.0
off 0.0
discomfort 0.0
get 0.0
back 0.0
park 0.0
continued 0.0
in 0.00741882485477
sydney 0.0
morning 0.0
herald 0.0
bit 0.0
club 0.0
are 0.00117261750627
doing 0.0
everything 0.0
they 0.0
him 0.0
right 0.0
was 0.00100984546259
desperate 0.0
fit 0.0
game 0.0023572851546
as 0.0127986799616
part 0.0
of 0.00411960335837
plan 0.0
himself 0.0
match 0.0
has 0.00195390641328
played 0.0
since 0.0
december 0.0
19 0.0
misses 0.0
out 0.0
international 0.0
duty 0.0
this 0.00123519596593
week 0.0
with 0.00195295848726
australia 0.0
facing 0.0
south 0.00582657768212
africa 0.0
durban 0.0
wednesday 0.0
