liverpool 0.0
winger 0.0
harry 0.0
kewell 0.0
is 0.00229441036944
struggling 0.0
to 0.0113541443393
recover 0.0
from 0.00270430699618
his 0.0
achilles 0.0
tendinitis 0.0
problem 0.0
and 0.00536868035475
may 0.0
not 0.00395561245472
until 0.0
march 0.0
claims 0.0
agent 0.0
26 0.0
had 0.0063650038389
hoped 0.0
play 0.0
against 0.00153143351927
fulham 0.0
last 0.0
weekend 0.0
be 0.00418794035796
ready 0.0
for 0.0035652300552
the 0.0239296290711
champions 0.0
league 0.0
tie 0.0
bayer 0.0
leverkusen 0.0
on 0.00364985630552
22 0.0
february 0.0
but 0.0
bernie 0.0
mandic 0.0
said 0.00927109158622
he 0.0
scans 0.0
which 0.002002831415
don 0.0
show 0.0
anything 0.0
substantial 0.0
despite 0.0020051528665
best 0.0
efforts 0.00290553551291
at 0.00245919446519
moment 0.0
simply 0.0
can 0.0
shake 0.0
off 0.0
discomfort 0.0
get 0.0
back 0.0
park 0.0
continued 0.0
in 0.00670764932651
sydney 0.0
morning 0.0
herald 0.0
bit 0.0
club 0.0
are 0.000954188360304
doing 0.0
everything 0.0
they 0.00110978460871
him 0.0
right 0.0
was 0.00410868327039
desperate 0.0
fit 0.0
game 0.0
as 0.00173576796942
part 0.0
of 0.0127384545258
plan 0.0
himself 0.0
match 0.0
has 0.0015899427961
played 0.0
since 0.00166846612805
december 0.0
19 0.0
misses 0.0
out 0.0
international 0.00586410672087
duty 0.0
this 0.001005110027
week 0.0
with 0.0
australia 0.0
facing 0.0
south 0.0
africa 0.0
durban 0.0
wednesday 0.0
