liverpool 0.0
winger 0.0
harry 0.0
kewell 0.0
is 0.0057149407392
struggling 0.0
to 0.00623845995737
recover 0.0
from 0.00168397885898
his 0.0
achilles 0.0
tendinitis 0.0
problem 0.0
and 0.00250731820503
may 0.0
not 0.0018473774679
until 0.00403523089343
march 0.0
claims 0.0
agent 0.0
26 0.00546283439039
had 0.00198175205647
hoped 0.0
play 0.0
against 0.0
fulham 0.0
last 0.0
weekend 0.0
be 0.00312940936162
ready 0.0
for 0.00532818682094
the 0.0235933149355
champions 0.0
league 0.0
tie 0.0
bayer 0.0
leverkusen 0.0
on 0.00409099468287
22 0.0
february 0.0
but 0.0
bernie 0.0
mandic 0.0
said 0.00432984926995
he 0.00180843592869
scans 0.0
which 0.00561225702028
don 0.0
show 0.00376829686725
anything 0.0
substantial 0.0
despite 0.00374584140148
best 0.0
efforts 0.0
at 0.00153134666121
moment 0.0
simply 0.0
can 0.0
shake 0.0
off 0.0
discomfort 0.0
get 0.0
back 0.0
park 0.0
continued 0.0
in 0.0100244887953
sydney 0.0
morning 0.0
herald 0.0
bit 0.0
club 0.0
are 0.00356505314338
doing 0.0
everything 0.0
they 0.0
him 0.0
right 0.0
was 0.00153509252655
desperate 0.0
fit 0.0
game 0.0
as 0.00324260141551
part 0.0
of 0.00626231692078
plan 0.0
himself 0.0
match 0.0
has 0.00742546073558
played 0.0
since 0.0
december 0.0
19 0.0
misses 0.0
out 0.0
international 0.0
duty 0.0
this 0.00187765372659
week 0.0
with 0.0044531149906
australia 0.0
facing 0.0
south 0.0
africa 0.0
durban 0.0
wednesday 0.0
