liverpool 0.0
winger 0.0
harry 0.0
kewell 0.0
is 0.00130976435932
struggling 0.0
to 0.0102941697475
recover 0.0
from 0.00771876942207
his 0.00402151445394
achilles 0.0
tendinitis 0.0
problem 0.0
and 0.00459706747248
may 0.00290759866152
not 0.0
until 0.0
march 0.00400459608379
claims 0.0
agent 0.0
26 0.0
had 0.0
hoped 0.0
play 0.0
against 0.0
fulham 0.0
last 0.0
weekend 0.0
be 0.00286882334192
ready 0.0
for 0.00244225426521
the 0.0250437565408
champions 0.0
league 0.0
tie 0.0
bayer 0.0
leverkusen 0.0
on 0.00125011247403
22 0.0
february 0.0
but 0.00446996190476
bernie 0.0
mandic 0.0
said 0.0
he 0.00331569481974
scans 0.0
which 0.0
don 0.0
show 0.0
anything 0.0
substantial 0.0
despite 0.0
best 0.0031187480733
efforts 0.0
at 0.00421149412423
moment 0.0
simply 0.0
can 0.0
shake 0.0
off 0.0
discomfort 0.0
get 0.00270563367187
back 0.0
park 0.0
continued 0.0
in 0.0080410306253
sydney 0.0
morning 0.0
herald 0.0
bit 0.0
club 0.0
are 0.0
doing 0.00406689231399
everything 0.0
they 0.0
him 0.00308521987121
right 0.0
was 0.00985085725226
desperate 0.0
fit 0.0
game 0.0
as 0.0
part 0.00301250341977
of 0.0137780486072
plan 0.0
himself 0.0
match 0.0
has 0.00408428542663
played 0.0
since 0.00285733210375
december 0.0
19 0.0
misses 0.0
out 0.00202486921642
international 0.0
duty 0.0
this 0.0
week 0.0
with 0.0
australia 0.0
facing 0.0
south 0.0
africa 0.0
durban 0.0
wednesday 0.0
