liverpool 0.0
winger 0.0
harry 0.0
kewell 0.0
is 0.00137861887296
struggling 0.0
to 0.0144471144441
recover 0.0
from 0.00324981852669
his 0.00211646304339
achilles 0.0
tendinitis 0.0
problem 0.0
and 0.00604842001993
may 0.0
not 0.00534772882301
until 0.0
march 0.0
claims 0.0
agent 0.0
26 0.0
had 0.00191223735206
hoped 0.0
play 0.0
against 0.00276053034863
fulham 0.0
last 0.0
weekend 0.0
be 0.00603927565172
ready 0.0
for 0.00128532197362
the 0.0263603106706
champions 0.0
league 0.0
tie 0.0
bayer 0.0
leverkusen 0.0
on 0.00394749323667
22 0.0
february 0.0
but 0.001568316163
bernie 0.0
mandic 0.0
said 0.00696328237746
he 0.0052350021089
scans 0.0
which 0.00361026243369
don 0.0
show 0.0
anything 0.0
substantial 0.0
despite 0.0
best 0.0
efforts 0.00523745814722
at 0.00147763100584
moment 0.0
simply 0.0
can 0.0
shake 0.0
off 0.0
discomfort 0.0
get 0.0
back 0.00560244733186
park 0.0
continued 0.0
in 0.0108819627955
sydney 0.0
morning 0.0
herald 0.0
bit 0.0
club 0.0
are 0.00516000053634
doing 0.0
everything 0.0
they 0.0040009495081
him 0.0
right 0.0
was 0.00296249095194
desperate 0.0
fit 0.0
game 0.0
as 0.00156442969855
part 0.0
of 0.00966824182653
plan 0.0
himself 0.0
match 0.0
has 0.00143299897971
played 0.0
since 0.0
december 0.0
19 0.0
misses 0.0
out 0.0
international 0.0
duty 0.0
this 0.00181179052067
week 0.0
with 0.00429691130647
australia 0.0
facing 0.0
south 0.0
africa 0.0
durban 0.0
wednesday 0.0
