liverpool 0.0
winger 0.0
harry 0.0
kewell 0.0
is 0.00467326762476
struggling 0.0
to 0.014283819199
recover 0.0
from 0.00137703683057
his 0.00179360634285
achilles 0.0
tendinitis 0.0
problem 0.0
and 0.00512576137147
may 0.00259359376249
not 0.00604260985752
until 0.0
march 0.0
claims 0.0
agent 0.0
26 0.0
had 0.0032410686824
hoped 0.0
play 0.0
against 0.0
fulham 0.0
last 0.0
weekend 0.0
be 0.00511801193456
ready 0.0
for 0.00326775605889
the 0.0213237498864
champions 0.0
league 0.0
tie 0.0
bayer 0.0
leverkusen 0.0
on 0.00111510710125
22 0.0
february 0.0
but 0.00398723024198
bernie 0.0
mandic 0.0
said 0.00236042627407
he 0.0
scans 0.0
which 0.00152976675417
don 0.0
show 0.0
anything 0.0
substantial 0.0
despite 0.0061261595344
best 0.0
efforts 0.0
at 0.0012522251937
moment 0.0
simply 0.0
can 0.00410445284298
shake 0.0
off 0.0
discomfort 0.0
get 0.0
back 0.0
park 0.0
continued 0.0
in 0.00204932654071
sydney 0.0
morning 0.0
herald 0.0
bit 0.0
club 0.0
are 0.00145762206432
doing 0.0
everything 0.0
they 0.0
him 0.0
right 0.0
was 0.00251057658608
desperate 0.0
fit 0.0
game 0.0
as 0.00132578314515
part 0.00268716937533
of 0.00512087250898
plan 0.0
himself 0.0
match 0.0
has 0.00364320473349
played 0.0
since 0.0
december 0.0
19 0.0
misses 0.0
out 0.0
international 0.0
duty 0.0
this 0.0
week 0.0
with 0.00364143725448
australia 0.0
facing 0.0
south 0.0
africa 0.0
durban 0.0
wednesday 0.0
