liverpool 0.0
winger 0.0
harry 0.0
kewell 0.0
is 0.00336302756735
struggling 0.0
to 0.00978959713813
recover 0.00488143880509
from 0.00264255517085
his 0.0
achilles 0.0
tendinitis 0.0
problem 0.0
and 0.00590184964527
may 0.0
not 0.00144948282881
until 0.0
march 0.0
claims 0.0
agent 0.0
26 0.0
had 0.0
hoped 0.0
play 0.0
against 0.0
fulham 0.0
last 0.0
weekend 0.0
be 0.00122769309813
ready 0.0
for 0.00104514581343
the 0.0263061056932
champions 0.0
league 0.0
tie 0.0
bayer 0.0
leverkusen 0.0
on 0.00320986189807
22 0.00397849436215
february 0.0
but 0.0038257785338
bernie 0.0
mandic 0.0
said 0.00339727114634
he 0.0
scans 0.0
which 0.00146782313903
don 0.0
show 0.0
anything 0.0
substantial 0.0
despite 0.00293904894111
best 0.0
efforts 0.0
at 0.00360455953742
moment 0.0
simply 0.0
can 0.0
shake 0.0
off 0.0
discomfort 0.0
get 0.0
back 0.0
park 0.0
continued 0.0
in 0.0137644136623
sydney 0.0
morning 0.0
herald 0.0
bit 0.0
club 0.0
are 0.0
doing 0.0
everything 0.0
they 0.0
him 0.0
right 0.0
was 0.00120445891353
desperate 0.0
fit 0.0
game 0.0
as 0.00381629782282
part 0.0
of 0.0108097376992
plan 0.0
himself 0.0
match 0.0
has 0.0011652277912
played 0.0
since 0.0
december 0.00322050237937
19 0.0
misses 0.0
out 0.0
international 0.0
duty 0.0
this 0.0029464761614
week 0.0
with 0.00232932497581
australia 0.0
facing 0.0
south 0.00347472642327
africa 0.0
durban 0.0
wednesday 0.0
