liverpool 0.0
winger 0.0
harry 0.0
kewell 0.0
is 0.00325363607126
struggling 0.0
to 0.0134964090156
recover 0.0
from 0.000958724614801
his 0.0
achilles 0.0
tendinitis 0.0
problem 0.0
and 0.00428240711126
may 0.0
not 0.0
until 0.0
march 0.0
claims 0.00250822434385
agent 0.0
26 0.0
had 0.00338475949418
hoped 0.0
play 0.0
against 0.0
fulham 0.0
last 0.00133675102096
weekend 0.0
be 0.000890819314265
ready 0.0
for 0.00530853561669
the 0.0162599963151
champions 0.0
league 0.0
tie 0.0
bayer 0.0
leverkusen 0.0
on 0.00155272626319
22 0.0
february 0.0
but 0.000925333705193
bernie 0.0
mandic 0.0
said 0.00246507433947
he 0.0010295806446
scans 0.0
which 0.0
don 0.0
show 0.0
anything 0.00273497560196
substantial 0.0
despite 0.0
best 0.0
efforts 0.0
at 0.000871827891469
moment 0.0
simply 0.0
can 0.00285761417814
shake 0.0
off 0.00184005239572
discomfort 0.0
get 0.00168029219298
back 0.0
park 0.0
continued 0.0
in 0.00285357625116
sydney 0.0
morning 0.0
herald 0.0
bit 0.0
club 0.0
are 0.00101482990223
doing 0.0
everything 0.0
they 0.0011803147605
him 0.0
right 0.0
was 0.0
desperate 0.0
fit 0.0
game 0.0
as 0.0046152031192
part 0.0
of 0.00713053770912
plan 0.0
himself 0.0
match 0.0
has 0.00422747111432
played 0.0
since 0.00177450217174
december 0.0
19 0.0
misses 0.0
out 0.00125751389462
international 0.0
duty 0.0
this 0.00213797558819
week 0.0
with 0.00253525210918
australia 0.0
facing 0.0
south 0.0
africa 0.0
durban 0.0
wednesday 0.0
