liverpool 0.0
winger 0.0
harry 0.0
kewell 0.0
is 0.00257735210958
struggling 0.0
to 0.00450152221424
recover 0.0
from 0.00202519753641
his 0.00263784313257
achilles 0.0
tendinitis 0.0
problem 0.00260927875923
and 0.00678457624672
may 0.0
not 0.00111085251364
until 0.0
march 0.0
claims 0.0052983408202
agent 0.0
26 0.0
had 0.00119165373162
hoped 0.0
play 0.0
against 0.00172028659918
fulham 0.0
last 0.00141186782557
weekend 0.0
be 0.00564526576073
ready 0.0
for 0.00240293192351
the 0.0156803379467
champions 0.0
league 0.0
tie 0.0
bayer 0.0
leverkusen 0.0
on 0.00409994871623
22 0.0
february 0.0
but 0.000977331504366
bernie 0.0
mandic 0.0
said 0.00433932608862
he 0.00543718225441
scans 0.0
which 0.00112490813355
don 0.0
show 0.0
anything 0.0
substantial 0.0
despite 0.0
best 0.0
efforts 0.0
at 0.00276245702476
moment 0.0
simply 0.0
can 0.0
shake 0.0
off 0.0
discomfort 0.0
get 0.0
back 0.0
park 0.0
continued 0.0
in 0.00979526883418
sydney 0.0
morning 0.0
herald 0.0
bit 0.0
club 0.0
are 0.00107185681172
doing 0.0
everything 0.0
they 0.00124664085403
him 0.0
right 0.0
was 0.00092307144664
desperate 0.0
fit 0.0
game 0.0
as 0.000974909566598
part 0.0
of 0.00903747364707
plan 0.0
himself 0.0
match 0.0
has 0.00357202222777
played 0.0
since 0.0
december 0.0
19 0.0
misses 0.0
out 0.00796906849604
international 0.0
duty 0.0
this 0.0033871740857
week 0.0
with 0.0026777169619
australia 0.0
facing 0.0
south 0.0
africa 0.0
durban 0.0
wednesday 0.0
