liverpool 0.0
winger 0.0
harry 0.0
kewell 0.0
is 0.00640873024451
struggling 0.0
to 0.00559664344145
recover 0.0
from 0.0
his 0.00491935841861
achilles 0.0
tendinitis 0.0
problem 0.0
and 0.00843511424515
may 0.0
not 0.0
until 0.0
march 0.0
claims 0.0
agent 0.0
26 0.0
had 0.0
hoped 0.0
play 0.0
against 0.00320819166978
fulham 0.0
last 0.00263301626542
weekend 0.0
be 0.00175465865164
ready 0.0
for 0.0014937561729
the 0.0208875202224
champions 0.0
league 0.0
tie 0.0
bayer 0.0
leverkusen 0.0
on 0.00305842557263
22 0.00568619271678
february 0.00974832145652
but 0.0
bernie 0.0
mandic 0.0
said 0.00161849657105
he 0.0
scans 0.0
which 0.0
don 0.0
show 0.0
anything 0.0
substantial 0.0
despite 0.0
best 0.0
efforts 0.0
at 0.00858625496781
moment 0.0
simply 0.0
can 0.00281434032717
shake 0.0
off 0.0
discomfort 0.0
get 0.0
back 0.0
park 0.0
continued 0.0
in 0.00843109064378
sydney 0.0
morning 0.0
herald 0.0
bit 0.0
club 0.0
are 0.0
doing 0.0
everything 0.0
they 0.0
him 0.0
right 0.0
was 0.0
desperate 0.0
fit 0.0
game 0.0
as 0.005454376181
part 0.00368507541844
of 0.00280902299305
plan 0.0
himself 0.0
match 0.0
has 0.00166538121626
played 0.0
since 0.0
december 0.0
19 0.0
misses 0.0
out 0.0
international 0.0
duty 0.0
this 0.00210559947609
week 0.0
with 0.0
australia 0.0
facing 0.0
south 0.0
africa 0.0
durban 0.0
wednesday 0.0
