liverpool 0.0
winger 0.0
harry 0.0
kewell 0.0
is 0.00554014006845
struggling 0.0
to 0.0080635288104
recover 0.0
from 0.0
his 0.0141754209473
achilles 0.0
tendinitis 0.0
problem 0.0
and 0.00486125567557
may 0.0
not 0.00238782993526
until 0.0
march 0.0
claims 0.0
agent 0.0
26 0.0
had 0.0
hoped 0.0
play 0.0
against 0.0
fulham 0.0
last 0.00303487656293
weekend 0.0
be 0.00202246088934
ready 0.0
for 0.00344347709463
the 0.0144452686631
champions 0.0
league 0.0
tie 0.0
bayer 0.0
leverkusen 0.0
on 0.00528782002513
22 0.0
february 0.0
but 0.00210082022064
bernie 0.0
mandic 0.0
said 0.00186551726823
he 0.0093499840104
scans 0.0
which 0.0
don 0.0
show 0.0
anything 0.0
substantial 0.0
despite 0.0
best 0.00879461054262
efforts 0.0
at 0.00791737576632
moment 0.0
simply 0.0
can 0.0
shake 0.0
off 0.0
discomfort 0.0
get 0.0
back 0.00375234755515
park 0.0
continued 0.0
in 0.0129571648712
sydney 0.0
morning 0.0
herald 0.0
bit 0.0
club 0.0
are 0.0
doing 0.0
everything 0.0
they 0.0
him 0.0
right 0.0
was 0.00198418566426
desperate 0.0
fit 0.00720482325445
game 0.0
as 0.00419122830207
part 0.0
of 0.00647549212538
plan 0.0
himself 0.0
match 0.0
has 0.00767823045829
played 0.0
since 0.0
december 0.0
19 0.0
misses 0.0
out 0.00285498150854
international 0.00471987241148
duty 0.0
this 0.00728089064792
week 0.00835508154142
with 0.0
australia 0.0
facing 0.0
south 0.0
africa 0.0
durban 0.0
wednesday 0.0
