liverpool 0.0
winger 0.0
harry 0.0
kewell 0.0
is 0.00647544557991
struggling 0.0
to 0.0113098097915
recover 0.0
from 0.00169606323054
his 0.0033137128586
achilles 0.0
tendinitis 0.0
problem 0.0
and 0.00441929412369
may 0.0
not 0.00279095160209
until 0.0
march 0.0
claims 0.00443725655716
agent 0.0
26 0.0
had 0.00299395990968
hoped 0.0
play 0.0
against 0.00144070629872
fulham 0.0
last 0.0
weekend 0.0
be 0.000787966565503
ready 0.0
for 0.00335401395639
the 0.0275146155434
champions 0.0
league 0.0
tie 0.0
bayer 0.0
leverkusen 0.0
on 0.00206017599953
22 0.0
february 0.0
but 0.00572947181279
bernie 0.0
mandic 0.0
said 0.00436092062639
he 0.00546424024342
scans 0.0
which 0.0
don 0.00186650745212
show 0.0
anything 0.0
substantial 0.0
despite 0.0
best 0.0
efforts 0.0
at 0.003084671463
moment 0.0
simply 0.0
can 0.0
shake 0.0
off 0.0
discomfort 0.0
get 0.00297257602555
back 0.0
park 0.0
continued 0.0
in 0.00504821267796
sydney 0.0
morning 0.0
herald 0.0
bit 0.0
club 0.0
are 0.00269297719468
doing 0.00223406936363
everything 0.00251559453376
they 0.00313211182048
him 0.00338961283564
right 0.0
was 0.00309221695495
desperate 0.0
fit 0.0
game 0.0
as 0.00326587059144
part 0.0
of 0.00441507907744
plan 0.00232656857977
himself 0.0
match 0.0
has 0.000747874645592
played 0.0
since 0.0
december 0.0
19 0.0
misses 0.0
out 0.00222464620772
international 0.0
duty 0.0
this 0.00283669188753
week 0.0
with 0.000747511818676
australia 0.0
facing 0.0
south 0.0
africa 0.00256005310085
durban 0.0
wednesday 0.0
