liverpool 0.0
winger 0.0
harry 0.0
kewell 0.0
is 0.0023958336214
struggling 0.0
to 0.00732285352068
recover 0.0
from 0.00282384952158
his 0.0
achilles 0.0
tendinitis 0.0
problem 0.0
and 0.00683231269409
may 0.00132965189143
not 0.0
until 0.00169166090879
march 0.0
claims 0.0
agent 0.0
26 0.0
had 0.0024923871075
hoped 0.0
play 0.0
against 0.0
fulham 0.0
last 0.00098432429728
weekend 0.0
be 0.00327979961029
ready 0.0
for 0.000558424387463
the 0.0197817124419
champions 0.0
league 0.0
tie 0.0
bayer 0.0
leverkusen 0.0
on 0.00285839727056
22 0.0
february 0.0
but 0.00340687396094
bernie 0.0
mandic 0.0
said 0.00302528609654
he 0.00379068812593
scans 0.0
which 0.0
don 0.0
show 0.0
anything 0.0
substantial 0.0
despite 0.00157034222744
best 0.0
efforts 0.0
at 0.0
moment 0.0
simply 0.0
can 0.0
shake 0.0
off 0.0
discomfort 0.0
get 0.00123729281381
back 0.0
park 0.0
continued 0.00653089789066
in 0.0073543654573
sydney 0.0
morning 0.0
herald 0.0
bit 0.0
club 0.0
are 0.00149455166252
doing 0.0
everything 0.0
they 0.00173826311554
him 0.0
right 0.0
was 0.00257418332396
desperate 0.0
fit 0.0
game 0.0
as 0.00339843134277
part 0.0
of 0.00420048993999
plan 0.0
himself 0.0
match 0.0
has 0.00186775359149
played 0.0
since 0.0
december 0.00172072360182
19 0.0
misses 0.0
out 0.000925977583888
international 0.00153083164944
duty 0.0
this 0.00393577653103
week 0.0
with 0.00248912994933
australia 0.0
facing 0.0
south 0.00185655623318
africa 0.0
durban 0.0
wednesday 0.0
