liverpool 0.0
winger 0.0
harry 0.0
kewell 0.0
is 0.00117411688704
struggling 0.0
to 0.0133293918172
recover 0.0
from 0.00138387297855
his 0.0
achilles 0.0
tendinitis 0.0
problem 0.0
and 0.0072116907105
may 0.00260646937363
not 0.0
until 0.0
march 0.0
claims 0.0
agent 0.0
26 0.0
had 0.0032571586116
hoped 0.0
play 0.0
against 0.0
fulham 0.0
last 0.0
weekend 0.0
be 0.00128585493556
ready 0.0
for 0.00218931898309
the 0.0367364730835
champions 0.0
league 0.0
tie 0.0
bayer 0.0
leverkusen 0.0
on 0.00224128585575
22 0.0
february 0.0
but 0.00133567480274
bernie 0.0
mandic 0.0
said 0.00830250522792
he 0.00445845077295
scans 0.0
which 0.0
don 0.0
show 0.0
anything 0.0
substantial 0.00535392120075
despite 0.0
best 0.0
efforts 0.0
at 0.00125844172802
moment 0.0
simply 0.0
can 0.0
shake 0.0
off 0.0
discomfort 0.0
get 0.00485084230868
back 0.0
park 0.0
continued 0.0
in 0.0082380007882
sydney 0.0
morning 0.0
herald 0.0
bit 0.0
club 0.0
are 0.0
doing 0.0
everything 0.0
they 0.0
him 0.0
right 0.0
was 0.00378456010135
desperate 0.0
fit 0.0
game 0.0
as 0.00266472969967
part 0.0
of 0.0102925890353
plan 0.0
himself 0.0
match 0.0
has 0.00244086068194
played 0.0
since 0.00256140873816
december 0.0
19 0.0
misses 0.0
out 0.0
international 0.0
duty 0.0
this 0.00462909776115
week 0.0
with 0.0
australia 0.0
facing 0.0
south 0.0
africa 0.0
durban 0.0
wednesday 0.0
