liverpool 0.0
winger 0.0
harry 0.0
kewell 0.0
is 0.00362430862341
struggling 0.0
to 0.0139262278451
recover 0.0
from 0.00170871667896
his 0.00111281158407
achilles 0.0
tendinitis 0.0
problem 0.0
and 0.00445226418593
may 0.00160914974169
not 0.000937257815002
until 0.0
march 0.00221626004959
claims 0.0
agent 0.0
26 0.0
had 0.00301629629232
hoped 0.0
play 0.0
against 0.00290290932293
fulham 0.0
last 0.0
weekend 0.0
be 0.00476307105312
ready 0.0
for 0.00270322921248
the 0.0258298954731
champions 0.0
league 0.0
tie 0.0
bayer 0.0
leverkusen 0.0
on 0.00553478907878
22 0.0
february 0.0
but 0.00247380704207
bernie 0.0
mandic 0.0
said 0.0051256977266
he 0.00734000814252
scans 0.0
which 0.00284735082215
don 0.0
show 0.0
anything 0.0
substantial 0.00330533748233
despite 0.00190043409551
best 0.0
efforts 0.0
at 0.000776921149377
moment 0.0
simply 0.0
can 0.0
shake 0.0
off 0.0
discomfort 0.0
get 0.00149737643706
back 0.0
park 0.0
continued 0.0
in 0.00699307781626
sydney 0.0
morning 0.0
herald 0.0
bit 0.0
club 0.0
are 0.000904356033777
doing 0.0
everything 0.0
they 0.0052591314715
him 0.0
right 0.0
was 0.00233646478685
desperate 0.0
fit 0.0
game 0.0
as 0.00246767666903
part 0.0
of 0.00889603538679
plan 0.0
himself 0.0
match 0.0
has 0.000753454150581
played 0.0
since 0.0
december 0.0
19 0.0
misses 0.0
out 0.0
international 0.0
duty 0.0
this 0.00190523665
week 0.0
with 0.0
australia 0.0
facing 0.0
south 0.0
africa 0.0
durban 0.0
wednesday 0.0
