liverpool 0.0
winger 0.0
harry 0.0
kewell 0.0
is 0.00530470631945
struggling 0.0
to 0.00860324528496
recover 0.0
from 0.000893198942679
his 0.0
achilles 0.0
tendinitis 0.0
problem 0.0
and 0.00930934358485
may 0.0
not 0.00685907019905
until 0.0
march 0.0
claims 0.0
agent 0.0
26 0.0
had 0.0
hoped 0.0
play 0.0
against 0.00151744029298
fulham 0.0
last 0.0
weekend 0.0
be 0.00331973898379
ready 0.0
for 0.00211959200504
the 0.0204177848481
champions 0.0
league 0.0
tie 0.0
bayer 0.0
leverkusen 0.0
on 0.00361650633337
22 0.0
february 0.0
but 0.000862090191848
bernie 0.0
mandic 0.0
said 0.00459318924256
he 0.00191842439208
scans 0.0
which 0.000992265433309
don 0.0
show 0.0
anything 0.0
substantial 0.0
despite 0.0
best 0.0
efforts 0.0
at 0.00243672397319
moment 0.00264957855027
simply 0.0
can 0.00133115282694
shake 0.0
off 0.0
discomfort 0.0
get 0.00156544975167
back 0.0
park 0.0
continued 0.0
in 0.0119634466766
sydney 0.0
morning 0.0
herald 0.0
bit 0.0
club 0.0
are 0.00283640885509
doing 0.0
everything 0.0
they 0.0021992882624
him 0.0
right 0.0
was 0.0024426845046
desperate 0.0
fit 0.0
game 0.0
as 0.00515972301035
part 0.00174300119761
of 0.00597887003188
plan 0.0
himself 0.0
match 0.0
has 0.000787707475373
played 0.0
since 0.0
december 0.0
19 0.0
misses 0.0
out 0.0
international 0.0
duty 0.0
this 0.00199185199312
week 0.0
with 0.00314930129519
australia 0.0
facing 0.0
south 0.0
africa 0.0
durban 0.0
wednesday 0.0
