liverpool 0.0
winger 0.0
harry 0.0
kewell 0.0
is 0.00223680542185
struggling 0.0
to 0.00683678462149
recover 0.0
from 0.00263641091932
his 0.00171697780417
achilles 0.0
tendinitis 0.0
problem 0.0
and 0.00785083620108
may 0.0
not 0.00289222522156
until 0.00315874713412
march 0.0
claims 0.0
agent 0.0
26 0.0
had 0.0
hoped 0.0
play 0.0
against 0.00223947654138
fulham 0.0
last 0.0
weekend 0.0
be 0.0
ready 0.0
for 0.00312814717954
the 0.016524592421
champions 0.0
league 0.0
tie 0.0
bayer 0.0
leverkusen 0.0
on 0.00426986478892
22 0.0
february 0.0
but 0.00381688314881
bernie 0.0
mandic 0.0
said 0.0
he 0.00141562947892
scans 0.0
which 0.00146441027762
don 0.0
show 0.0
anything 0.0
substantial 0.0
despite 0.0
best 0.0
efforts 0.0
at 0.00239745234174
moment 0.0
simply 0.0
can 0.0
shake 0.0
off 0.0
discomfort 0.0
get 0.0
back 0.00227248894043
park 0.0
continued 0.0
in 0.00588531847795
sydney 0.0
morning 0.0
herald 0.0
bit 0.0
club 0.0
are 0.00279069567444
doing 0.0
everything 0.0
they 0.0
him 0.0
right 0.0
was 0.00120165840491
desperate 0.0
fit 0.0
game 0.0
as 0.0
part 0.0
of 0.00588251115703
plan 0.0
himself 0.0
match 0.0
has 0.00465007399825
played 0.0
since 0.0
december 0.0
19 0.0
misses 0.0
out 0.00172902797728
international 0.0
duty 0.0
this 0.0
week 0.0
with 0.00232390902132
australia 0.0
facing 0.0
south 0.0
africa 0.0
durban 0.0
wednesday 0.00340807324163
