liverpool 0.0
winger 0.0
harry 0.0
kewell 0.0
is 0.0035225276827
struggling 0.0
to 0.00791014650797
recover 0.0
from 0.00296559113009
his 0.0
achilles 0.0
tendinitis 0.0
problem 0.00152835539352
and 0.00706486838788
may 0.0
not 0.00195200772393
until 0.0
march 0.0
claims 0.0
agent 0.0
26 0.0
had 0.000697997636893
hoped 0.0
play 0.0
against 0.00100763833414
fulham 0.0
last 0.000826985540935
weekend 0.0
be 0.00220443352856
ready 0.0
for 0.00516079695437
the 0.0236174910016
champions 0.0
league 0.0
tie 0.0
bayer 0.0
leverkusen 0.0
on 0.00192119871025
22 0.0
february 0.0
but 0.00286230413419
bernie 0.0
mandic 0.0
said 0.0
he 0.00063695354854
scans 0.0
which 0.000658902161012
don 0.0
show 0.0
anything 0.0
substantial 0.0
despite 0.0
best 0.0
efforts 0.0
at 0.00161807782255
moment 0.0
simply 0.00169941498257
can 0.00176787267774
shake 0.0
off 0.00227670927789
discomfort 0.0
get 0.0
back 0.0
park 0.0
continued 0.0
in 0.0092682166529
sydney 0.0
morning 0.0
herald 0.0
bit 0.0
club 0.0
are 0.0025113118075
doing 0.0
everything 0.0
they 0.0
him 0.0
right 0.0
was 0.00108135722877
desperate 0.0
fit 0.0
game 0.0
as 0.0011420844086
part 0.00231483878648
of 0.00926379567576
plan 0.0
himself 0.0
match 0.0
has 0.00366147502716
played 0.0
since 0.00439120708458
december 0.0
19 0.0
misses 0.0
out 0.000777965224695
international 0.00257227347367
duty 0.0
this 0.000661332914876
week 0.0
with 0.0020912563911
australia 0.0
facing 0.0
south 0.0
africa 0.0
durban 0.0
wednesday 0.0
