liverpool 0.0
winger 0.0
harry 0.0
kewell 0.0
is 0.00308471416113
struggling 0.0
to 0.0134691620805
recover 0.00335809990564
from 0.00181789931703
his 0.00355175221892
achilles 0.0
tendinitis 0.0
problem 0.0
and 0.00609011037368
may 0.0
not 0.000997146199104
until 0.0
march 0.0
claims 0.00237800263561
agent 0.0
26 0.0
had 0.00213935328866
hoped 0.0
play 0.0
against 0.00154419891271
fulham 0.0
last 0.0012673497324
weekend 0.0
be 0.0
ready 0.0
for 0.00647090699658
the 0.0201075804294
champions 0.0
league 0.0
tie 0.0
bayer 0.0
leverkusen 0.0
on 0.00294422399281
22 0.0
february 0.0
but 0.00175458466876
bernie 0.0
mandic 0.0
said 0.00389515481381
he 0.00195225398593
scans 0.0
which 0.00403905237083
don 0.0
show 0.0
anything 0.0
substantial 0.0
despite 0.0
best 0.0
efforts 0.0
at 0.0
moment 0.0
simply 0.0
can 0.0
shake 0.0
off 0.00174452076323
discomfort 0.0
get 0.0
back 0.00470088641625
park 0.0
continued 0.0
in 0.00473449305278
sydney 0.0
morning 0.0
herald 0.0
bit 0.0
club 0.0
are 0.000962142077968
doing 0.0
everything 0.0
they 0.00111903531205
him 0.0
right 0.0
was 0.00497151785615
desperate 0.0
fit 0.0
game 0.0
as 0.0026253549149
part 0.00177373736987
of 0.0128446369893
plan 0.0
himself 0.0
match 0.0
has 0.00480958769567
played 0.0
since 0.00504712130512
december 0.0
19 0.0
misses 0.0
out 0.0
international 0.0
duty 0.0
this 0.00101348820652
week 0.0
with 0.000801209058823
australia 0.0
facing 0.00284258639169
south 0.0
africa 0.0
durban 0.0
wednesday 0.0
